M48
; DRILL file {KiCad (5.1.12)-1} date 02/21/22 14:59:58
; FORMAT={-:-/ absolute / inch / decimal}
; #@! TF.CreationDate,2022-02-21T14:59:58+09:00
; #@! TF.GenerationSoftware,Kicad,Pcbnew,(5.1.12)-1
; #@! TF.FileFunction,Plated,1,2,PTH
FMAT,2
INCH
T1C0.0118
T2C0.0157
T3C0.0256
T4C0.0276
T5C0.0300
T6C0.0320
T7C0.0335
T8C0.0512
%
G90
G05
T2
X2.2702Y-2.5045
X2.2702Y-4.0118
X2.2918Y-3.2581
X2.3336Y-3.5955
X2.3836Y-2.8939
X2.3836Y-3.6439
X2.3836Y-4.3939
X2.4336Y-2.8939
X2.4336Y-3.6439
X2.4336Y-4.3939
X2.4408Y-3.7468
X2.4685Y-3.0355
X2.5163Y-3.1502
X2.8086Y-2.8939
X2.8086Y-3.6439
X2.8086Y-4.3939
X2.8508Y-2.9538
X2.8535Y-4.4451
X2.8586Y-2.8939
X2.8586Y-3.6439
X2.8586Y-4.3939
X2.8845Y-2.7328
X2.8845Y-4.2338
X2.8978Y-3.4458
X2.9336Y-2.749
X2.9336Y-2.8888
X2.9336Y-3.499
X2.9336Y-3.6388
X2.9336Y-4.249
X2.9336Y-4.3888
X2.9571Y-3.2525
X3.0155Y-2.8225
X3.0312Y-3.5828
X3.0329Y-2.4685
X3.0329Y-3.9758
X3.0775Y-2.9055
X3.0885Y-2.8075
X3.0916Y-3.604
X3.1336Y-2.8439
X3.1336Y-3.5939
X3.1336Y-4.3439
X3.1416Y-3.5366
X3.1522Y-2.9929
X3.16Y-3.7374
X3.1713Y-3.1374
X3.1836Y-2.8439
X3.1836Y-3.0189
X3.1836Y-3.5939
X3.1836Y-3.7689
X3.1836Y-4.3439
X3.2239Y-3.8489
X3.2436Y-3.0984
X3.2736Y-2.9339
X3.2927Y-3.8554
X3.3776Y-3.6814
X3.4224Y-3.2925
X3.5586Y-2.8439
X3.5586Y-3.0189
X3.5586Y-3.5939
X3.5586Y-3.7689
X3.5586Y-4.3439
X3.6024Y-3.117
X3.6086Y-2.8439
X3.6086Y-3.0189
X3.6086Y-3.5939
X3.6086Y-3.7689
X3.6086Y-4.3439
X3.6228Y-3.5429
X3.6494Y-4.1458
X3.6579Y-3.8046
X3.6836Y-2.699
X3.6836Y-2.8388
X3.6836Y-3.449
X3.6836Y-3.5888
X3.6836Y-4.199
X3.6836Y-4.3388
X3.6985Y-3.8452
X3.7036Y-3.2389
X3.7476Y-2.5659
X3.7741Y-2.3144
X3.7872Y-3.3464
X3.8351Y-3.3792
X3.8487Y-4.1775
X3.8494Y-2.5819
X3.8541Y-2.9327
X3.8836Y-2.6439
X3.8836Y-3.3939
X3.8836Y-4.1439
X3.8895Y-3.6863
X3.8998Y-3.4583
X3.9336Y-2.6439
X3.9336Y-3.3939
X3.9336Y-4.1439
X3.967Y-3.4674
X4.2736Y-3.5589
X4.3086Y-2.6439
X4.3086Y-3.3939
X4.3086Y-4.1439
X4.3586Y-2.6439
X4.3586Y-3.3939
X4.3586Y-4.1439
X4.4336Y-2.499
X4.4336Y-2.6388
X4.4336Y-3.249
X4.4336Y-3.3888
X4.4336Y-3.999
X4.4336Y-4.1388
X4.4603Y-3.0169
X4.4645Y-2.711
X4.4778Y-4.3325
X4.5041Y-3.3852
X4.5074Y-4.0148
X4.5124Y-2.3787
X4.5124Y-3.886
X4.5129Y-3.3215
X4.5134Y-4.0719
X4.5135Y-3.1591
X4.5224Y-2.6724
X4.5246Y-2.1662
X4.5341Y-2.7308
X4.5341Y-2.9317
X4.539Y-3.6853
X4.5754Y-2.6696
X4.5786Y-3.1738
X4.6236Y-2.7289
X4.6236Y-3.2939
X4.6336Y-2.5439
X4.6336Y-4.0439
X4.6336Y-4.2439
X4.6336Y-5.0939
X4.6337Y-4.6107
X4.6338Y-3.3852
X4.6736Y-3.2939
X4.6836Y-2.5439
X4.6836Y-2.7189
X4.6836Y-4.0439
X4.6836Y-4.2439
X4.6836Y-5.0939
X4.7036Y-4.9889
X4.7336Y-3.4989
X4.8636Y-4.4889
X4.8799Y-2.1241
X4.9036Y-3.5589
X5.0486Y-3.2939
X5.0586Y-2.5439
X5.0586Y-4.0439
X5.0586Y-4.2439
X5.0586Y-5.0939
X5.0636Y-2.7189
X5.0974Y-3.428
X5.0986Y-3.2939
X5.1036Y-2.7167
X5.1086Y-2.5439
X5.1086Y-4.0439
X5.1086Y-4.2439
X5.1086Y-5.0939
X5.1836Y-2.399
X5.1836Y-2.5388
X5.1836Y-3.149
X5.1836Y-3.2888
X5.1836Y-3.899
X5.1836Y-4.0388
X5.1836Y-4.949
X5.1836Y-5.0888
X5.1875Y-4.2956
X5.2236Y-3.6489
X5.2594Y-4.7915
X5.2608Y-2.3598
X5.2608Y-3.1098
X5.2619Y-3.7987
X5.2801Y-3.8791
X5.2805Y-2.7589
X5.2822Y-4.8684
X5.2935Y-4.9641
X5.2966Y-4.5688
X5.3223Y-2.5429
X5.3283Y-2.2689
X5.3696Y-4.2038
X5.3736Y-4.2439
X5.3836Y-2.7439
X5.3836Y-3.4939
X5.3836Y-4.9939
X5.4135Y-3.7215
X5.4217Y-2.8162
X5.4236Y-4.2439
X5.4336Y-2.7439
X5.4336Y-3.4939
X5.4336Y-4.9939
X5.6449Y-3.6733
X5.7807Y-2.8918
X5.7986Y-4.2439
X5.8086Y-2.7439
X5.8086Y-3.4939
X5.8086Y-4.9939
X5.8486Y-4.2439
X5.8586Y-2.7439
X5.8586Y-3.4939
X5.8586Y-4.9939
X5.8896Y-4.2336
X5.8978Y-4.0458
X5.9336Y-2.599
X5.9336Y-2.7388
X5.9336Y-3.349
X5.9336Y-3.4888
X5.9336Y-4.099
X5.9336Y-4.2388
X5.9336Y-4.849
X5.9336Y-4.9888
X5.9893Y-4.6229
X5.9907Y-3.282
X5.9915Y-3.8374
X6.0094Y-2.4901
X6.0143Y-2.4206
X6.0325Y-3.8812
X6.0387Y-3.2221
X6.0403Y-3.1256
X6.0406Y-4.6155
X6.042Y-4.6793
X6.0431Y-4.4724
X6.1306Y-4.5439
X6.1336Y-2.8439
X6.1336Y-3.5939
X6.1336Y-4.3439
X6.1336Y-5.0939
X6.1577Y-4.6026
X6.1614Y-4.4435
X6.1806Y-3.0439
X6.1806Y-4.5439
X6.1836Y-2.8439
X6.1836Y-3.5939
X6.1836Y-4.3439
X6.1836Y-5.0939
X6.2508Y-3.1256
X6.2725Y-2.9727
X6.4484Y-2.9586
X6.4861Y-4.2069
X6.5414Y-2.7772
X6.5556Y-3.0439
X6.5556Y-4.5439
X6.5586Y-2.8439
X6.5586Y-3.5939
X6.5586Y-4.3439
X6.5586Y-5.0939
X6.6056Y-3.0439
X6.6056Y-4.5439
X6.6086Y-2.8439
X6.6086Y-3.5939
X6.6086Y-4.3439
X6.6086Y-5.0939
X6.6154Y-2.7121
X6.6396Y-3.4858
X6.6446Y-3.6399
X6.6507Y-4.6328
X6.6542Y-2.7596
X6.6836Y-2.699
X6.6836Y-2.8388
X6.6836Y-3.449
X6.6836Y-3.5888
X6.6836Y-4.199
X6.6836Y-4.3388
X6.6836Y-4.949
X6.6836Y-5.0888
X6.6925Y-4.5915
X6.7019Y-3.3958
X6.7136Y-3.6447
X6.7136Y-3.7018
X6.7152Y-2.4901
X6.7152Y-3.9974
X6.7152Y-4.7511
X6.7201Y-2.6289
X6.7236Y-5.1689
X6.7568Y-3.7267
X6.7589Y-4.8236
X6.7685Y-2.7055
X6.7703Y-3.4878
X6.7719Y-5.6457
X6.7759Y-5.1491
X6.8178Y-4.0789
X6.8385Y-2.6555
X6.8386Y-5.1539
X6.8749Y-4.0807
X6.8785Y-2.8055
X6.8836Y-2.983
X6.8836Y-3.0548
X6.9479Y-2.9872
X6.9716Y-4.1436
X6.9963Y-3.977
X6.9985Y-2.6155
X7.0047Y-3.241
X7.0236Y-4.1389
X7.0286Y-3.0583
X7.0385Y-2.5555
X7.0386Y-2.9139
X7.0533Y-4.3086
X7.0636Y-4.9939
X7.0641Y-4.5439
X7.0685Y-2.5855
X7.0701Y-4.8839
X7.071Y-4.137
X7.0885Y-2.8455
X7.1085Y-2.6355
X7.1085Y-2.9155
X7.1312Y-4.5893
X7.1595Y-4.1653
X7.1836Y-2.983
X7.1836Y-3.0548
X7.1838Y-4.1087
X7.1901Y-4.7971
X7.1936Y-5.1089
X7.1985Y-2.8255
X7.2049Y-3.1871
X7.2161Y-5.0258
X7.2282Y-4.7209
X7.237Y-4.6489
X7.2382Y-5.2184
X7.2685Y-3.1855
X7.2734Y-4.1087
X7.2836Y-4.3089
X7.2848Y-5.2413
X7.2848Y-5.6971
X7.2885Y-2.9055
X7.2985Y-3.0155
X7.3085Y-3.6355
X7.3105Y-4.7815
X7.3105Y-4.9175
X7.3336Y-5.5889
X7.3511Y-5.062
X7.3636Y-4.8389
X7.3963Y-3.977
X7.4373Y-3.1624
X7.4442Y-3.2494
X7.4536Y-4.1989
X7.4661Y-3.1299
X7.4836Y-3.0289
X7.4998Y-4.5226
X7.5036Y-4.0789
X7.512Y-3.4693
X7.536Y-3.2528
X7.5825Y-3.0964
X7.6099Y-4.1239
T5
X6.8385Y-2.3355
X6.8385Y-2.7355
X6.9385Y-2.7355
X7.0385Y-2.7355
X7.1385Y-2.7355
X7.2385Y-2.3355
X7.2385Y-2.7355
T6
X6.8936Y-4.3639
X6.9936Y-4.3639
X7.0936Y-4.3639
X7.1936Y-4.3639
T7
X6.8536Y-3.3189
X6.8536Y-3.4189
X6.8536Y-3.5189
X6.8536Y-3.6189
X6.8536Y-3.7189
X6.8536Y-3.8189
X6.8536Y-3.9189
X6.8536Y-4.0189
X6.9536Y-3.3189
X6.9536Y-3.4189
X6.9536Y-3.5189
X6.9536Y-3.6189
X6.9536Y-3.7189
X6.9536Y-3.8189
X6.9536Y-3.9189
X6.9536Y-4.0189
X7.0536Y-3.3189
X7.0536Y-3.4189
X7.0536Y-3.9189
X7.0536Y-4.0189
X7.1536Y-3.3189
X7.1536Y-3.4189
X7.1536Y-3.9189
X7.1536Y-4.0189
X7.2536Y-3.3189
X7.2536Y-3.4189
X7.2536Y-3.9189
X7.2536Y-4.0189
X7.3536Y-3.3189
X7.3536Y-3.4189
X7.3536Y-3.9189
X7.3536Y-4.0189
X7.4536Y-3.3189
X7.4536Y-3.4189
X7.4536Y-3.5189
X7.4536Y-3.6189
X7.4536Y-3.7189
X7.4536Y-3.8189
X7.4536Y-3.9189
X7.4536Y-4.0189
X7.5536Y-3.3189
X7.5536Y-3.4189
X7.5536Y-3.5189
X7.5536Y-3.6189
X7.5536Y-3.7189
X7.5536Y-3.8189
X7.5536Y-3.9189
X7.5536Y-4.0189
T8
X7.3407Y-4.2289
X7.3407Y-4.4139
X7.5966Y-4.2289
X7.5966Y-4.4139
T1
G00X7.3769Y-2.4698
M15
G01X7.3769Y-2.521
M16
G05
G00X7.3769Y-2.588
M15
G01X7.3769Y-2.6391
M16
G05
G00X7.3769Y-2.7454
M15
G01X7.3769Y-2.7966
M16
G05
G00X7.4458Y-2.8045
M15
G01X7.4458Y-2.8557
M16
G05
G00X7.5423Y-2.8045
M15
G01X7.5423Y-2.8557
M16
G05
G00X7.6112Y-2.4698
M15
G01X7.6112Y-2.521
M16
G05
G00X7.6112Y-2.588
M15
G01X7.6112Y-2.6391
M16
G05
G00X7.6112Y-2.7454
M15
G01X7.6112Y-2.7966
M16
G05
T3
G00X6.9442Y-2.4919
M15
G01X6.9442Y-2.5076
M16
G05
G00X7.1348Y-2.4919
M15
G01X7.1348Y-2.5076
M16
G05
T4
G00X6.932Y-2.3718
M15
G01X6.932Y-2.3915
M16
G05
G00X7.147Y-2.3718
M15
G01X7.147Y-2.3915
M16
G05
T0
M30
