%!PS-Adobe-3.0
%%Creator: PCBNEW
%%CreationDate: Mon Feb 21 15:00:28 2022
%%Title: C:\Users\taku3\Documents\git\accent\Glissando\Rev1\plot\accent-PTH-drl_map.ps
%%Pages: 1
%%PageOrder: Ascend
%%BoundingBox: 0 0 596 842
%%DocumentMedia: A4 595 842 0 () ()
%%Orientation: Landscape
%%EndComments
%%BeginProlog
/line { newpath moveto lineto stroke } bind def
/cir0 { newpath 0 360 arc stroke } bind def
/cir1 { newpath 0 360 arc gsave fill grestore stroke } bind def
/cir2 { newpath 0 360 arc gsave fill grestore stroke } bind def
/arc0 { newpath arc stroke } bind def
/arc1 { newpath 4 index 4 index moveto arc closepath gsave fill
    grestore stroke } bind def
/arc2 { newpath 4 index 4 index moveto arc closepath gsave fill
    grestore stroke } bind def
/poly0 { stroke } bind def
/poly1 { closepath gsave fill grestore stroke } bind def
/poly2 { closepath gsave fill grestore stroke } bind def
/rect0 { rectstroke } bind def
/rect1 { rectfill } bind def
/rect2 { rectfill } bind def
/linemode0 { 0 setlinecap 0 setlinejoin 0 setlinewidth } bind def
/linemode1 { 1 setlinecap 1 setlinejoin } bind def
/dashedline { [200] 100 setdash } bind def
/solidline { [] 0 setdash } bind def
/phantomshow { moveto
    /KicadFont findfont 0.000001 scalefont setfont
    show } bind def
/textshow { gsave
    findfont exch scalefont setfont concat 1 scale 0 0 moveto show
    } bind def
/reencodefont {
  findfont dup length dict begin
  { 1 index /FID ne
    { def }
    { pop pop } ifelse
  } forall
  /Encoding ISOLatin1Encoding def
  currentdict
  end } bind def
/KicadFont /Helvetica reencodefont definefont pop
/KicadFont-Bold /Helvetica-Bold reencodefont definefont pop
/KicadFont-Oblique /Helvetica-Oblique reencodefont definefont pop
/KicadFont-BoldOblique /Helvetica-BoldOblique reencodefont definefont pop
%%EndProlog
%%Page: 1 1
%%BeginPageSetup
gsave
0.0072 0.0072 scale
linemode1
82680 0 translate 90 rotate
53.2601 setlinewidth
%%EndPageSetup
0 0 0 setrgbcolor
62.9057 setlinewidth
newpath
70003.8 75515.9 moveto
69941.4 75525.3 lineto
stroke
newpath
69941.4 75525.3 moveto
69878.3 75557.6 lineto
stroke
newpath
69878.3 75557.6 moveto
69829.9 75608.4 lineto
stroke
newpath
69829.9 75608.4 moveto
69800.7 75673.2 lineto
stroke
newpath
69800.7 75673.2 moveto
69794.1 75725.6 lineto
stroke
0 0 0 setrgbcolor
newpath
87311.4 75515.9 moveto
70003.8 75515.9 lineto
stroke
0 0 0 setrgbcolor
newpath
87521.1 75306.2 moveto
87511.6 75368.6 lineto
stroke
newpath
87511.6 75368.6 moveto
87479.4 75431.7 lineto
stroke
newpath
87479.4 75431.7 moveto
87428.6 75480.1 lineto
stroke
newpath
87428.6 75480.1 moveto
87363.8 75509.3 lineto
stroke
newpath
87363.8 75509.3 moveto
87311.4 75515.9 lineto
stroke
0 0 0 setrgbcolor
newpath
87521.1 48379.7 moveto
87521.1 75306.2 lineto
stroke
0 0 0 setrgbcolor
newpath
87492.5 48162.7 moveto
87507.5 48229.6 lineto
stroke
newpath
87507.5 48229.6 moveto
87517 48297.5 lineto
stroke
newpath
87517 48297.5 moveto
87521 48366 lineto
stroke
newpath
87521 48366 moveto
87521.1 48379.7 lineto
stroke
0 0 0 setrgbcolor
newpath
84560.1 37218.7 moveto
87492.5 48162.7 lineto
stroke
0 0 0 setrgbcolor
newpath
84303.2 37070.4 moveto
84365.9 37063.4 lineto
stroke
newpath
84365.9 37063.4 moveto
84435.2 37078.2 lineto
stroke
newpath
84435.2 37078.2 moveto
84495.1 37114.7 lineto
stroke
newpath
84495.1 37114.7 moveto
84540.1 37169.8 lineto
stroke
newpath
84540.1 37169.8 moveto
84560.1 37218.7 lineto
stroke
0 0 0 setrgbcolor
newpath
76768.7 39089.3 moveto
84303.2 37070.4 lineto
stroke
0 0 0 setrgbcolor
newpath
76620.4 39346.1 moveto
76613.4 39283.5 lineto
stroke
newpath
76613.4 39283.5 moveto
76628.2 39214.2 lineto
stroke
newpath
76628.2 39214.2 moveto
76664.7 39154.3 lineto
stroke
newpath
76664.7 39154.3 moveto
76719.8 39109.3 lineto
stroke
newpath
76719.8 39109.3 moveto
76768.7 39089.3 lineto
stroke
0 0 0 setrgbcolor
newpath
77616.9 43065 moveto
76620.4 39346.1 lineto
stroke
0 0 0 setrgbcolor
newpath
77414.4 43329 moveto
77487.3 43316 lineto
stroke
newpath
77487.3 43316 moveto
77548.5 43280.6 lineto
stroke
newpath
77548.5 43280.6 moveto
77593.9 43227.7 lineto
stroke
newpath
77593.9 43227.7 moveto
77619.7 43162.4 lineto
stroke
newpath
77619.7 43162.4 moveto
77622 43089.9 lineto
stroke
newpath
77622 43089.9 moveto
77616.9 43065 lineto
stroke
0 0 0 setrgbcolor
newpath
53795.1 43329 moveto
77414.4 43329 lineto
stroke
0 0 0 setrgbcolor
newpath
53585.5 43538.6 moveto
53594.9 43476.3 lineto
stroke
newpath
53594.9 43476.3 moveto
53627.1 43413.2 lineto
stroke
newpath
53627.1 43413.2 moveto
53677.9 43364.8 lineto
stroke
newpath
53677.9 43364.8 moveto
53742.7 43335.6 lineto
stroke
newpath
53742.7 43335.6 moveto
53795.1 43329 lineto
stroke
0 0 0 setrgbcolor
newpath
53585.5 50575.7 moveto
53585.5 43538.6 lineto
stroke
0 0 0 setrgbcolor
newpath
53375.8 50785.4 moveto
53438.1 50776 lineto
stroke
newpath
53438.1 50776 moveto
53501.2 50743.8 lineto
stroke
newpath
53501.2 50743.8 moveto
53549.6 50693 lineto
stroke
newpath
53549.6 50693 moveto
53578.9 50628.2 lineto
stroke
newpath
53578.9 50628.2 moveto
53585.5 50575.7 lineto
stroke
0 0 0 setrgbcolor
newpath
29618.6 50785.4 moveto
53375.8 50785.4 lineto
stroke
0 0 0 setrgbcolor
newpath
29408.9 50995.1 moveto
29418.3 50932.8 lineto
stroke
newpath
29418.3 50932.8 moveto
29450.6 50869.7 lineto
stroke
newpath
29450.6 50869.7 moveto
29501.4 50821.2 lineto
stroke
newpath
29501.4 50821.2 moveto
29566.2 50792 lineto
stroke
newpath
29566.2 50792 moveto
29618.6 50785.4 lineto
stroke
0 0 0 setrgbcolor
newpath
29408.9 75306.2 moveto
29408.9 50995.1 lineto
stroke
0 0 0 setrgbcolor
newpath
29618.6 75515.9 moveto
29556.3 75506.5 lineto
stroke
newpath
29556.3 75506.5 moveto
29493.2 75474.3 lineto
stroke
newpath
29493.2 75474.3 moveto
29444.7 75423.5 lineto
stroke
newpath
29444.7 75423.5 moveto
29415.5 75358.6 lineto
stroke
newpath
29415.5 75358.6 moveto
29408.9 75306.2 lineto
stroke
0 0 0 setrgbcolor
newpath
45386.7 75515.9 moveto
29618.6 75515.9 lineto
stroke
0 0 0 setrgbcolor
newpath
45596.4 75725.6 moveto
45587 75663.2 lineto
stroke
newpath
45587 75663.2 moveto
45554.8 75600.1 lineto
stroke
newpath
45554.8 75600.1 moveto
45504 75551.7 lineto
stroke
newpath
45504 75551.7 moveto
45439.2 75522.5 lineto
stroke
newpath
45439.2 75522.5 moveto
45386.7 75515.9 lineto
stroke
0 0 0 setrgbcolor
newpath
45596.4 77436.6 moveto
45596.4 75725.6 lineto
stroke
0 0 0 setrgbcolor
newpath
45806.1 77646.3 moveto
45743.8 77636.9 lineto
stroke
newpath
45743.8 77636.9 moveto
45680.7 77604.7 lineto
stroke
newpath
45680.7 77604.7 moveto
45632.2 77553.9 lineto
stroke
newpath
45632.2 77553.9 moveto
45603 77489 lineto
stroke
newpath
45603 77489 moveto
45596.4 77436.6 lineto
stroke
0 0 0 setrgbcolor
newpath
53375.8 77646.3 moveto
45806.1 77646.3 lineto
stroke
0 0 0 setrgbcolor
newpath
53585.5 77856 moveto
53576 77793.6 lineto
stroke
newpath
53576 77793.6 moveto
53543.8 77730.5 lineto
stroke
newpath
53543.8 77730.5 moveto
53493 77682.1 lineto
stroke
newpath
53493 77682.1 moveto
53428.2 77652.9 lineto
stroke
newpath
53428.2 77652.9 moveto
53375.8 77646.3 lineto
stroke
0 0 0 setrgbcolor
newpath
53585.5 78501.9 moveto
53585.5 77856 lineto
stroke
0 0 0 setrgbcolor
newpath
53795.1 78711.5 moveto
53732.8 78702.1 lineto
stroke
newpath
53732.8 78702.1 moveto
53669.7 78669.9 lineto
stroke
newpath
53669.7 78669.9 moveto
53621.3 78619.1 lineto
stroke
newpath
53621.3 78619.1 moveto
53592.1 78554.3 lineto
stroke
newpath
53592.1 78554.3 moveto
53585.5 78501.9 lineto
stroke
0 0 0 setrgbcolor
newpath
61595.4 78711.5 moveto
53795.1 78711.5 lineto
stroke
0 0 0 setrgbcolor
newpath
61805.1 78501.9 moveto
61795.7 78564.2 lineto
stroke
newpath
61795.7 78564.2 moveto
61763.5 78627.3 lineto
stroke
newpath
61763.5 78627.3 moveto
61712.7 78675.7 lineto
stroke
newpath
61712.7 78675.7 moveto
61647.9 78704.9 lineto
stroke
newpath
61647.9 78704.9 moveto
61595.4 78711.5 lineto
stroke
0 0 0 setrgbcolor
newpath
61805.1 76790.8 moveto
61805.1 78501.9 lineto
stroke
0 0 0 setrgbcolor
newpath
62014.8 76581.1 moveto
61952.5 76590.6 lineto
stroke
newpath
61952.5 76590.6 moveto
61889.4 76622.8 lineto
stroke
newpath
61889.4 76622.8 moveto
61840.9 76673.6 lineto
stroke
newpath
61840.9 76673.6 moveto
61811.7 76738.4 lineto
stroke
newpath
61811.7 76738.4 moveto
61805.1 76790.8 lineto
stroke
0 0 0 setrgbcolor
newpath
69584.4 76581.1 moveto
62014.8 76581.1 lineto
stroke
0 0 0 setrgbcolor
newpath
69794.1 76371.5 moveto
69784.7 76433.8 lineto
stroke
newpath
69784.7 76433.8 moveto
69752.4 76496.9 lineto
stroke
newpath
69752.4 76496.9 moveto
69701.6 76545.3 lineto
stroke
newpath
69701.6 76545.3 moveto
69636.8 76574.5 lineto
stroke
newpath
69636.8 76574.5 moveto
69584.4 76581.1 lineto
stroke
0 0 0 setrgbcolor
newpath
69794.1 75725.6 moveto
69794.1 76371.5 lineto
stroke
78.7399 setlinewidth
newpath
81550.8 54135.7 moveto
81676.6 54009.9 lineto
stroke
newpath
81676.6 54135.7 moveto
81550.8 54009.9 lineto
stroke
newpath
81886.3 54096.3 moveto
81341.1 54096.3 lineto
stroke
newpath
81886.3 54049.2 moveto
81341.1 54049.2 lineto
stroke
81341.1 54072.8 23.5355 450 630 arc0
81886.3 54072.8 23.5355 270 450 arc0
newpath
81550.8 53108.2 moveto
81676.6 52982.4 lineto
stroke
newpath
81676.6 53108.2 moveto
81550.8 52982.4 lineto
stroke
newpath
81886.3 53068.9 moveto
81341.1 53068.9 lineto
stroke
newpath
81886.3 53021.8 moveto
81341.1 53021.8 lineto
stroke
81341.1 53045.3 23.5355 450 630 arc0
81886.3 53045.3 23.5355 270 450 arc0
newpath
82179.8 54869.6 moveto
82305.6 54743.8 lineto
stroke
newpath
82305.6 54869.6 moveto
82179.8 54743.8 lineto
stroke
newpath
82515.3 54830.2 moveto
81970.1 54830.2 lineto
stroke
newpath
82515.3 54783.1 moveto
81970.1 54783.1 lineto
stroke
81970.1 54806.7 23.5355 450 630 arc0
82515.3 54806.7 23.5355 270 450 arc0
newpath
82179.8 52374.3 moveto
82305.6 52248.5 lineto
stroke
newpath
82305.6 52374.3 moveto
82179.8 52248.5 lineto
stroke
newpath
82515.3 52335 moveto
81970.1 52335 lineto
stroke
newpath
82515.3 52287.9 moveto
81970.1 52287.9 lineto
stroke
81970.1 52311.4 23.5355 450 630 arc0
82515.3 52311.4 23.5355 270 450 arc0
newpath
83857.3 54869.6 moveto
83983.1 54743.8 lineto
stroke
newpath
83983.1 54869.6 moveto
83857.3 54743.8 lineto
stroke
newpath
84192.8 54830.2 moveto
83647.6 54830.2 lineto
stroke
newpath
84192.8 54783.1 moveto
83647.6 54783.1 lineto
stroke
83647.6 54806.7 23.5355 450 630 arc0
84192.8 54806.7 23.5355 270 450 arc0
newpath
83857.3 52374.3 moveto
83983.1 52248.5 lineto
stroke
newpath
83983.1 52374.3 moveto
83857.3 52248.5 lineto
stroke
newpath
84192.8 52335 moveto
83647.6 52335 lineto
stroke
newpath
84192.8 52287.9 moveto
83647.6 52287.9 lineto
stroke
83647.6 52311.4 23.5355 450 630 arc0
84192.8 52311.4 23.5355 270 450 arc0
newpath
85115.4 54869.6 moveto
85241.2 54743.8 lineto
stroke
newpath
85241.2 54869.6 moveto
85115.4 54743.8 lineto
stroke
newpath
85450.9 54830.2 moveto
84905.7 54830.2 lineto
stroke
newpath
85450.9 54783.1 moveto
84905.7 54783.1 lineto
stroke
84905.7 54806.7 23.5355 450 630 arc0
85450.9 54806.7 23.5355 270 450 arc0
newpath
85115.4 52374.3 moveto
85241.2 52248.5 lineto
stroke
newpath
85241.2 52374.3 moveto
85115.4 52248.5 lineto
stroke
newpath
85450.9 52335 moveto
84905.7 52335 lineto
stroke
newpath
85450.9 52287.9 moveto
84905.7 52287.9 lineto
stroke
84905.7 52311.4 23.5355 450 630 arc0
85450.9 52311.4 23.5355 270 450 arc0
30138.4 72738.6 83.8742 cir0
30138.4 71140.8 83.8742 cir0
30138.4 65548.5 83.8742 cir0
30163.5 57318.3 83.8742 cir0
30404.7 66880 83.8742 cir0
30632.6 59783.6 83.8742 cir0
30671 61537.2 83.8742 cir0
30708.7 67907.4 83.8742 cir0
31203.6 59689.8 83.8742 cir0
31469.9 69010.4 83.8742 cir0
31469.9 61021.3 83.8742 cir0
31469.9 53032.3 83.8742 cir0
31997.1 69011.4 83.8742 cir0
31997.1 61022.4 83.8742 cir0
31997.1 53033.4 83.8742 cir0
32002.5 62352.8 83.8742 cir0
32535.1 67907.4 83.8742 cir0
33067.7 74602.7 83.8742 cir0
33067.7 66081.1 83.8742 cir0
33067.7 64216.9 83.8742 cir0
33866.6 67945.2 83.8742 cir0
33866.6 66081.1 83.8742 cir0
34399.2 66081.1 83.8742 cir0
34399.2 64216.9 83.8742 cir0
34931.8 62352.8 83.8742 cir0
35464.4 69010.4 83.8742 cir0
35464.4 67907.4 83.8742 cir0
35464.4 61021.3 83.8742 cir0
35464.4 53032.3 83.8742 cir0
35997 69010.4 83.8742 cir0
35997 61021.3 83.8742 cir0
35997 53032.3 83.8742 cir0
37062.2 70553.6 83.8742 cir0
37062.2 69064.9 83.8742 cir0
37062.2 62564.6 83.8742 cir0
37062.2 61075.9 83.8742 cir0
37062.2 54575.6 83.8742 cir0
37062.2 53086.8 83.8742 cir0
37292.8 64980.2 83.8742 cir0
37328.5 57026.8 83.8742 cir0
37594.8 73004.9 83.8742 cir0
37861.1 57293.1 83.8742 cir0
38127.4 65282.2 83.8742 cir0
38135.8 73545.9 83.8742 cir0
38660 63151.7 83.8742 cir0
38926.3 68477.8 83.8742 cir0
39458.9 69543 83.8742 cir0
39458.9 67678.9 83.8742 cir0
39458.9 61553.9 83.8742 cir0
39458.9 59689.8 83.8742 cir0
39458.9 53564.9 83.8742 cir0
39986.1 69544 83.8742 cir0
39986.1 61555 83.8742 cir0
39986.1 53566 83.8742 cir0
39991.5 68440 83.8742 cir0
39991.5 67678.9 83.8742 cir0
39991.5 60526.5 83.8742 cir0
39991.5 59689.8 83.8742 cir0
39991.5 58624.6 83.8742 cir0
40004.1 66842.2 83.8742 cir0
40257.8 54896.4 83.8742 cir0
40524.1 70874.5 83.8742 cir0
40524.1 62885.4 83.8742 cir0
40790.4 66563.3 83.8742 cir0
41323 72738.6 83.8742 cir0
42920.8 70341.9 83.8742 cir0
43480.9 60526.5 83.8742 cir0
43480.9 59697.1 83.8742 cir0
43481.5 68449.7 83.8742 cir0
43481.5 67685.6 83.8742 cir0
43719.7 69543 83.8742 cir0
43719.7 61553.9 83.8742 cir0
43719.7 53564.9 83.8742 cir0
43986 67678.9 83.8742 cir0
43986 59689.8 83.8742 cir0
44252.3 69543 83.8742 cir0
44252.3 61553.9 83.8742 cir0
44252.3 53564.9 83.8742 cir0
45051.2 71086.2 83.8742 cir0
45051.2 69597.5 83.8742 cir0
45051.2 63097.2 83.8742 cir0
45051.2 61608.5 83.8742 cir0
45051.2 55108.2 83.8742 cir0
45051.2 53619.4 83.8742 cir0
45317.5 73537.5 83.8742 cir0
45317.5 65548.5 83.8742 cir0
45317.5 57559.4 83.8742 cir0
46116.4 73537.5 83.8742 cir0
46116.4 67678.9 83.8742 cir0
46116.4 59423.5 83.8742 cir0
46420.5 70645.9 83.8742 cir0
46420.5 57026.8 83.8742 cir0
46420.5 54135.3 83.8742 cir0
46643.8 62091.8 83.8742 cir0
47447.9 71673.4 83.8742 cir0
47447.9 63684.3 83.8742 cir0
47447.9 55695.3 83.8742 cir0
47714.2 70341.9 83.8742 cir0
47975.1 71674.4 83.8742 cir0
47975.1 63685.4 83.8742 cir0
47975.1 55696.4 83.8742 cir0
48513.1 73004.9 83.8742 cir0
48513.1 65015.8 83.8742 cir0
48513.1 57293.1 83.8742 cir0
49312 66880 83.8742 cir0
49578.3 75135.3 83.8742 cir0
49578.3 59157.2 83.8742 cir0
49874.8 60192.2 83.8742 cir0
49882.4 68211.5 83.8742 cir0
51442.4 70570.4 83.8742 cir0
51442.4 62581.4 83.8742 cir0
51708.7 71673.4 83.8742 cir0
51708.7 63684.3 83.8742 cir0
51708.7 55695.3 83.8742 cir0
52241.3 71673.4 83.8742 cir0
52241.3 63684.3 83.8742 cir0
52241.3 55695.3 83.8742 cir0
53040.2 73216.7 83.8742 cir0
53040.2 71727.9 83.8742 cir0
53040.2 65227.6 83.8742 cir0
53040.2 63738.9 83.8742 cir0
53040.2 57238.6 83.8742 cir0
53040.2 55749.8 83.8742 cir0
53306.5 75667.9 83.8742 cir0
53306.5 67678.9 83.8742 cir0
53306.5 59689.8 83.8742 cir0
54105.4 62352.8 83.8742 cir0
54105.4 60488.7 83.8742 cir0
54105.4 49570.4 83.8742 cir0
54113.8 76741.5 83.8742 cir0
54113.8 68752.4 83.8742 cir0
54638 71140.8 83.8742 cir0
55170.6 70075.6 83.8742 cir0
55436.9 72738.6 83.8742 cir0
55436.9 70874.5 83.8742 cir0
55436.9 64749.5 83.8742 cir0
55436.9 56760.5 83.8742 cir0
55436.9 54630.1 83.8742 cir0
55436.9 45575.9 83.8742 cir0
55964.1 72739.6 83.8742 cir0
55964.1 64750.6 83.8742 cir0
55964.1 56761.6 83.8742 cir0
55969.5 71711.1 83.8742 cir0
55969.5 70874.5 83.8742 cir0
55969.5 69809.3 83.8742 cir0
55969.5 54630.1 83.8742 cir0
55969.5 45575.9 83.8742 cir0
56235.8 58092 83.8742 cir0
56502.1 74070.1 83.8742 cir0
56502.1 66081.1 83.8742 cir0
56517 50942.4 83.8742 cir0
57301 59956.1 83.8742 cir0
57395.4 51340.2 83.8742 cir0
57567.3 76200.5 83.8742 cir0
57833.6 69809.3 83.8742 cir0
57833.6 60488.7 83.8742 cir0
57833.6 50369.3 83.8742 cir0
58366.2 63684.3 83.8742 cir0
58632.5 73803.8 83.8742 cir0
59458.9 54637.3 83.8742 cir0
59459.5 71711.1 83.8742 cir0
59459.5 70881.2 83.8742 cir0
59460.3 45568.8 83.8742 cir0
59697.7 72738.6 83.8742 cir0
59697.7 64749.5 83.8742 cir0
59697.7 56760.5 83.8742 cir0
59964 70874.5 83.8742 cir0
59964 69809.3 83.8742 cir0
59964 54630.1 83.8742 cir0
59964 45575.9 83.8742 cir0
60230.3 72738.6 83.8742 cir0
60230.3 64749.5 83.8742 cir0
60230.3 56760.5 83.8742 cir0
60496.6 77532 83.8742 cir0
61029.2 74281.9 83.8742 cir0
61029.2 72793.1 83.8742 cir0
61029.2 66292.8 83.8742 cir0
61029.2 64804.1 83.8742 cir0
61029.2 58303.8 83.8742 cir0
61029.2 56815 83.8742 cir0
61029.2 47119.2 83.8742 cir0
61029.2 45630.4 83.8742 cir0
61295.5 60755 83.8742 cir0
61295.5 49570.4 83.8742 cir0
61561.8 68744.1 83.8742 cir0
61828.1 50369.3 83.8742 cir0
62094.4 56494.2 83.8742 cir0
62102.8 74611.1 83.8742 cir0
62102.8 66622 83.8742 cir0
62627 71140.8 83.8742 cir0
63159.7 69238.9 83.8742 cir0
63426 70608.2 83.8742 cir0
63426 62619.1 83.8742 cir0
63426 54630.1 83.8742 cir0
63426 46641.1 83.8742 cir0
63953.1 70609.2 83.8742 cir0
63953.1 62620.2 83.8742 cir0
63953.1 54631.2 83.8742 cir0
63958.6 46641.1 83.8742 cir0
64224.9 55961.6 83.8742 cir0
64224.9 47972.6 83.8742 cir0
64491.2 71939.7 83.8742 cir0
64491.2 64216.9 83.8742 cir0
64491.2 52233.4 83.8742 cir0
64757.5 53298.6 83.8742 cir0
65290.1 65814.8 83.8742 cir0
65290.1 57825.7 83.8742 cir0
65308.9 50088.1 83.8742 cir0
65556.4 74070.1 83.8742 cir0
65556.4 51168.2 83.8742 cir0
65822.7 67412.6 83.8742 cir0
65822.7 58890.9 83.8742 cir0
66887.9 69201.2 83.8742 cir0
66887.9 61516.2 83.8742 cir0
67420.5 69505.2 83.8742 cir0
67449.3 46634 83.8742 cir0
67686.8 70608.2 83.8742 cir0
67686.8 67412.6 83.8742 cir0
67686.8 62619.1 83.8742 cir0
67686.8 54630.1 83.8742 cir0
67953.1 46641.1 83.8742 cir0
68219.4 70608.2 83.8742 cir0
68219.4 62619.1 83.8742 cir0
68219.4 54630.1 83.8742 cir0
69018.3 72151.5 83.8742 cir0
69018.3 70662.7 83.8742 cir0
69018.3 64162.4 83.8742 cir0
69018.3 62673.7 83.8742 cir0
69018.3 56173.4 83.8742 cir0
69018.3 54684.6 83.8742 cir0
69018.3 48184.4 83.8742 cir0
69018.3 46695.6 83.8742 cir0
69284.6 74602.7 83.8742 cir0
69284.6 66347.4 83.8742 cir0
69284.6 58624.6 83.8742 cir0
69284.6 50635.6 83.8742 cir0
69817.2 73271.2 83.8742 cir0
70083.5 65814.8 83.8742 cir0
70083.5 57559.4 83.8742 cir0
70083.5 51700.8 83.8742 cir0
70083.5 49570.4 83.8742 cir0
70349.8 47440 83.8742 cir0
70349.8 45309.6 83.8742 cir0
70653.8 69809.3 83.8742 cir0
71415 69543 83.8742 cir0
71415 67412.6 83.8742 cir0
71415 61553.9 83.8742 cir0
71415 53564.9 83.8742 cir0
71415 51434.5 83.8742 cir0
71415 45575.9 83.8742 cir0
71942.2 69544 83.8742 cir0
71942.2 61555 83.8742 cir0
71942.2 53566 83.8742 cir0
71942.9 51433.8 83.8742 cir0
71943.5 68249.2 83.8742 cir0
71943.5 67411.2 83.8742 cir0
71947.6 50369.3 83.8742 cir0
71947.6 45575.9 83.8742 cir0
72480.2 70874.5 83.8742 cir0
72480.2 62885.4 83.8742 cir0
72480.2 54667.9 83.8742 cir0
72480.2 46678.8 83.8742 cir0
72480.2 44814.7 83.8742 cir0
73012.8 48771.5 83.8742 cir0
73279.1 64749.5 83.8742 cir0
73279.1 56760.5 83.8742 cir0
73545.4 72738.6 83.8742 cir0
73545.4 52499.7 83.8742 cir0
73893.5 57907.6 83.8742 cir0
74078 68553.2 83.8742 cir0
74876.9 70645.9 83.8742 cir0
75409.5 69543 83.8742 cir0
75409.5 67412.6 83.8742 cir0
75409.5 61553.9 83.8742 cir0
75409.5 60451 83.8742 cir0
75409.5 53564.9 83.8742 cir0
75409.5 51434.5 83.8742 cir0
75409.5 50369.3 83.8742 cir0
75438.3 45568.8 83.8742 cir0
75711.2 68249.2 83.8742 cir0
75942.1 69543 83.8742 cir0
75942.1 67412.6 83.8742 cir0
75942.1 61553.9 83.8742 cir0
75942.1 53564.9 83.8742 cir0
75942.1 51434.5 83.8742 cir0
75942.1 45575.9 83.8742 cir0
76474.7 52462 83.8742 cir0
77007.3 71086.2 83.8742 cir0
77007.3 70341.9 83.8742 cir0
77007.3 69597.5 83.8742 cir0
77007.3 63097.2 83.8742 cir0
77007.3 61608.5 83.8742 cir0
77007.3 55108.2 83.8742 cir0
77007.3 53619.4 83.8742 cir0
77007.3 47119.2 83.8742 cir0
77007.3 45630.4 83.8742 cir0
77273.6 73271.2 83.8742 cir0
77273.6 68477.8 83.8742 cir0
77273.6 65548.5 83.8742 cir0
77273.6 57559.4 83.8742 cir0
77273.6 49570.4 83.8742 cir0
77768.4 70608.2 83.8742 cir0
77821.1 74057.3 83.8742 cir0
78194.5 67625.6 83.8742 cir0
78232.3 69489.7 83.8742 cir0
78489.8 43166.4 83.8742 cir0
78601.4 44244.4 83.8742 cir0
78605.1 39184.7 83.8742 cir0
78673.3 72033.4 83.8742 cir0
78764.9 55908.4 83.8742 cir0
80362.7 58571.4 83.8742 cir0
80469.2 46108.5 83.8742 cir0
81427.9 65495.2 83.8742 cir0
81427.9 62299.6 83.8742 cir0
81694.2 58038.8 83.8742 cir0
81731.9 64962.6 83.8742 cir0
81960.5 62753.1 83.8742 cir0
81960.5 62299.6 83.8742 cir0
82493.1 70022.3 83.8742 cir0
82493.1 66826.7 83.8742 cir0
82493.1 62753.1 83.8742 cir0
82493.1 61995.5 83.8742 cir0
82679.5 46301.2 83.8742 cir0
82865.9 39717.3 83.8742 cir0
82865.9 39184.7 83.8742 cir0
83025.7 72152.7 83.8742 cir0
83025.7 66826.7 83.8742 cir0
83025.7 64962.6 83.8742 cir0
83292 62565.9 83.8742 cir0
83558.3 66294.1 83.8742 cir0
83558.3 63057.1 83.8742 cir0
83558.3 57772.5 83.8742 cir0
83829 43359.4 83.8742 cir0
83920.2 55471.4 83.8742 cir0
83931.1 43978.1 83.8742 cir0
84117.5 45915.8 83.8742 cir0
84144.1 58092 83.8742 cir0
84889.8 61500.7 83.8742 cir0
86050.6 55471.4 83.8742 cir0
newpath
79146.9 73889.8 moveto
79146.9 73548.9 lineto
stroke
newpath
78976.5 73719.4 moveto
79317.4 73719.4 lineto
stroke
newpath
79146.9 72824.6 moveto
79146.9 72483.7 lineto
stroke
newpath
78976.5 72654.2 moveto
79317.4 72654.2 lineto
stroke
newpath
79146.9 71759.4 moveto
79146.9 71418.5 lineto
stroke
newpath
78976.5 71588.9 moveto
79317.4 71588.9 lineto
stroke
newpath
79146.9 70694.2 moveto
79146.9 70353.3 lineto
stroke
newpath
78976.5 70523.7 moveto
79317.4 70523.7 lineto
stroke
newpath
79146.9 69629 moveto
79146.9 69288.1 lineto
stroke
newpath
78976.5 69458.5 moveto
79317.4 69458.5 lineto
stroke
newpath
79146.9 68563.8 moveto
79146.9 68222.9 lineto
stroke
newpath
78976.5 68393.3 moveto
79317.4 68393.3 lineto
stroke
newpath
79146.9 67498.6 moveto
79146.9 67157.7 lineto
stroke
newpath
78976.5 67328.1 moveto
79317.4 67328.1 lineto
stroke
newpath
79146.9 66433.4 moveto
79146.9 66092.5 lineto
stroke
newpath
78976.5 66262.9 moveto
79317.4 66262.9 lineto
stroke
newpath
79146.9 65368.2 moveto
79146.9 65027.3 lineto
stroke
newpath
78976.5 65197.7 moveto
79317.4 65197.7 lineto
stroke
newpath
79146.9 64303 moveto
79146.9 63962.1 lineto
stroke
newpath
78976.5 64132.5 moveto
79317.4 64132.5 lineto
stroke
newpath
79146.9 63237.8 moveto
79146.9 62896.9 lineto
stroke
newpath
78976.5 63067.3 moveto
79317.4 63067.3 lineto
stroke
newpath
79146.9 62172.6 moveto
79146.9 61831.7 lineto
stroke
newpath
78976.5 62002.1 moveto
79317.4 62002.1 lineto
stroke
newpath
79691.6 73388.3 moveto
79691.6 73047.5 lineto
stroke
newpath
79521.2 73217.9 moveto
79862 73217.9 lineto
stroke
newpath
79691.6 72323.1 moveto
79691.6 71982.3 lineto
stroke
newpath
79521.2 72152.7 moveto
79862 72152.7 lineto
stroke
newpath
79691.6 71257.9 moveto
79691.6 70917.1 lineto
stroke
newpath
79521.2 71087.5 moveto
79862 71087.5 lineto
stroke
newpath
79691.6 70192.7 moveto
79691.6 69851.9 lineto
stroke
newpath
79521.2 70022.3 moveto
79862 70022.3 lineto
stroke
newpath
79691.6 69127.5 moveto
79691.6 68786.6 lineto
stroke
newpath
79521.2 68957.1 moveto
79862 68957.1 lineto
stroke
newpath
79691.6 68062.3 moveto
79691.6 67721.4 lineto
stroke
newpath
79521.2 67891.9 moveto
79862 67891.9 lineto
stroke
newpath
79691.6 66997.1 moveto
79691.6 66656.2 lineto
stroke
newpath
79521.2 66826.7 moveto
79862 66826.7 lineto
stroke
newpath
79691.6 65931.9 moveto
79691.6 65591 lineto
stroke
newpath
79521.2 65761.5 moveto
79862 65761.5 lineto
stroke
newpath
79691.6 64866.7 moveto
79691.6 64525.8 lineto
stroke
newpath
79521.2 64696.3 moveto
79862 64696.3 lineto
stroke
newpath
79691.6 63801.5 moveto
79691.6 63460.6 lineto
stroke
newpath
79521.2 63631.1 moveto
79862 63631.1 lineto
stroke
newpath
79691.6 62736.3 moveto
79691.6 62395.4 lineto
stroke
newpath
79521.2 62565.9 moveto
79862 62565.9 lineto
stroke
newpath
79691.6 61671.1 moveto
79691.6 61330.2 lineto
stroke
newpath
79521.2 61500.7 moveto
79862 61500.7 lineto
stroke
newpath
81023.2 59807 moveto
81023.2 59466.1 lineto
stroke
newpath
80852.8 59636.6 moveto
81193.6 59636.6 lineto
stroke
newpath
81619.5 57463.6 moveto
81619.5 57122.7 lineto
stroke
newpath
81449.1 57293.1 moveto
81790 57293.1 lineto
stroke
newpath
81619.5 56345.1 moveto
81619.5 56004.2 lineto
stroke
newpath
81449.1 56174.7 moveto
81790 56174.7 lineto
stroke
newpath
82088.4 59807 moveto
82088.4 59466.1 lineto
stroke
newpath
81918 59636.6 moveto
82258.8 59636.6 lineto
stroke
newpath
82514.5 57410.3 moveto
82514.5 57069.4 lineto
stroke
newpath
82344 57239.9 moveto
82684.9 57239.9 lineto
stroke
newpath
82514.5 56345.1 moveto
82514.5 56004.2 lineto
stroke
newpath
82344 56174.7 moveto
82684.9 56174.7 lineto
stroke
newpath
83153.6 59807 moveto
83153.6 59466.1 lineto
stroke
newpath
82983.2 59636.6 moveto
83324 59636.6 lineto
stroke
newpath
84218.8 59807 moveto
84218.8 59466.1 lineto
stroke
newpath
84048.4 59636.6 moveto
84389.2 59636.6 lineto
stroke
newpath
84644.9 57410.3 moveto
84644.9 57069.4 lineto
stroke
newpath
84474.4 57239.9 moveto
84815.3 57239.9 lineto
stroke
newpath
84644.9 56345.1 moveto
84644.9 56004.2 lineto
stroke
newpath
84474.4 56174.7 moveto
84815.3 56174.7 lineto
stroke
newpath
85538.1 73889.8 moveto
85538.1 73548.9 lineto
stroke
newpath
85367.7 73719.4 moveto
85708.6 73719.4 lineto
stroke
newpath
85538.1 72824.6 moveto
85538.1 72483.7 lineto
stroke
newpath
85367.7 72654.2 moveto
85708.6 72654.2 lineto
stroke
newpath
85538.1 71759.4 moveto
85538.1 71418.5 lineto
stroke
newpath
85367.7 71588.9 moveto
85708.6 71588.9 lineto
stroke
newpath
85538.1 70694.2 moveto
85538.1 70353.3 lineto
stroke
newpath
85367.7 70523.7 moveto
85708.6 70523.7 lineto
stroke
newpath
85538.1 69629 moveto
85538.1 69288.1 lineto
stroke
newpath
85367.7 69458.5 moveto
85708.6 69458.5 lineto
stroke
newpath
85538.1 68563.8 moveto
85538.1 68222.9 lineto
stroke
newpath
85367.7 68393.3 moveto
85708.6 68393.3 lineto
stroke
newpath
85538.1 67498.6 moveto
85538.1 67157.7 lineto
stroke
newpath
85367.7 67328.1 moveto
85708.6 67328.1 lineto
stroke
newpath
85538.1 66433.4 moveto
85538.1 66092.5 lineto
stroke
newpath
85367.7 66262.9 moveto
85708.6 66262.9 lineto
stroke
newpath
85538.1 65368.2 moveto
85538.1 65027.3 lineto
stroke
newpath
85367.7 65197.7 moveto
85708.6 65197.7 lineto
stroke
newpath
85538.1 64303 moveto
85538.1 63962.1 lineto
stroke
newpath
85367.7 64132.5 moveto
85708.6 64132.5 lineto
stroke
newpath
85538.1 63237.8 moveto
85538.1 62896.9 lineto
stroke
newpath
85367.7 63067.3 moveto
85708.6 63067.3 lineto
stroke
newpath
85538.1 62172.6 moveto
85538.1 61831.7 lineto
stroke
newpath
85367.7 62002.1 moveto
85708.6 62002.1 lineto
stroke
newpath
86082.8 73388.3 moveto
86082.8 73047.5 lineto
stroke
newpath
85912.4 73217.9 moveto
86253.3 73217.9 lineto
stroke
newpath
86082.8 72323.1 moveto
86082.8 71982.3 lineto
stroke
newpath
85912.4 72152.7 moveto
86253.3 72152.7 lineto
stroke
newpath
86082.8 71257.9 moveto
86082.8 70917.1 lineto
stroke
newpath
85912.4 71087.5 moveto
86253.3 71087.5 lineto
stroke
newpath
86082.8 70192.7 moveto
86082.8 69851.9 lineto
stroke
newpath
85912.4 70022.3 moveto
86253.3 70022.3 lineto
stroke
newpath
86082.8 69127.5 moveto
86082.8 68786.6 lineto
stroke
newpath
85912.4 68957.1 moveto
86253.3 68957.1 lineto
stroke
newpath
86082.8 68062.3 moveto
86082.8 67721.4 lineto
stroke
newpath
85912.4 67891.9 moveto
86253.3 67891.9 lineto
stroke
newpath
86082.8 66997.1 moveto
86082.8 66656.2 lineto
stroke
newpath
85912.4 66826.7 moveto
86253.3 66826.7 lineto
stroke
newpath
86082.8 65931.9 moveto
86082.8 65591 lineto
stroke
newpath
85912.4 65761.5 moveto
86253.3 65761.5 lineto
stroke
newpath
86082.8 64866.7 moveto
86082.8 64525.8 lineto
stroke
newpath
85912.4 64696.3 moveto
86253.3 64696.3 lineto
stroke
newpath
86082.8 63801.5 moveto
86082.8 63460.6 lineto
stroke
newpath
85912.4 63631.1 moveto
86253.3 63631.1 lineto
stroke
newpath
86082.8 62736.3 moveto
86082.8 62395.4 lineto
stroke
newpath
85912.4 62565.9 moveto
86253.3 62565.9 lineto
stroke
newpath
86082.8 61671.1 moveto
86082.8 61330.2 lineto
stroke
newpath
85912.4 61500.7 moveto
86253.3 61500.7 lineto
stroke
newpath
86275.7 59475.3 moveto
86275.7 59860.8 lineto
85890.1 59860.8 lineto
85890.1 59475.3 lineto
86275.7 59475.3 lineto
poly0
newpath
86275.7 56749.4 moveto
86275.7 57134.9 lineto
85890.1 57134.9 lineto
85890.1 56749.4 lineto
86275.7 56749.4 lineto
poly0
118.11 setlinewidth
0 0 0 setrgbcolor
0 0 0 setrgbcolor
newpath
30505.1 35175.5 moveto
30505.1 36356.6 lineto
30786.4 36356.6 lineto
30955.1 36300.3 lineto
31067.6 36187.9 lineto
31123.8 36075.4 lineto
31180.1 35850.4 lineto
31180.1 35681.7 lineto
31123.8 35456.7 lineto
31067.6 35344.2 lineto
30955.1 35231.7 lineto
30786.4 35175.5 lineto
30505.1 35175.5 lineto
stroke
newpath
31686.2 35175.5 moveto
31686.2 35962.9 lineto
stroke
newpath
31686.2 35737.9 moveto
31742.5 35850.4 lineto
31798.7 35906.6 lineto
31911.2 35962.9 lineto
32023.7 35962.9 lineto
stroke
newpath
32417.4 35175.5 moveto
32417.4 35962.9 lineto
stroke
newpath
32417.4 36356.6 moveto
32361.2 36300.3 lineto
32417.4 36244.1 lineto
32473.6 36300.3 lineto
32417.4 36356.6 lineto
32417.4 36244.1 lineto
stroke
newpath
33148.6 35175.5 moveto
33036.1 35231.7 lineto
32979.8 35344.2 lineto
32979.8 36356.6 lineto
stroke
newpath
33767.2 35175.5 moveto
33654.7 35231.7 lineto
33598.5 35344.2 lineto
33598.5 36356.6 lineto
stroke
newpath
35117.1 35175.5 moveto
35117.1 36356.6 lineto
35510.8 35512.9 lineto
35904.5 36356.6 lineto
35904.5 35175.5 lineto
stroke
newpath
36973.1 35175.5 moveto
36973.1 35794.2 lineto
36916.8 35906.6 lineto
36804.4 35962.9 lineto
36579.4 35962.9 lineto
36466.9 35906.6 lineto
stroke
newpath
36973.1 35231.7 moveto
36860.6 35175.5 lineto
36579.4 35175.5 lineto
36466.9 35231.7 lineto
36410.7 35344.2 lineto
36410.7 35456.7 lineto
36466.9 35569.2 lineto
36579.4 35625.4 lineto
36860.6 35625.4 lineto
36973.1 35681.7 lineto
stroke
newpath
37535.5 35962.9 moveto
37535.5 34781.8 lineto
stroke
newpath
37535.5 35906.6 moveto
37648 35962.9 lineto
37873 35962.9 lineto
37985.5 35906.6 lineto
38041.7 35850.4 lineto
38097.9 35737.9 lineto
38097.9 35400.5 lineto
38041.7 35288 lineto
37985.5 35231.7 lineto
37873 35175.5 lineto
37648 35175.5 lineto
37535.5 35231.7 lineto
stroke
newpath
38604.1 35288 moveto
38660.4 35231.7 lineto
38604.1 35175.5 lineto
38547.9 35231.7 lineto
38604.1 35288 lineto
38604.1 35175.5 lineto
stroke
newpath
38604.1 35906.6 moveto
38660.4 35850.4 lineto
38604.1 35794.2 lineto
38547.9 35850.4 lineto
38604.1 35906.6 lineto
38604.1 35794.2 lineto
stroke
newpath
29251.7 33292.4 moveto
29377.5 33166.6 lineto
stroke
newpath
29377.5 33292.4 moveto
29251.7 33166.6 lineto
stroke
0 0 0 setrgbcolor
0 0 0 setrgbcolor
newpath
30730.1 33876.3 moveto
30842.6 33876.3 lineto
30955.1 33820 lineto
31011.3 33763.8 lineto
31067.6 33651.3 lineto
31123.8 33426.3 lineto
31123.8 33145.1 lineto
31067.6 32920.1 lineto
31011.3 32807.7 lineto
30955.1 32751.4 lineto
30842.6 32695.2 lineto
30730.1 32695.2 lineto
30617.6 32751.4 lineto
30561.4 32807.7 lineto
30505.1 32920.1 lineto
30448.9 33145.1 lineto
30448.9 33426.3 lineto
30505.1 33651.3 lineto
30561.4 33763.8 lineto
30617.6 33820 lineto
30730.1 33876.3 lineto
stroke
newpath
31630 32807.7 moveto
31686.2 32751.4 lineto
31630 32695.2 lineto
31573.8 32751.4 lineto
31630 32807.7 lineto
31630 32695.2 lineto
stroke
newpath
32079.9 33876.3 moveto
32811.1 33876.3 lineto
32417.4 33426.3 lineto
32586.1 33426.3 lineto
32698.6 33370.1 lineto
32754.9 33313.8 lineto
32811.1 33201.4 lineto
32811.1 32920.1 lineto
32754.9 32807.7 lineto
32698.6 32751.4 lineto
32586.1 32695.2 lineto
32248.7 32695.2 lineto
32136.2 32751.4 lineto
32079.9 32807.7 lineto
stroke
newpath
33542.3 33876.3 moveto
33654.7 33876.3 lineto
33767.2 33820 lineto
33823.5 33763.8 lineto
33879.7 33651.3 lineto
33936 33426.3 lineto
33936 33145.1 lineto
33879.7 32920.1 lineto
33823.5 32807.7 lineto
33767.2 32751.4 lineto
33654.7 32695.2 lineto
33542.3 32695.2 lineto
33429.8 32751.4 lineto
33373.5 32807.7 lineto
33317.3 32920.1 lineto
33261 33145.1 lineto
33261 33426.3 lineto
33317.3 33651.3 lineto
33373.5 33763.8 lineto
33429.8 33820 lineto
33542.3 33876.3 lineto
stroke
newpath
34667.1 33876.3 moveto
34779.6 33876.3 lineto
34892.1 33820 lineto
34948.3 33763.8 lineto
35004.6 33651.3 lineto
35060.8 33426.3 lineto
35060.8 33145.1 lineto
35004.6 32920.1 lineto
34948.3 32807.7 lineto
34892.1 32751.4 lineto
34779.6 32695.2 lineto
34667.1 32695.2 lineto
34554.6 32751.4 lineto
34498.4 32807.7 lineto
34442.1 32920.1 lineto
34385.9 33145.1 lineto
34385.9 33426.3 lineto
34442.1 33651.3 lineto
34498.4 33763.8 lineto
34554.6 33820 lineto
34667.1 33876.3 lineto
stroke
newpath
35567 32695.2 moveto
35567 33482.6 lineto
stroke
newpath
35567 33370.1 moveto
35623.3 33426.3 lineto
35735.7 33482.6 lineto
35904.5 33482.6 lineto
36017 33426.3 lineto
36073.2 33313.8 lineto
36073.2 32695.2 lineto
stroke
newpath
36073.2 33313.8 moveto
36129.4 33426.3 lineto
36241.9 33482.6 lineto
36410.7 33482.6 lineto
36523.1 33426.3 lineto
36579.4 33313.8 lineto
36579.4 32695.2 lineto
stroke
newpath
37141.8 32695.2 moveto
37141.8 33482.6 lineto
stroke
newpath
37141.8 33370.1 moveto
37198.1 33426.3 lineto
37310.5 33482.6 lineto
37479.3 33482.6 lineto
37591.8 33426.3 lineto
37648 33313.8 lineto
37648 32695.2 lineto
stroke
newpath
37648 33313.8 moveto
37704.2 33426.3 lineto
37816.7 33482.6 lineto
37985.5 33482.6 lineto
38097.9 33426.3 lineto
38154.2 33313.8 lineto
38154.2 32695.2 lineto
stroke
newpath
40460.1 33932.5 moveto
39447.8 32414 lineto
stroke
newpath
41978.7 33876.3 moveto
42091.2 33876.3 lineto
42203.7 33820 lineto
42259.9 33763.8 lineto
42316.2 33651.3 lineto
42372.4 33426.3 lineto
42372.4 33145.1 lineto
42316.2 32920.1 lineto
42259.9 32807.7 lineto
42203.7 32751.4 lineto
42091.2 32695.2 lineto
41978.7 32695.2 lineto
41866.2 32751.4 lineto
41810 32807.7 lineto
41753.7 32920.1 lineto
41697.5 33145.1 lineto
41697.5 33426.3 lineto
41753.7 33651.3 lineto
41810 33763.8 lineto
41866.2 33820 lineto
41978.7 33876.3 lineto
stroke
newpath
42878.6 32807.7 moveto
42934.8 32751.4 lineto
42878.6 32695.2 lineto
42822.4 32751.4 lineto
42878.6 32807.7 lineto
42878.6 32695.2 lineto
stroke
newpath
43666 33876.3 moveto
43778.5 33876.3 lineto
43891 33820 lineto
43947.2 33763.8 lineto
44003.5 33651.3 lineto
44059.7 33426.3 lineto
44059.7 33145.1 lineto
44003.5 32920.1 lineto
43947.2 32807.7 lineto
43891 32751.4 lineto
43778.5 32695.2 lineto
43666 32695.2 lineto
43553.5 32751.4 lineto
43497.3 32807.7 lineto
43441 32920.1 lineto
43384.8 33145.1 lineto
43384.8 33426.3 lineto
43441 33651.3 lineto
43497.3 33763.8 lineto
43553.5 33820 lineto
43666 33876.3 lineto
stroke
newpath
45184.6 32695.2 moveto
44509.6 32695.2 lineto
stroke
newpath
44847.1 32695.2 moveto
44847.1 33876.3 lineto
44734.6 33707.5 lineto
44622.1 33595.1 lineto
44509.6 33538.8 lineto
stroke
newpath
46309.4 32695.2 moveto
45634.5 32695.2 lineto
stroke
newpath
45972 32695.2 moveto
45972 33876.3 lineto
45859.5 33707.5 lineto
45747 33595.1 lineto
45634.5 33538.8 lineto
stroke
newpath
46984.3 33370.1 moveto
46871.8 33426.3 lineto
46815.6 33482.6 lineto
46759.4 33595.1 lineto
46759.4 33651.3 lineto
46815.6 33763.8 lineto
46871.8 33820 lineto
46984.3 33876.3 lineto
47209.3 33876.3 lineto
47321.8 33820 lineto
47378 33763.8 lineto
47434.3 33651.3 lineto
47434.3 33595.1 lineto
47378 33482.6 lineto
47321.8 33426.3 lineto
47209.3 33370.1 lineto
46984.3 33370.1 lineto
46871.8 33313.8 lineto
46815.6 33257.6 lineto
46759.4 33145.1 lineto
46759.4 32920.1 lineto
46815.6 32807.7 lineto
46871.8 32751.4 lineto
46984.3 32695.2 lineto
47209.3 32695.2 lineto
47321.8 32751.4 lineto
47378 32807.7 lineto
47434.3 32920.1 lineto
47434.3 33145.1 lineto
47378 33257.6 lineto
47321.8 33313.8 lineto
47209.3 33370.1 lineto
stroke
newpath
47884.2 33876.3 moveto
47884.2 33651.3 lineto
stroke
newpath
48334.2 33876.3 moveto
48334.2 33651.3 lineto
stroke
newpath
50077.7 32245.2 moveto
50021.5 32301.5 lineto
49909 32470.2 lineto
49852.7 32582.7 lineto
49796.5 32751.4 lineto
49740.2 33032.6 lineto
49740.2 33257.6 lineto
49796.5 33538.8 lineto
49852.7 33707.5 lineto
49909 33820 lineto
50021.5 33988.8 lineto
50077.7 34045 lineto
stroke
newpath
50752.6 33876.3 moveto
50865.1 33876.3 lineto
50977.6 33820 lineto
51033.8 33763.8 lineto
51090.1 33651.3 lineto
51146.3 33426.3 lineto
51146.3 33145.1 lineto
51090.1 32920.1 lineto
51033.8 32807.7 lineto
50977.6 32751.4 lineto
50865.1 32695.2 lineto
50752.6 32695.2 lineto
50640.1 32751.4 lineto
50583.9 32807.7 lineto
50527.6 32920.1 lineto
50471.4 33145.1 lineto
50471.4 33426.3 lineto
50527.6 33651.3 lineto
50583.9 33763.8 lineto
50640.1 33820 lineto
50752.6 33876.3 lineto
stroke
newpath
52552.4 32695.2 moveto
52552.4 33876.3 lineto
stroke
newpath
53058.6 32695.2 moveto
53058.6 33313.8 lineto
53002.3 33426.3 lineto
52889.8 33482.6 lineto
52721.1 33482.6 lineto
52608.6 33426.3 lineto
52552.4 33370.1 lineto
stroke
newpath
53789.7 32695.2 moveto
53677.2 32751.4 lineto
53621 32807.7 lineto
53564.8 32920.1 lineto
53564.8 33257.6 lineto
53621 33370.1 lineto
53677.2 33426.3 lineto
53789.7 33482.6 lineto
53958.5 33482.6 lineto
54070.9 33426.3 lineto
54127.2 33370.1 lineto
54183.4 33257.6 lineto
54183.4 32920.1 lineto
54127.2 32807.7 lineto
54070.9 32751.4 lineto
53958.5 32695.2 lineto
53789.7 32695.2 lineto
stroke
newpath
54858.3 32695.2 moveto
54745.9 32751.4 lineto
54689.6 32863.9 lineto
54689.6 33876.3 lineto
stroke
newpath
55758.2 32751.4 moveto
55645.7 32695.2 lineto
55420.8 32695.2 lineto
55308.3 32751.4 lineto
55252 32863.9 lineto
55252 33313.8 lineto
55308.3 33426.3 lineto
55420.8 33482.6 lineto
55645.7 33482.6 lineto
55758.2 33426.3 lineto
55814.5 33313.8 lineto
55814.5 33201.4 lineto
55252 33088.9 lineto
stroke
newpath
56264.4 32751.4 moveto
56376.9 32695.2 lineto
56601.9 32695.2 lineto
56714.4 32751.4 lineto
56770.6 32863.9 lineto
56770.6 32920.1 lineto
56714.4 33032.6 lineto
56601.9 33088.9 lineto
56433.1 33088.9 lineto
56320.7 33145.1 lineto
56264.4 33257.6 lineto
56264.4 33313.8 lineto
56320.7 33426.3 lineto
56433.1 33482.6 lineto
56601.9 33482.6 lineto
56714.4 33426.3 lineto
stroke
newpath
58176.7 33145.1 moveto
59076.6 33145.1 lineto
stroke
newpath
58626.6 32695.2 moveto
58626.6 33595.1 lineto
stroke
newpath
60707.6 33370.1 moveto
60595.1 33426.3 lineto
60538.9 33482.6 lineto
60482.6 33595.1 lineto
60482.6 33651.3 lineto
60538.9 33763.8 lineto
60595.1 33820 lineto
60707.6 33876.3 lineto
60932.6 33876.3 lineto
61045.1 33820 lineto
61101.3 33763.8 lineto
61157.6 33651.3 lineto
61157.6 33595.1 lineto
61101.3 33482.6 lineto
61045.1 33426.3 lineto
60932.6 33370.1 lineto
60707.6 33370.1 lineto
60595.1 33313.8 lineto
60538.9 33257.6 lineto
60482.6 33145.1 lineto
60482.6 32920.1 lineto
60538.9 32807.7 lineto
60595.1 32751.4 lineto
60707.6 32695.2 lineto
60932.6 32695.2 lineto
61045.1 32751.4 lineto
61101.3 32807.7 lineto
61157.6 32920.1 lineto
61157.6 33145.1 lineto
61101.3 33257.6 lineto
61045.1 33313.8 lineto
60932.6 33370.1 lineto
stroke
newpath
62507.4 32751.4 moveto
62619.9 32695.2 lineto
62844.8 32695.2 lineto
62957.3 32751.4 lineto
63013.6 32863.9 lineto
63013.6 32920.1 lineto
62957.3 33032.6 lineto
62844.8 33088.9 lineto
62676.1 33088.9 lineto
62563.6 33145.1 lineto
62507.4 33257.6 lineto
62507.4 33313.8 lineto
62563.6 33426.3 lineto
62676.1 33482.6 lineto
62844.8 33482.6 lineto
62957.3 33426.3 lineto
stroke
newpath
63688.5 32695.2 moveto
63576 32751.4 lineto
63519.8 32863.9 lineto
63519.8 33876.3 lineto
stroke
newpath
64307.2 32695.2 moveto
64194.7 32751.4 lineto
64138.4 32807.7 lineto
64082.2 32920.1 lineto
64082.2 33257.6 lineto
64138.4 33370.1 lineto
64194.7 33426.3 lineto
64307.2 33482.6 lineto
64475.9 33482.6 lineto
64588.4 33426.3 lineto
64644.6 33370.1 lineto
64700.9 33257.6 lineto
64700.9 32920.1 lineto
64644.6 32807.7 lineto
64588.4 32751.4 lineto
64475.9 32695.2 lineto
64307.2 32695.2 lineto
stroke
newpath
65038.3 33482.6 moveto
65488.3 33482.6 lineto
stroke
newpath
65207.1 33876.3 moveto
65207.1 32863.9 lineto
65263.3 32751.4 lineto
65375.8 32695.2 lineto
65488.3 32695.2 lineto
stroke
newpath
65825.7 32751.4 moveto
65938.2 32695.2 lineto
66163.2 32695.2 lineto
66275.7 32751.4 lineto
66331.9 32863.9 lineto
66331.9 32920.1 lineto
66275.7 33032.6 lineto
66163.2 33088.9 lineto
65994.5 33088.9 lineto
65882 33145.1 lineto
65825.7 33257.6 lineto
65825.7 33313.8 lineto
65882 33426.3 lineto
65994.5 33482.6 lineto
66163.2 33482.6 lineto
66275.7 33426.3 lineto
stroke
newpath
66725.6 32245.2 moveto
66781.9 32301.5 lineto
66894.3 32470.2 lineto
66950.6 32582.7 lineto
67006.8 32751.4 lineto
67063.1 33032.6 lineto
67063.1 33257.6 lineto
67006.8 33538.8 lineto
66950.6 33707.5 lineto
66894.3 33820 lineto
66781.9 33988.8 lineto
66725.6 34045 lineto
stroke
29293.6 31670.4 83.8742 cir0
0 0 0 setrgbcolor
0 0 0 setrgbcolor
newpath
30730.1 32317.2 moveto
30842.6 32317.2 lineto
30955.1 32261 lineto
31011.3 32204.7 lineto
31067.6 32092.2 lineto
31123.8 31867.3 lineto
31123.8 31586.1 lineto
31067.6 31361.1 lineto
31011.3 31248.6 lineto
30955.1 31192.4 lineto
30842.6 31136.1 lineto
30730.1 31136.1 lineto
30617.6 31192.4 lineto
30561.4 31248.6 lineto
30505.1 31361.1 lineto
30448.9 31586.1 lineto
30448.9 31867.3 lineto
30505.1 32092.2 lineto
30561.4 32204.7 lineto
30617.6 32261 lineto
30730.1 32317.2 lineto
stroke
newpath
31630 31248.6 moveto
31686.2 31192.4 lineto
31630 31136.1 lineto
31573.8 31192.4 lineto
31630 31248.6 lineto
31630 31136.1 lineto
stroke
newpath
32698.6 31923.5 moveto
32698.6 31136.1 lineto
stroke
newpath
32417.4 32373.5 moveto
32136.2 31529.8 lineto
32867.3 31529.8 lineto
stroke
newpath
33542.3 32317.2 moveto
33654.7 32317.2 lineto
33767.2 32261 lineto
33823.5 32204.7 lineto
33879.7 32092.2 lineto
33936 31867.3 lineto
33936 31586.1 lineto
33879.7 31361.1 lineto
33823.5 31248.6 lineto
33767.2 31192.4 lineto
33654.7 31136.1 lineto
33542.3 31136.1 lineto
33429.8 31192.4 lineto
33373.5 31248.6 lineto
33317.3 31361.1 lineto
33261 31586.1 lineto
33261 31867.3 lineto
33317.3 32092.2 lineto
33373.5 32204.7 lineto
33429.8 32261 lineto
33542.3 32317.2 lineto
stroke
newpath
34667.1 32317.2 moveto
34779.6 32317.2 lineto
34892.1 32261 lineto
34948.3 32204.7 lineto
35004.6 32092.2 lineto
35060.8 31867.3 lineto
35060.8 31586.1 lineto
35004.6 31361.1 lineto
34948.3 31248.6 lineto
34892.1 31192.4 lineto
34779.6 31136.1 lineto
34667.1 31136.1 lineto
34554.6 31192.4 lineto
34498.4 31248.6 lineto
34442.1 31361.1 lineto
34385.9 31586.1 lineto
34385.9 31867.3 lineto
34442.1 32092.2 lineto
34498.4 32204.7 lineto
34554.6 32261 lineto
34667.1 32317.2 lineto
stroke
newpath
35567 31136.1 moveto
35567 31923.5 lineto
stroke
newpath
35567 31811 moveto
35623.3 31867.3 lineto
35735.7 31923.5 lineto
35904.5 31923.5 lineto
36017 31867.3 lineto
36073.2 31754.8 lineto
36073.2 31136.1 lineto
stroke
newpath
36073.2 31754.8 moveto
36129.4 31867.3 lineto
36241.9 31923.5 lineto
36410.7 31923.5 lineto
36523.1 31867.3 lineto
36579.4 31754.8 lineto
36579.4 31136.1 lineto
stroke
newpath
37141.8 31136.1 moveto
37141.8 31923.5 lineto
stroke
newpath
37141.8 31811 moveto
37198.1 31867.3 lineto
37310.5 31923.5 lineto
37479.3 31923.5 lineto
37591.8 31867.3 lineto
37648 31754.8 lineto
37648 31136.1 lineto
stroke
newpath
37648 31754.8 moveto
37704.2 31867.3 lineto
37816.7 31923.5 lineto
37985.5 31923.5 lineto
38097.9 31867.3 lineto
38154.2 31754.8 lineto
38154.2 31136.1 lineto
stroke
newpath
40460.1 32373.5 moveto
39447.8 30854.9 lineto
stroke
newpath
41978.7 32317.2 moveto
42091.2 32317.2 lineto
42203.7 32261 lineto
42259.9 32204.7 lineto
42316.2 32092.2 lineto
42372.4 31867.3 lineto
42372.4 31586.1 lineto
42316.2 31361.1 lineto
42259.9 31248.6 lineto
42203.7 31192.4 lineto
42091.2 31136.1 lineto
41978.7 31136.1 lineto
41866.2 31192.4 lineto
41810 31248.6 lineto
41753.7 31361.1 lineto
41697.5 31586.1 lineto
41697.5 31867.3 lineto
41753.7 32092.2 lineto
41810 32204.7 lineto
41866.2 32261 lineto
41978.7 32317.2 lineto
stroke
newpath
42878.6 31248.6 moveto
42934.8 31192.4 lineto
42878.6 31136.1 lineto
42822.4 31192.4 lineto
42878.6 31248.6 lineto
42878.6 31136.1 lineto
stroke
newpath
43666 32317.2 moveto
43778.5 32317.2 lineto
43891 32261 lineto
43947.2 32204.7 lineto
44003.5 32092.2 lineto
44059.7 31867.3 lineto
44059.7 31586.1 lineto
44003.5 31361.1 lineto
43947.2 31248.6 lineto
43891 31192.4 lineto
43778.5 31136.1 lineto
43666 31136.1 lineto
43553.5 31192.4 lineto
43497.3 31248.6 lineto
43441 31361.1 lineto
43384.8 31586.1 lineto
43384.8 31867.3 lineto
43441 32092.2 lineto
43497.3 32204.7 lineto
43553.5 32261 lineto
43666 32317.2 lineto
stroke
newpath
45184.6 31136.1 moveto
44509.6 31136.1 lineto
stroke
newpath
44847.1 31136.1 moveto
44847.1 32317.2 lineto
44734.6 32148.5 lineto
44622.1 32036 lineto
44509.6 31979.8 lineto
stroke
newpath
46253.2 32317.2 moveto
45690.7 32317.2 lineto
45634.5 31754.8 lineto
45690.7 31811 lineto
45803.2 31867.3 lineto
46084.4 31867.3 lineto
46196.9 31811 lineto
46253.2 31754.8 lineto
46309.4 31642.3 lineto
46309.4 31361.1 lineto
46253.2 31248.6 lineto
46196.9 31192.4 lineto
46084.4 31136.1 lineto
45803.2 31136.1 lineto
45690.7 31192.4 lineto
45634.5 31248.6 lineto
stroke
newpath
46703.1 32317.2 moveto
47490.5 32317.2 lineto
46984.3 31136.1 lineto
stroke
newpath
47884.2 32317.2 moveto
47884.2 32092.2 lineto
stroke
newpath
48334.2 32317.2 moveto
48334.2 32092.2 lineto
stroke
newpath
50077.7 30686.2 moveto
50021.5 30742.4 lineto
49909 30911.1 lineto
49852.7 31023.6 lineto
49796.5 31192.4 lineto
49740.2 31473.6 lineto
49740.2 31698.5 lineto
49796.5 31979.8 lineto
49852.7 32148.5 lineto
49909 32261 lineto
50021.5 32429.7 lineto
50077.7 32485.9 lineto
stroke
newpath
50415.2 32317.2 moveto
51146.3 32317.2 lineto
50752.6 31867.3 lineto
50921.3 31867.3 lineto
51033.8 31811 lineto
51090.1 31754.8 lineto
51146.3 31642.3 lineto
51146.3 31361.1 lineto
51090.1 31248.6 lineto
51033.8 31192.4 lineto
50921.3 31136.1 lineto
50583.9 31136.1 lineto
50471.4 31192.4 lineto
50415.2 31248.6 lineto
stroke
newpath
51540 32317.2 moveto
52271.2 32317.2 lineto
51877.5 31867.3 lineto
52046.2 31867.3 lineto
52158.7 31811 lineto
52214.9 31754.8 lineto
52271.2 31642.3 lineto
52271.2 31361.1 lineto
52214.9 31248.6 lineto
52158.7 31192.4 lineto
52046.2 31136.1 lineto
51708.7 31136.1 lineto
51596.3 31192.4 lineto
51540 31248.6 lineto
stroke
newpath
52833.6 31136.1 moveto
53058.6 31136.1 lineto
53171.1 31192.4 lineto
53227.3 31248.6 lineto
53339.8 31417.3 lineto
53396 31642.3 lineto
53396 32092.2 lineto
53339.8 32204.7 lineto
53283.5 32261 lineto
53171.1 32317.2 lineto
52946.1 32317.2 lineto
52833.6 32261 lineto
52777.4 32204.7 lineto
52721.1 32092.2 lineto
52721.1 31811 lineto
52777.4 31698.5 lineto
52833.6 31642.3 lineto
52946.1 31586.1 lineto
53171.1 31586.1 lineto
53283.5 31642.3 lineto
53339.8 31698.5 lineto
53396 31811 lineto
stroke
newpath
54802.1 31136.1 moveto
54802.1 32317.2 lineto
stroke
newpath
55308.3 31136.1 moveto
55308.3 31754.8 lineto
55252 31867.3 lineto
55139.6 31923.5 lineto
54970.8 31923.5 lineto
54858.3 31867.3 lineto
54802.1 31811 lineto
stroke
newpath
56039.4 31136.1 moveto
55927 31192.4 lineto
55870.7 31248.6 lineto
55814.5 31361.1 lineto
55814.5 31698.5 lineto
55870.7 31811 lineto
55927 31867.3 lineto
56039.4 31923.5 lineto
56208.2 31923.5 lineto
56320.7 31867.3 lineto
56376.9 31811 lineto
56433.1 31698.5 lineto
56433.1 31361.1 lineto
56376.9 31248.6 lineto
56320.7 31192.4 lineto
56208.2 31136.1 lineto
56039.4 31136.1 lineto
stroke
newpath
57108.1 31136.1 moveto
56995.6 31192.4 lineto
56939.3 31304.8 lineto
56939.3 32317.2 lineto
stroke
newpath
58008 31192.4 moveto
57895.5 31136.1 lineto
57670.5 31136.1 lineto
57558 31192.4 lineto
57501.8 31304.8 lineto
57501.8 31754.8 lineto
57558 31867.3 lineto
57670.5 31923.5 lineto
57895.5 31923.5 lineto
58008 31867.3 lineto
58064.2 31754.8 lineto
58064.2 31642.3 lineto
57501.8 31529.8 lineto
stroke
newpath
58514.1 31192.4 moveto
58626.6 31136.1 lineto
58851.6 31136.1 lineto
58964.1 31192.4 lineto
59020.3 31304.8 lineto
59020.3 31361.1 lineto
58964.1 31473.6 lineto
58851.6 31529.8 lineto
58682.9 31529.8 lineto
58570.4 31586.1 lineto
58514.1 31698.5 lineto
58514.1 31754.8 lineto
58570.4 31867.3 lineto
58682.9 31923.5 lineto
58851.6 31923.5 lineto
58964.1 31867.3 lineto
stroke
newpath
59414 30686.2 moveto
59470.3 30742.4 lineto
59582.8 30911.1 lineto
59639 31023.6 lineto
59695.2 31192.4 lineto
59751.5 31473.6 lineto
59751.5 31698.5 lineto
59695.2 31979.8 lineto
59639 32148.5 lineto
59582.8 32261 lineto
59470.3 32429.7 lineto
59414 32485.9 lineto
stroke
newpath
29207 30281.8 moveto
29207 29940.9 lineto
stroke
newpath
29036.6 30111.4 moveto
29377.5 30111.4 lineto
stroke
0 0 0 setrgbcolor
0 0 0 setrgbcolor
newpath
30730.1 30758.2 moveto
30842.6 30758.2 lineto
30955.1 30701.9 lineto
31011.3 30645.7 lineto
31067.6 30533.2 lineto
31123.8 30308.2 lineto
31123.8 30027 lineto
31067.6 29802 lineto
31011.3 29689.5 lineto
30955.1 29633.3 lineto
30842.6 29577.1 lineto
30730.1 29577.1 lineto
30617.6 29633.3 lineto
30561.4 29689.5 lineto
30505.1 29802 lineto
30448.9 30027 lineto
30448.9 30308.2 lineto
30505.1 30533.2 lineto
30561.4 30645.7 lineto
30617.6 30701.9 lineto
30730.1 30758.2 lineto
stroke
newpath
31630 29689.5 moveto
31686.2 29633.3 lineto
31630 29577.1 lineto
31573.8 29633.3 lineto
31630 29689.5 lineto
31630 29577.1 lineto
stroke
newpath
32361.2 30252 moveto
32248.7 30308.2 lineto
32192.4 30364.5 lineto
32136.2 30476.9 lineto
32136.2 30533.2 lineto
32192.4 30645.7 lineto
32248.7 30701.9 lineto
32361.2 30758.2 lineto
32586.1 30758.2 lineto
32698.6 30701.9 lineto
32754.9 30645.7 lineto
32811.1 30533.2 lineto
32811.1 30476.9 lineto
32754.9 30364.5 lineto
32698.6 30308.2 lineto
32586.1 30252 lineto
32361.2 30252 lineto
32248.7 30195.7 lineto
32192.4 30139.5 lineto
32136.2 30027 lineto
32136.2 29802 lineto
32192.4 29689.5 lineto
32248.7 29633.3 lineto
32361.2 29577.1 lineto
32586.1 29577.1 lineto
32698.6 29633.3 lineto
32754.9 29689.5 lineto
32811.1 29802 lineto
32811.1 30027 lineto
32754.9 30139.5 lineto
32698.6 30195.7 lineto
32586.1 30252 lineto
stroke
newpath
33936 29577.1 moveto
33261 29577.1 lineto
stroke
newpath
33598.5 29577.1 moveto
33598.5 30758.2 lineto
33486 30589.4 lineto
33373.5 30476.9 lineto
33261 30420.7 lineto
stroke
newpath
34329.7 30758.2 moveto
35060.8 30758.2 lineto
34667.1 30308.2 lineto
34835.9 30308.2 lineto
34948.3 30252 lineto
35004.6 30195.7 lineto
35060.8 30083.2 lineto
35060.8 29802 lineto
35004.6 29689.5 lineto
34948.3 29633.3 lineto
34835.9 29577.1 lineto
34498.4 29577.1 lineto
34385.9 29633.3 lineto
34329.7 29689.5 lineto
stroke
newpath
35567 29577.1 moveto
35567 30364.5 lineto
stroke
newpath
35567 30252 moveto
35623.3 30308.2 lineto
35735.7 30364.5 lineto
35904.5 30364.5 lineto
36017 30308.2 lineto
36073.2 30195.7 lineto
36073.2 29577.1 lineto
stroke
newpath
36073.2 30195.7 moveto
36129.4 30308.2 lineto
36241.9 30364.5 lineto
36410.7 30364.5 lineto
36523.1 30308.2 lineto
36579.4 30195.7 lineto
36579.4 29577.1 lineto
stroke
newpath
37141.8 29577.1 moveto
37141.8 30364.5 lineto
stroke
newpath
37141.8 30252 moveto
37198.1 30308.2 lineto
37310.5 30364.5 lineto
37479.3 30364.5 lineto
37591.8 30308.2 lineto
37648 30195.7 lineto
37648 29577.1 lineto
stroke
newpath
37648 30195.7 moveto
37704.2 30308.2 lineto
37816.7 30364.5 lineto
37985.5 30364.5 lineto
38097.9 30308.2 lineto
38154.2 30195.7 lineto
38154.2 29577.1 lineto
stroke
newpath
40460.1 30814.4 moveto
39447.8 29295.8 lineto
stroke
newpath
41978.7 30758.2 moveto
42091.2 30758.2 lineto
42203.7 30701.9 lineto
42259.9 30645.7 lineto
42316.2 30533.2 lineto
42372.4 30308.2 lineto
42372.4 30027 lineto
42316.2 29802 lineto
42259.9 29689.5 lineto
42203.7 29633.3 lineto
42091.2 29577.1 lineto
41978.7 29577.1 lineto
41866.2 29633.3 lineto
41810 29689.5 lineto
41753.7 29802 lineto
41697.5 30027 lineto
41697.5 30308.2 lineto
41753.7 30533.2 lineto
41810 30645.7 lineto
41866.2 30701.9 lineto
41978.7 30758.2 lineto
stroke
newpath
42878.6 29689.5 moveto
42934.8 29633.3 lineto
42878.6 29577.1 lineto
42822.4 29633.3 lineto
42878.6 29689.5 lineto
42878.6 29577.1 lineto
stroke
newpath
43666 30758.2 moveto
43778.5 30758.2 lineto
43891 30701.9 lineto
43947.2 30645.7 lineto
44003.5 30533.2 lineto
44059.7 30308.2 lineto
44059.7 30027 lineto
44003.5 29802 lineto
43947.2 29689.5 lineto
43891 29633.3 lineto
43778.5 29577.1 lineto
43666 29577.1 lineto
43553.5 29633.3 lineto
43497.3 29689.5 lineto
43441 29802 lineto
43384.8 30027 lineto
43384.8 30308.2 lineto
43441 30533.2 lineto
43497.3 30645.7 lineto
43553.5 30701.9 lineto
43666 30758.2 lineto
stroke
newpath
44453.4 30758.2 moveto
45184.6 30758.2 lineto
44790.9 30308.2 lineto
44959.6 30308.2 lineto
45072.1 30252 lineto
45128.3 30195.7 lineto
45184.6 30083.2 lineto
45184.6 29802 lineto
45128.3 29689.5 lineto
45072.1 29633.3 lineto
44959.6 29577.1 lineto
44622.1 29577.1 lineto
44509.6 29633.3 lineto
44453.4 29689.5 lineto
stroke
newpath
45634.5 30645.7 moveto
45690.7 30701.9 lineto
45803.2 30758.2 lineto
46084.4 30758.2 lineto
46196.9 30701.9 lineto
46253.2 30645.7 lineto
46309.4 30533.2 lineto
46309.4 30420.7 lineto
46253.2 30252 lineto
45578.3 29577.1 lineto
46309.4 29577.1 lineto
stroke
newpath
47040.6 30758.2 moveto
47153.1 30758.2 lineto
47265.5 30701.9 lineto
47321.8 30645.7 lineto
47378 30533.2 lineto
47434.3 30308.2 lineto
47434.3 30027 lineto
47378 29802 lineto
47321.8 29689.5 lineto
47265.5 29633.3 lineto
47153.1 29577.1 lineto
47040.6 29577.1 lineto
46928.1 29633.3 lineto
46871.8 29689.5 lineto
46815.6 29802 lineto
46759.4 30027 lineto
46759.4 30308.2 lineto
46815.6 30533.2 lineto
46871.8 30645.7 lineto
46928.1 30701.9 lineto
47040.6 30758.2 lineto
stroke
newpath
47884.2 30758.2 moveto
47884.2 30533.2 lineto
stroke
newpath
48334.2 30758.2 moveto
48334.2 30533.2 lineto
stroke
newpath
50077.7 29127.1 moveto
50021.5 29183.4 lineto
49909 29352.1 lineto
49852.7 29464.6 lineto
49796.5 29633.3 lineto
49740.2 29914.5 lineto
49740.2 30139.5 lineto
49796.5 30420.7 lineto
49852.7 30589.4 lineto
49909 30701.9 lineto
50021.5 30870.6 lineto
50077.7 30926.9 lineto
stroke
newpath
51090.1 30758.2 moveto
50527.6 30758.2 lineto
50471.4 30195.7 lineto
50527.6 30252 lineto
50640.1 30308.2 lineto
50921.3 30308.2 lineto
51033.8 30252 lineto
51090.1 30195.7 lineto
51146.3 30083.2 lineto
51146.3 29802 lineto
51090.1 29689.5 lineto
51033.8 29633.3 lineto
50921.3 29577.1 lineto
50640.1 29577.1 lineto
50527.6 29633.3 lineto
50471.4 29689.5 lineto
stroke
newpath
51821.2 30252 moveto
51708.7 30308.2 lineto
51652.5 30364.5 lineto
51596.3 30476.9 lineto
51596.3 30533.2 lineto
51652.5 30645.7 lineto
51708.7 30701.9 lineto
51821.2 30758.2 lineto
52046.2 30758.2 lineto
52158.7 30701.9 lineto
52214.9 30645.7 lineto
52271.2 30533.2 lineto
52271.2 30476.9 lineto
52214.9 30364.5 lineto
52158.7 30308.2 lineto
52046.2 30252 lineto
51821.2 30252 lineto
51708.7 30195.7 lineto
51652.5 30139.5 lineto
51596.3 30027 lineto
51596.3 29802 lineto
51652.5 29689.5 lineto
51708.7 29633.3 lineto
51821.2 29577.1 lineto
52046.2 29577.1 lineto
52158.7 29633.3 lineto
52214.9 29689.5 lineto
52271.2 29802 lineto
52271.2 30027 lineto
52214.9 30139.5 lineto
52158.7 30195.7 lineto
52046.2 30252 lineto
stroke
newpath
53677.2 29577.1 moveto
53677.2 30758.2 lineto
stroke
newpath
54183.4 29577.1 moveto
54183.4 30195.7 lineto
54127.2 30308.2 lineto
54014.7 30364.5 lineto
53846 30364.5 lineto
53733.5 30308.2 lineto
53677.2 30252 lineto
stroke
newpath
54914.6 29577.1 moveto
54802.1 29633.3 lineto
54745.9 29689.5 lineto
54689.6 29802 lineto
54689.6 30139.5 lineto
54745.9 30252 lineto
54802.1 30308.2 lineto
54914.6 30364.5 lineto
55083.3 30364.5 lineto
55195.8 30308.2 lineto
55252 30252 lineto
55308.3 30139.5 lineto
55308.3 29802 lineto
55252 29689.5 lineto
55195.8 29633.3 lineto
55083.3 29577.1 lineto
54914.6 29577.1 lineto
stroke
newpath
55983.2 29577.1 moveto
55870.7 29633.3 lineto
55814.5 29745.8 lineto
55814.5 30758.2 lineto
stroke
newpath
56883.1 29633.3 moveto
56770.6 29577.1 lineto
56545.6 29577.1 lineto
56433.1 29633.3 lineto
56376.9 29745.8 lineto
56376.9 30195.7 lineto
56433.1 30308.2 lineto
56545.6 30364.5 lineto
56770.6 30364.5 lineto
56883.1 30308.2 lineto
56939.3 30195.7 lineto
56939.3 30083.2 lineto
56376.9 29970.8 lineto
stroke
newpath
57389.3 29633.3 moveto
57501.8 29577.1 lineto
57726.7 29577.1 lineto
57839.2 29633.3 lineto
57895.5 29745.8 lineto
57895.5 29802 lineto
57839.2 29914.5 lineto
57726.7 29970.8 lineto
57558 29970.8 lineto
57445.5 30027 lineto
57389.3 30139.5 lineto
57389.3 30195.7 lineto
57445.5 30308.2 lineto
57558 30364.5 lineto
57726.7 30364.5 lineto
57839.2 30308.2 lineto
stroke
newpath
58289.2 29127.1 moveto
58345.4 29183.4 lineto
58457.9 29352.1 lineto
58514.1 29464.6 lineto
58570.4 29633.3 lineto
58626.6 29914.5 lineto
58626.6 30139.5 lineto
58570.4 30420.7 lineto
58514.1 30589.4 lineto
58457.9 30701.9 lineto
58345.4 30870.6 lineto
58289.2 30926.9 lineto
stroke
newpath
29297.6 28359.6 moveto
29297.6 28745.1 lineto
28912.1 28745.1 lineto
28912.1 28359.6 lineto
29297.6 28359.6 lineto
poly0
0 0 0 setrgbcolor
0 0 0 setrgbcolor
newpath
31123.8 28018 moveto
30448.9 28018 lineto
stroke
newpath
30786.4 28018 moveto
30786.4 29199.1 lineto
30673.9 29030.4 lineto
30561.4 28917.9 lineto
30448.9 28861.6 lineto
stroke
newpath
31630 28130.5 moveto
31686.2 28074.2 lineto
31630 28018 lineto
31573.8 28074.2 lineto
31630 28130.5 lineto
31630 28018 lineto
stroke
newpath
32079.9 29199.1 moveto
32811.1 29199.1 lineto
32417.4 28749.2 lineto
32586.1 28749.2 lineto
32698.6 28692.9 lineto
32754.9 28636.7 lineto
32811.1 28524.2 lineto
32811.1 28243 lineto
32754.9 28130.5 lineto
32698.6 28074.2 lineto
32586.1 28018 lineto
32248.7 28018 lineto
32136.2 28074.2 lineto
32079.9 28130.5 lineto
stroke
newpath
33542.3 29199.1 moveto
33654.7 29199.1 lineto
33767.2 29142.9 lineto
33823.5 29086.6 lineto
33879.7 28974.1 lineto
33936 28749.2 lineto
33936 28467.9 lineto
33879.7 28243 lineto
33823.5 28130.5 lineto
33767.2 28074.2 lineto
33654.7 28018 lineto
33542.3 28018 lineto
33429.8 28074.2 lineto
33373.5 28130.5 lineto
33317.3 28243 lineto
33261 28467.9 lineto
33261 28749.2 lineto
33317.3 28974.1 lineto
33373.5 29086.6 lineto
33429.8 29142.9 lineto
33542.3 29199.1 lineto
stroke
newpath
34667.1 29199.1 moveto
34779.6 29199.1 lineto
34892.1 29142.9 lineto
34948.3 29086.6 lineto
35004.6 28974.1 lineto
35060.8 28749.2 lineto
35060.8 28467.9 lineto
35004.6 28243 lineto
34948.3 28130.5 lineto
34892.1 28074.2 lineto
34779.6 28018 lineto
34667.1 28018 lineto
34554.6 28074.2 lineto
34498.4 28130.5 lineto
34442.1 28243 lineto
34385.9 28467.9 lineto
34385.9 28749.2 lineto
34442.1 28974.1 lineto
34498.4 29086.6 lineto
34554.6 29142.9 lineto
34667.1 29199.1 lineto
stroke
newpath
35567 28018 moveto
35567 28805.4 lineto
stroke
newpath
35567 28692.9 moveto
35623.3 28749.2 lineto
35735.7 28805.4 lineto
35904.5 28805.4 lineto
36017 28749.2 lineto
36073.2 28636.7 lineto
36073.2 28018 lineto
stroke
newpath
36073.2 28636.7 moveto
36129.4 28749.2 lineto
36241.9 28805.4 lineto
36410.7 28805.4 lineto
36523.1 28749.2 lineto
36579.4 28636.7 lineto
36579.4 28018 lineto
stroke
newpath
37141.8 28018 moveto
37141.8 28805.4 lineto
stroke
newpath
37141.8 28692.9 moveto
37198.1 28749.2 lineto
37310.5 28805.4 lineto
37479.3 28805.4 lineto
37591.8 28749.2 lineto
37648 28636.7 lineto
37648 28018 lineto
stroke
newpath
37648 28636.7 moveto
37704.2 28749.2 lineto
37816.7 28805.4 lineto
37985.5 28805.4 lineto
38097.9 28749.2 lineto
38154.2 28636.7 lineto
38154.2 28018 lineto
stroke
newpath
40460.1 29255.4 moveto
39447.8 27736.8 lineto
stroke
newpath
41978.7 29199.1 moveto
42091.2 29199.1 lineto
42203.7 29142.9 lineto
42259.9 29086.6 lineto
42316.2 28974.1 lineto
42372.4 28749.2 lineto
42372.4 28467.9 lineto
42316.2 28243 lineto
42259.9 28130.5 lineto
42203.7 28074.2 lineto
42091.2 28018 lineto
41978.7 28018 lineto
41866.2 28074.2 lineto
41810 28130.5 lineto
41753.7 28243 lineto
41697.5 28467.9 lineto
41697.5 28749.2 lineto
41753.7 28974.1 lineto
41810 29086.6 lineto
41866.2 29142.9 lineto
41978.7 29199.1 lineto
stroke
newpath
42878.6 28130.5 moveto
42934.8 28074.2 lineto
42878.6 28018 lineto
42822.4 28074.2 lineto
42878.6 28130.5 lineto
42878.6 28018 lineto
stroke
newpath
43666 29199.1 moveto
43778.5 29199.1 lineto
43891 29142.9 lineto
43947.2 29086.6 lineto
44003.5 28974.1 lineto
44059.7 28749.2 lineto
44059.7 28467.9 lineto
44003.5 28243 lineto
43947.2 28130.5 lineto
43891 28074.2 lineto
43778.5 28018 lineto
43666 28018 lineto
43553.5 28074.2 lineto
43497.3 28130.5 lineto
43441 28243 lineto
43384.8 28467.9 lineto
43384.8 28749.2 lineto
43441 28974.1 lineto
43497.3 29086.6 lineto
43553.5 29142.9 lineto
43666 29199.1 lineto
stroke
newpath
45128.3 29199.1 moveto
44565.9 29199.1 lineto
44509.6 28636.7 lineto
44565.9 28692.9 lineto
44678.4 28749.2 lineto
44959.6 28749.2 lineto
45072.1 28692.9 lineto
45128.3 28636.7 lineto
45184.6 28524.2 lineto
45184.6 28243 lineto
45128.3 28130.5 lineto
45072.1 28074.2 lineto
44959.6 28018 lineto
44678.4 28018 lineto
44565.9 28074.2 lineto
44509.6 28130.5 lineto
stroke
newpath
46309.4 28018 moveto
45634.5 28018 lineto
stroke
newpath
45972 28018 moveto
45972 29199.1 lineto
45859.5 29030.4 lineto
45747 28917.9 lineto
45634.5 28861.6 lineto
stroke
newpath
46759.4 29086.6 moveto
46815.6 29142.9 lineto
46928.1 29199.1 lineto
47209.3 29199.1 lineto
47321.8 29142.9 lineto
47378 29086.6 lineto
47434.3 28974.1 lineto
47434.3 28861.6 lineto
47378 28692.9 lineto
46703.1 28018 lineto
47434.3 28018 lineto
stroke
newpath
47884.2 29199.1 moveto
47884.2 28974.1 lineto
stroke
newpath
48334.2 29199.1 moveto
48334.2 28974.1 lineto
stroke
newpath
50077.7 27568.1 moveto
50021.5 27624.3 lineto
49909 27793 lineto
49852.7 27905.5 lineto
49796.5 28074.2 lineto
49740.2 28355.5 lineto
49740.2 28580.4 lineto
49796.5 28861.6 lineto
49852.7 29030.4 lineto
49909 29142.9 lineto
50021.5 29311.6 lineto
50077.7 29367.8 lineto
stroke
newpath
50471.4 29086.6 moveto
50527.6 29142.9 lineto
50640.1 29199.1 lineto
50921.3 29199.1 lineto
51033.8 29142.9 lineto
51090.1 29086.6 lineto
51146.3 28974.1 lineto
51146.3 28861.6 lineto
51090.1 28692.9 lineto
50415.2 28018 lineto
51146.3 28018 lineto
stroke
newpath
52552.4 28018 moveto
52552.4 29199.1 lineto
stroke
newpath
53058.6 28018 moveto
53058.6 28636.7 lineto
53002.3 28749.2 lineto
52889.8 28805.4 lineto
52721.1 28805.4 lineto
52608.6 28749.2 lineto
52552.4 28692.9 lineto
stroke
newpath
53789.7 28018 moveto
53677.2 28074.2 lineto
53621 28130.5 lineto
53564.8 28243 lineto
53564.8 28580.4 lineto
53621 28692.9 lineto
53677.2 28749.2 lineto
53789.7 28805.4 lineto
53958.5 28805.4 lineto
54070.9 28749.2 lineto
54127.2 28692.9 lineto
54183.4 28580.4 lineto
54183.4 28243 lineto
54127.2 28130.5 lineto
54070.9 28074.2 lineto
53958.5 28018 lineto
53789.7 28018 lineto
stroke
newpath
54858.3 28018 moveto
54745.9 28074.2 lineto
54689.6 28186.7 lineto
54689.6 29199.1 lineto
stroke
newpath
55758.2 28074.2 moveto
55645.7 28018 lineto
55420.8 28018 lineto
55308.3 28074.2 lineto
55252 28186.7 lineto
55252 28636.7 lineto
55308.3 28749.2 lineto
55420.8 28805.4 lineto
55645.7 28805.4 lineto
55758.2 28749.2 lineto
55814.5 28636.7 lineto
55814.5 28524.2 lineto
55252 28411.7 lineto
stroke
newpath
56264.4 28074.2 moveto
56376.9 28018 lineto
56601.9 28018 lineto
56714.4 28074.2 lineto
56770.6 28186.7 lineto
56770.6 28243 lineto
56714.4 28355.5 lineto
56601.9 28411.7 lineto
56433.1 28411.7 lineto
56320.7 28467.9 lineto
56264.4 28580.4 lineto
56264.4 28636.7 lineto
56320.7 28749.2 lineto
56433.1 28805.4 lineto
56601.9 28805.4 lineto
56714.4 28749.2 lineto
stroke
newpath
57164.3 27568.1 moveto
57220.6 27624.3 lineto
57333 27793 lineto
57389.3 27905.5 lineto
57445.5 28074.2 lineto
57501.8 28355.5 lineto
57501.8 28580.4 lineto
57445.5 28861.6 lineto
57389.3 29030.4 lineto
57333 29142.9 lineto
57220.6 29311.6 lineto
57164.3 29367.8 lineto
stroke
showpage
grestore
%%EOF
