(module Diode_SOD123 (layer F.Cu) (tedit 61DA39CF)
  (descr "Resitance 3 pas")
  (tags R)
  (autoplace_cost180 10)
  (fp_text reference D1 (at 0.55 0) (layer F.Fab) hide
    (effects (font (size 0.5 0.5) (thickness 0.125)))
  )
  (fp_text value D (at -0.55 0) (layer F.Fab) hide
    (effects (font (size 0.5 0.5) (thickness 0.125)))
  )
  (fp_line (start 2.7 0.75) (end 2.7 -0.75) (layer B.SilkS) (width 0.15))
  (fp_line (start -2.7 0.75) (end 2.7 0.75) (layer B.SilkS) (width 0.15))
  (fp_line (start -2.7 -0.75) (end -2.7 0.75) (layer B.SilkS) (width 0.15))
  (fp_line (start 2.7 -0.75) (end -2.7 -0.75) (layer B.SilkS) (width 0.15))
  (fp_line (start 2.7 0.75) (end 2.7 -0.75) (layer F.SilkS) (width 0.15))
  (fp_line (start -2.7 0.75) (end 2.7 0.75) (layer F.SilkS) (width 0.15))
  (fp_line (start -2.7 -0.75) (end -2.7 0.75) (layer F.SilkS) (width 0.15))
  (fp_line (start 2.7 -0.75) (end -2.7 -0.75) (layer F.SilkS) (width 0.15))
  (fp_line (start -0.5 -0.5) (end -0.5 0.5) (layer F.SilkS) (width 0.15))
  (fp_line (start 0.5 0.5) (end -0.4 0) (layer F.SilkS) (width 0.15))
  (fp_line (start 0.5 -0.5) (end 0.5 0.5) (layer F.SilkS) (width 0.15))
  (fp_line (start -0.4 0) (end 0.5 -0.5) (layer F.SilkS) (width 0.15))
  (fp_line (start -0.5 -0.5) (end -0.5 0.5) (layer B.SilkS) (width 0.15))
  (fp_line (start 0.5 0.5) (end -0.4 0) (layer B.SilkS) (width 0.15))
  (fp_line (start 0.5 -0.5) (end 0.5 0.5) (layer B.SilkS) (width 0.15))
  (fp_line (start -0.4 0) (end 0.5 -0.5) (layer B.SilkS) (width 0.15))
  (pad 1 thru_hole rect (at -1.775 0) (size 1.3 0.95) (drill 0.4) (layers *.Cu *.Mask))
  (pad 2 thru_hole rect (at 1.775 0) (size 1.3 0.95) (drill 0.4) (layers *.Cu *.Mask))
  (model Diodes_SMD.3dshapes/SMB_Handsoldering.wrl
    (at (xyz 0 0 0))
    (scale (xyz 0.22 0.15 0.15))
    (rotate (xyz 0 0 180))
  )
)
