(module SK6812MINI-E (layer F.Cu) (tedit 61B93DDC)
  (fp_text reference REF** (at 0.254 2.54) (layer F.SilkS)
    (effects (font (size 1 1) (thickness 0.15)))
  )
  (fp_text value SK6812MINI-E (at 0 -2.54) (layer F.Fab)
    (effects (font (size 1 1) (thickness 0.15)))
  )
  (fp_line (start -1.6 0.7) (end -0.8 1.4) (layer Dwgs.User) (width 0.12))
  (fp_line (start 2.94 -0.37) (end 2.94 -1.05) (layer Dwgs.User) (width 0.12))
  (fp_line (start 2.94 -1.05) (end 1.6 -1.05) (layer Dwgs.User) (width 0.12))
  (fp_line (start 1.6 -0.37) (end 2.94 -0.37) (layer Dwgs.User) (width 0.12))
  (fp_line (start 2.94 1.03) (end 2.94 0.35) (layer Dwgs.User) (width 0.12))
  (fp_line (start 2.94 0.35) (end 1.6 0.35) (layer Dwgs.User) (width 0.12))
  (fp_line (start 1.6 1.03) (end 2.94 1.03) (layer Dwgs.User) (width 0.12))
  (fp_line (start -2.94 0.35) (end -2.94 1.03) (layer Dwgs.User) (width 0.12))
  (fp_line (start -2.94 1.03) (end -1.6 1.03) (layer Dwgs.User) (width 0.12))
  (fp_line (start -1.6 0.35) (end -2.94 0.35) (layer Dwgs.User) (width 0.12))
  (fp_line (start -2.94 -0.37) (end -1.6 -0.37) (layer Dwgs.User) (width 0.12))
  (fp_line (start -2.94 -1.05) (end -2.94 -0.37) (layer Dwgs.User) (width 0.12))
  (fp_line (start -1.6 -1.05) (end -2.94 -1.05) (layer Dwgs.User) (width 0.12))
  (fp_line (start 1.6 -1.4) (end 1.6 1.4) (layer Dwgs.User) (width 0.12))
  (fp_line (start -1.6 -1.4) (end -1.6 1.4) (layer Dwgs.User) (width 0.12))
  (fp_line (start -1.6 1.4) (end 1.6 1.4) (layer Dwgs.User) (width 0.12))
  (fp_line (start -1.6 -1.4) (end 1.6 -1.4) (layer Dwgs.User) (width 0.12))
  (pad 2 smd rect (at 2.75 0.7) (size 1.7 1) (layers F.Cu F.Paste F.Mask))
  (pad 1 smd rect (at 2.75 -0.7) (size 1.7 1) (layers F.Cu F.Paste F.Mask))
  (pad 3 smd rect (at -2.75 0.7) (size 1.7 1) (layers F.Cu F.Paste F.Mask))
  (pad 4 smd rect (at -2.75 -0.7) (size 1.7 1) (layers F.Cu F.Paste F.Mask))
)
