(module USB_Micro_Mount (layer F.Cu) (tedit 61EE9354)
  (fp_text reference REF** (at 0 -2.54) (layer F.SilkS)
    (effects (font (size 1 1) (thickness 0.15)))
  )
  (fp_text value USB_Micro_Mount (at 0 2.54) (layer F.Fab)
    (effects (font (size 1 1) (thickness 0.15)))
  )
  (fp_line (start 5.1435 -0.9525) (end 5.588 -1.5875) (layer F.SilkS) (width 0.12))
  (fp_line (start 4.699 -1.5875) (end 5.1435 -0.9525) (layer F.SilkS) (width 0.12))
  (fp_line (start -6.35 -11.43) (end -6.35 1.27) (layer F.Fab) (width 0.12))
  (fp_line (start 6.35 -1.27) (end -6.35 -1.27) (layer F.Fab) (width 0.12))
  (fp_line (start -6.35 1.27) (end 6.35 1.27) (layer F.Fab) (width 0.12))
  (fp_line (start 0 1.27) (end -6.35 1.27) (layer F.Fab) (width 0.12))
  (fp_line (start 6.35 -11.43) (end 6.35 1.27) (layer F.Fab) (width 0.12))
  (fp_line (start 6.35 -11.43) (end 3.85 -11.43) (layer F.Fab) (width 0.12))
  (fp_line (start -3.85 -11.43) (end -6.35 -11.43) (layer F.Fab) (width 0.12))
  (fp_line (start 3.85 -9.23) (end 3.85 -11.43) (layer F.Fab) (width 0.12))
  (fp_line (start -3.85 -9.23) (end -3.85 -11.43) (layer F.Fab) (width 0.12))
  (fp_line (start -3.85 -9.23) (end 3.85 -9.23) (layer F.Fab) (width 0.12))
  (fp_line (start 4.699 -1.5875) (end 5.588 -1.5875) (layer F.SilkS) (width 0.12))
  (fp_line (start 5.588 -1.5875) (end 5.1435 -0.9525) (layer B.SilkS) (width 0.12))
  (fp_line (start 5.588 -1.5875) (end 4.699 -1.5875) (layer B.SilkS) (width 0.12))
  (fp_line (start 5.1435 -0.9525) (end 4.699 -1.5875) (layer B.SilkS) (width 0.12))
  (pad 3 thru_hole circle (at 0 0) (size 1.524 1.524) (drill 0.762) (layers *.Cu *.Mask))
  (pad 4 thru_hole circle (at -2.54 0) (size 1.524 1.524) (drill 0.762) (layers *.Cu *.Mask))
  (pad 2 thru_hole circle (at 2.54 0) (size 1.524 1.524) (drill 0.762) (layers *.Cu *.Mask))
  (pad 5 thru_hole circle (at -5.08 0) (size 1.524 1.524) (drill 0.762) (layers *.Cu *.Mask))
  (pad 1 thru_hole rect (at 5.08 0) (size 1.524 1.524) (drill 0.762) (layers *.Cu *.Mask))
  (pad 6 thru_hole circle (at 5.08 -10.16) (size 1.524 1.524) (drill 0.762) (layers *.Cu *.Mask))
  (pad 7 thru_hole circle (at -5.08 -10.16) (size 1.524 1.524) (drill 0.762) (layers *.Cu *.Mask))
)
