(module CherryMX_With_Socket (layer F.Cu) (tedit 5C98DE5A)
  (fp_text reference SW2 (at 7 8.1) (layer F.SilkS) hide
    (effects (font (size 1 1) (thickness 0.15)))
  )
  (fp_text value SW_PUSH (at -7.4 -8.1) (layer F.Fab) hide
    (effects (font (size 1 1) (thickness 0.15)))
  )
  (fp_line (start 6.1 -0.896) (end 2.49 -0.896) (layer F.SilkS) (width 0.15))
  (fp_line (start 6.1 -4.85) (end 6.1 -0.905) (layer F.SilkS) (width 0.15))
  (fp_line (start -4.8 -6.804) (end 3.825 -6.804) (layer F.SilkS) (width 0.15))
  (fp_line (start -4.8 -2.896) (end -4.8 -6.804) (layer F.SilkS) (width 0.15))
  (fp_line (start -4.8 -2.85) (end 0.25 -2.804) (layer F.SilkS) (width 0.15))
  (fp_arc (start 4.015 -4.73) (end 3.825 -6.804) (angle 90) (layer F.SilkS) (width 0.15))
  (fp_arc (start 0.415001 -0.73) (end 0.225 -2.8) (angle 90) (layer F.SilkS) (width 0.15))
  (fp_arc (start -0.415 -0.730001) (end -0.225 -2.8) (angle -90) (layer B.SilkS) (width 0.15))
  (fp_arc (start -4.015 -4.73) (end -3.825 -6.804) (angle -90) (layer B.SilkS) (width 0.15))
  (fp_line (start 4.8 -2.85) (end -0.25 -2.804) (layer B.SilkS) (width 0.15))
  (fp_line (start 4.8 -2.896) (end 4.8 -6.804) (layer B.SilkS) (width 0.15))
  (fp_line (start 4.8 -6.804) (end -3.825 -6.804) (layer B.SilkS) (width 0.15))
  (fp_line (start -6.1 -4.85) (end -6.1 -0.905) (layer B.SilkS) (width 0.15))
  (fp_line (start -6.1 -0.896) (end -2.49 -0.896) (layer B.SilkS) (width 0.15))
  (fp_line (start -9 -9) (end 9 -9) (layer Eco2.User) (width 0.15))
  (fp_line (start 9 -9) (end 9 9) (layer Eco2.User) (width 0.15))
  (fp_line (start 9 9) (end -9 9) (layer Eco2.User) (width 0.15))
  (fp_line (start -9 9) (end -9 -9) (layer Eco2.User) (width 0.15))
  (fp_line (start -7 -7) (end 7 -7) (layer Eco2.User) (width 0.15))
  (fp_line (start 7 -7) (end 7 7) (layer Eco2.User) (width 0.15))
  (fp_line (start 7 7) (end -7 7) (layer Eco2.User) (width 0.15))
  (fp_line (start -7 7) (end -7 -7) (layer Eco2.User) (width 0.15))
  (pad 1 smd rect (at -7.2 -5.1) (size 0.7 1.5) (layers F.Cu F.Paste F.Mask))
  (pad 1 smd rect (at -8.5 -2.5) (size 0.7 1.5) (layers B.Cu B.Paste B.Mask))
  (pad 2 smd rect (at 8.5 -2.5) (size 0.7 1.5) (layers F.Cu F.Paste F.Mask))
  (pad 2 smd rect (at 7.2 -5.1) (size 0.7 1.5) (layers B.Cu B.Paste B.Mask))
  (pad "" np_thru_hole circle (at 3.81 -2.54 180) (size 3 3) (drill 3) (layers *.Cu *.Mask))
  (pad 1 smd rect (at -5.7 -5.08 180) (size 2.4 2.4) (layers F.Cu F.Paste F.Mask))
  (pad "" np_thru_hole circle (at 3.81 -2.54 180) (size 3 3) (drill 3) (layers *.Cu *.Mask))
  (pad "" np_thru_hole circle (at -2.54 -5.08 180) (size 3 3) (drill 3) (layers *.Cu *.Mask))
  (pad 2 smd rect (at 6.9 -2.540001 180) (size 2.5 2.5) (layers F.Cu F.Paste F.Mask))
  (pad "" np_thru_hole circle (at 3.825 -2.58 180) (size 0.1 0.1) (drill 0.1) (layers *.Cu *.Mask))
  (pad "" np_thru_hole circle (at -3.825 -2.58 180) (size 0.1 0.1) (drill 0.1) (layers *.Cu *.Mask))
  (pad 1 smd rect (at -6.9 -2.54 180) (size 2.5 2.5) (layers B.Cu B.Paste B.Mask))
  (pad "" np_thru_hole circle (at 2.54 -5.08 180) (size 3 3) (drill 3) (layers *.Cu *.Mask))
  (pad "" np_thru_hole circle (at 0 0 90) (size 4 4) (drill 4) (layers *.Cu *.Mask))
  (pad "" np_thru_hole circle (at 5.08 0) (size 1.7 1.7) (drill 1.7) (layers *.Cu *.Mask))
  (pad "" np_thru_hole circle (at -5.08 0) (size 1.7 1.7) (drill 1.7) (layers *.Cu *.Mask))
  (pad "" np_thru_hole circle (at -3.81 -2.540001 180) (size 3 3) (drill 3) (layers *.Cu *.Mask))
  (pad 2 smd rect (at 5.7 -5.08 180) (size 2.4 2.4) (layers B.Cu B.Paste B.Mask))
)
