(module Diode_SOD123 placed (layer F.Cu) (tedit 5C9799FA)
  (descr "Diode, DO-41, SOD81, Horizontal, RM 10mm,")
  (tags "Diode, DO-41, SOD81, Horizontal, RM 10mm, 1N4007, SB140,")
  (fp_text reference D8 (at 0 1.5) (layer F.SilkS) hide
    (effects (font (size 1 1) (thickness 0.15)))
  )
  (fp_text value D (at 0 -1.2) (layer F.Fab) hide
    (effects (font (size 1 1) (thickness 0.15)))
  )
  (fp_line (start -0.5 0) (end 0.4 -0.7) (layer B.SilkS) (width 0.15))
  (fp_line (start 0.4 -0.7) (end 0.4 0.7) (layer B.SilkS) (width 0.15))
  (fp_line (start 0.4 0.7) (end -0.5 0) (layer B.SilkS) (width 0.15))
  (fp_line (start -0.5 -0.7) (end -0.5 0.7) (layer B.SilkS) (width 0.15))
  (fp_line (start 0.4 -0.7) (end 0.4 0.7) (layer F.SilkS) (width 0.15))
  (fp_line (start 0.4 0.7) (end -0.5 0) (layer F.SilkS) (width 0.15))
  (fp_line (start -0.5 0) (end 0.4 -0.7) (layer F.SilkS) (width 0.15))
  (fp_line (start -0.5 -0.7) (end -0.5 0.7) (layer F.SilkS) (width 0.15))
  (pad 1 thru_hole rect (at -1.7 0) (size 1.8 1.5) (drill 0.4) (layers *.Cu *.Mask))
  (pad 2 thru_hole rect (at 1.7 0) (size 1.8 1.5) (drill 0.4) (layers *.Cu *.Mask))
)
