EESchema Schematic File Version 4
EELAYER 30 0
EELAYER END
$Descr A3 16535 11693
encoding utf-8
Sheet 1 1
Title ""
Date ""
Rev ""
Comp ""
Comment1 ""
Comment2 ""
Comment3 ""
Comment4 ""
$EndDescr
Text GLabel 9750 1850 0    50   Input ~ 0
row0
Text GLabel 9750 2650 0    50   Input ~ 0
row1
Text GLabel 9750 3450 0    50   Input ~ 0
row2
Text GLabel 9750 4250 0    50   Input ~ 0
row3
$Comp
L accent:GND #PWR06
U 1 1 5C999CA0
P 2200 6100
F 0 "#PWR06" H 2200 5850 50  0001 C CNN
F 1 "GND" H 2205 5927 50  0000 C CNN
F 2 "" H 2200 6100 50  0000 C CNN
F 3 "" H 2200 6100 50  0000 C CNN
	1    2200 6100
	1    0    0    -1  
$EndComp
Wire Wire Line
	2000 5850 2200 5850
Wire Wire Line
	2200 5850 2200 6100
Wire Wire Line
	2000 5750 2200 5750
Text GLabel 2000 6900 2    50   Input ~ 0
RESET
$Comp
L accent:GND #PWR01
U 1 1 5C986694
P 1400 6900
F 0 "#PWR01" H 1400 6650 50  0001 C CNN
F 1 "GND" V 1405 6772 50  0000 R CNN
F 2 "" H 1400 6900 50  0000 C CNN
F 3 "" H 1400 6900 50  0000 C CNN
	1    1400 6900
	0    1    1    0   
$EndComp
Wire Wire Line
	12550 4250 13350 4250
Wire Wire Line
	13350 4250 14150 4250
Wire Wire Line
	14150 4250 14950 4250
Connection ~ 10350 2350
Wire Wire Line
	10350 1550 10350 2350
Wire Wire Line
	14350 1150 14350 1550
Connection ~ 10950 3450
Wire Wire Line
	9750 3450 10950 3450
Connection ~ 10950 2650
Wire Wire Line
	9750 2650 10950 2650
Connection ~ 10950 1850
Wire Wire Line
	9750 1850 10950 1850
Wire Wire Line
	14350 2350 14350 3150
Connection ~ 14350 2350
Wire Wire Line
	14350 1550 14350 2350
Wire Wire Line
	13550 2350 13550 3150
Connection ~ 13550 2350
Wire Wire Line
	13550 1550 13550 2350
Wire Wire Line
	14350 3150 14350 3950
Connection ~ 12750 3150
Wire Wire Line
	12750 2350 12750 3150
Connection ~ 12750 2350
Wire Wire Line
	12750 1550 12750 2350
Wire Wire Line
	13550 3150 13550 3950
Connection ~ 11950 3150
Wire Wire Line
	11950 2350 11950 3150
Connection ~ 11950 2350
Wire Wire Line
	11950 1550 11950 2350
Wire Wire Line
	12750 3150 12750 3950
Wire Wire Line
	11150 2350 11150 3150
Connection ~ 14150 4250
Wire Wire Line
	14150 3450 14950 3450
Connection ~ 14150 3450
Wire Wire Line
	13350 3450 14150 3450
Connection ~ 13350 3450
Wire Wire Line
	12550 3450 13350 3450
Connection ~ 12550 3450
Wire Wire Line
	11750 3450 12550 3450
Connection ~ 11750 3450
Wire Wire Line
	10950 3450 11750 3450
Wire Wire Line
	14150 2650 14950 2650
Connection ~ 14150 2650
Wire Wire Line
	13350 2650 14150 2650
Connection ~ 13350 2650
Wire Wire Line
	12550 2650 13350 2650
Connection ~ 12550 2650
Wire Wire Line
	11750 2650 12550 2650
Connection ~ 11750 2650
Wire Wire Line
	10950 2650 11750 2650
Wire Wire Line
	10350 1550 10350 1150
Text GLabel 10350 1150 1    50   Input ~ 0
col0
Wire Wire Line
	14150 1850 14950 1850
Wire Wire Line
	13350 1850 14150 1850
Connection ~ 14150 1850
Connection ~ 13350 1850
Text GLabel 11150 1150 1    50   Input ~ 0
col1
Wire Wire Line
	12550 1850 13350 1850
Connection ~ 12550 1850
Wire Wire Line
	11750 1850 12550 1850
Connection ~ 11750 1850
Wire Wire Line
	11950 1550 11950 1150
Text GLabel 11950 1150 1    50   Input ~ 0
col2
Wire Wire Line
	12750 1550 12750 1150
Text GLabel 12750 1150 1    50   Input ~ 0
col3
Wire Wire Line
	13550 1550 13550 1150
Text GLabel 13550 1150 1    50   Input ~ 0
col4
Wire Wire Line
	10950 1850 11750 1850
Text GLabel 14350 1150 1    50   Input ~ 0
col5
Wire Wire Line
	10350 2350 10350 3150
Wire Wire Line
	11950 3150 11950 3950
Connection ~ 10350 1550
Connection ~ 11950 1550
Wire Wire Line
	11150 1150 11150 1550
Connection ~ 11150 1550
Connection ~ 12750 1550
Connection ~ 13550 1550
Connection ~ 14350 1550
Connection ~ 13550 3150
Connection ~ 14350 3150
Connection ~ 12550 4250
Connection ~ 13350 4250
Wire Wire Line
	9750 4250 12550 4250
Wire Wire Line
	11150 1550 11150 2350
Connection ~ 11150 2350
$Comp
L Device:D D1
U 1 1 5C960268
P 10950 1700
F 0 "D1" V 10996 1621 50  0000 R CNN
F 1 "D" V 10905 1621 50  0000 R CNN
F 2 "accent-footprint:Diode_SOD123" H 10950 1700 50  0001 C CNN
F 3 "~" H 10950 1700 50  0001 C CNN
	1    10950 1700
	0    -1   -1   0   
$EndComp
$Comp
L accent:SW_PUSH SW1
U 1 1 5C985F82
P 10650 1550
F 0 "SW1" H 10650 1895 50  0000 C CNN
F 1 "SW_PUSH" H 10650 1804 50  0000 C CNN
F 2 "accent-footprint:CherryMX_With_Socket" H 10650 1713 20  0000 C CNN
F 3 "" H 10650 1550 50  0000 C CNN
	1    10650 1550
	1    0    0    -1  
$EndComp
$Comp
L Device:D D2
U 1 1 5C9821B9
P 11750 1700
F 0 "D2" V 11796 1621 50  0000 R CNN
F 1 "D" V 11705 1621 50  0000 R CNN
F 2 "accent-footprint:Diode_SOD123" H 11750 1700 50  0001 C CNN
F 3 "~" H 11750 1700 50  0001 C CNN
	1    11750 1700
	0    -1   -1   0   
$EndComp
$Comp
L Device:D D3
U 1 1 5C982287
P 12550 1700
F 0 "D3" V 12596 1621 50  0000 R CNN
F 1 "D" V 12505 1621 50  0000 R CNN
F 2 "accent-footprint:Diode_SOD123" H 12550 1700 50  0001 C CNN
F 3 "~" H 12550 1700 50  0001 C CNN
	1    12550 1700
	0    -1   -1   0   
$EndComp
$Comp
L Device:D D4
U 1 1 5C9822D0
P 13350 1700
F 0 "D4" V 13396 1621 50  0000 R CNN
F 1 "D" V 13305 1621 50  0000 R CNN
F 2 "accent-footprint:Diode_SOD123" H 13350 1700 50  0001 C CNN
F 3 "~" H 13350 1700 50  0001 C CNN
	1    13350 1700
	0    -1   -1   0   
$EndComp
$Comp
L Device:D D5
U 1 1 5C9826D7
P 14150 1700
F 0 "D5" V 14196 1621 50  0000 R CNN
F 1 "D" V 14105 1621 50  0000 R CNN
F 2 "accent-footprint:Diode_SOD123" H 14150 1700 50  0001 C CNN
F 3 "~" H 14150 1700 50  0001 C CNN
	1    14150 1700
	0    -1   -1   0   
$EndComp
$Comp
L Device:D D6
U 1 1 5C982842
P 14950 1700
F 0 "D6" V 14996 1621 50  0000 R CNN
F 1 "D" V 14905 1621 50  0000 R CNN
F 2 "accent-footprint:Diode_SOD123" H 14950 1700 50  0001 C CNN
F 3 "~" H 14950 1700 50  0001 C CNN
	1    14950 1700
	0    -1   -1   0   
$EndComp
$Comp
L Device:D D7
U 1 1 5C982B10
P 10950 2500
F 0 "D7" V 10996 2421 50  0000 R CNN
F 1 "D" V 10905 2421 50  0000 R CNN
F 2 "accent-footprint:Diode_SOD123" H 10950 2500 50  0001 C CNN
F 3 "~" H 10950 2500 50  0001 C CNN
	1    10950 2500
	0    -1   -1   0   
$EndComp
$Comp
L Device:D D8
U 1 1 5C982B1D
P 11750 2500
F 0 "D8" V 11796 2421 50  0000 R CNN
F 1 "D" V 11705 2421 50  0000 R CNN
F 2 "accent-footprint:Diode_SOD123" H 11750 2500 50  0001 C CNN
F 3 "~" H 11750 2500 50  0001 C CNN
	1    11750 2500
	0    -1   -1   0   
$EndComp
$Comp
L Device:D D9
U 1 1 5C982B2A
P 12550 2500
F 0 "D9" V 12596 2421 50  0000 R CNN
F 1 "D" V 12505 2421 50  0000 R CNN
F 2 "accent-footprint:Diode_SOD123" H 12550 2500 50  0001 C CNN
F 3 "~" H 12550 2500 50  0001 C CNN
	1    12550 2500
	0    -1   -1   0   
$EndComp
$Comp
L Device:D D10
U 1 1 5C982B37
P 13350 2500
F 0 "D10" V 13396 2421 50  0000 R CNN
F 1 "D" V 13305 2421 50  0000 R CNN
F 2 "accent-footprint:Diode_SOD123" H 13350 2500 50  0001 C CNN
F 3 "~" H 13350 2500 50  0001 C CNN
	1    13350 2500
	0    -1   -1   0   
$EndComp
$Comp
L Device:D D11
U 1 1 5C982B44
P 14150 2500
F 0 "D11" V 14196 2421 50  0000 R CNN
F 1 "D" V 14105 2421 50  0000 R CNN
F 2 "accent-footprint:Diode_SOD123" H 14150 2500 50  0001 C CNN
F 3 "~" H 14150 2500 50  0001 C CNN
	1    14150 2500
	0    -1   -1   0   
$EndComp
$Comp
L Device:D D12
U 1 1 5C982B51
P 14950 2500
F 0 "D12" V 14996 2421 50  0000 R CNN
F 1 "D" V 14905 2421 50  0000 R CNN
F 2 "accent-footprint:Diode_SOD123" H 14950 2500 50  0001 C CNN
F 3 "~" H 14950 2500 50  0001 C CNN
	1    14950 2500
	0    -1   -1   0   
$EndComp
$Comp
L Device:D D13
U 1 1 5C982EB7
P 10950 3300
F 0 "D13" V 10996 3221 50  0000 R CNN
F 1 "D" V 10905 3221 50  0000 R CNN
F 2 "accent-footprint:Diode_SOD123" H 10950 3300 50  0001 C CNN
F 3 "~" H 10950 3300 50  0001 C CNN
	1    10950 3300
	0    -1   -1   0   
$EndComp
$Comp
L Device:D D14
U 1 1 5C982EC4
P 11750 3300
F 0 "D14" V 11796 3221 50  0000 R CNN
F 1 "D" V 11705 3221 50  0000 R CNN
F 2 "accent-footprint:Diode_SOD123" H 11750 3300 50  0001 C CNN
F 3 "~" H 11750 3300 50  0001 C CNN
	1    11750 3300
	0    -1   -1   0   
$EndComp
$Comp
L Device:D D15
U 1 1 5C982ED1
P 12550 3300
F 0 "D15" V 12596 3221 50  0000 R CNN
F 1 "D" V 12505 3221 50  0000 R CNN
F 2 "accent-footprint:Diode_SOD123" H 12550 3300 50  0001 C CNN
F 3 "~" H 12550 3300 50  0001 C CNN
	1    12550 3300
	0    -1   -1   0   
$EndComp
$Comp
L Device:D D16
U 1 1 5C982EDE
P 13350 3300
F 0 "D16" V 13396 3221 50  0000 R CNN
F 1 "D" V 13305 3221 50  0000 R CNN
F 2 "accent-footprint:Diode_SOD123" H 13350 3300 50  0001 C CNN
F 3 "~" H 13350 3300 50  0001 C CNN
	1    13350 3300
	0    -1   -1   0   
$EndComp
$Comp
L Device:D D17
U 1 1 5C982EEB
P 14150 3300
F 0 "D17" V 14196 3221 50  0000 R CNN
F 1 "D" V 14105 3221 50  0000 R CNN
F 2 "accent-footprint:Diode_SOD123" H 14150 3300 50  0001 C CNN
F 3 "~" H 14150 3300 50  0001 C CNN
	1    14150 3300
	0    -1   -1   0   
$EndComp
$Comp
L accent:SW_PUSH SW17
U 1 1 5C982EF1
P 13850 3150
F 0 "SW17" H 13850 3495 50  0000 C CNN
F 1 "SW_PUSH" H 13850 3404 50  0000 C CNN
F 2 "accent-footprint:CherryMX_With_Socket" H 13850 3313 20  0000 C CNN
F 3 "" H 13850 3150 50  0000 C CNN
	1    13850 3150
	1    0    0    -1  
$EndComp
$Comp
L Device:D D18
U 1 1 5C982EF8
P 14950 3300
F 0 "D18" V 14996 3221 50  0000 R CNN
F 1 "D" V 14905 3221 50  0000 R CNN
F 2 "accent-footprint:Diode_SOD123" H 14950 3300 50  0001 C CNN
F 3 "~" H 14950 3300 50  0001 C CNN
	1    14950 3300
	0    -1   -1   0   
$EndComp
$Comp
L Device:D D19
U 1 1 5C98335C
P 12550 4100
F 0 "D19" V 12596 4021 50  0000 R CNN
F 1 "D" V 12505 4021 50  0000 R CNN
F 2 "accent-footprint:Diode_SOD123" H 12550 4100 50  0001 C CNN
F 3 "~" H 12550 4100 50  0001 C CNN
	1    12550 4100
	0    -1   -1   0   
$EndComp
$Comp
L Device:D D20
U 1 1 5C983369
P 13350 4100
F 0 "D20" V 13396 4021 50  0000 R CNN
F 1 "D" V 13305 4021 50  0000 R CNN
F 2 "accent-footprint:Diode_SOD123" H 13350 4100 50  0001 C CNN
F 3 "~" H 13350 4100 50  0001 C CNN
	1    13350 4100
	0    -1   -1   0   
$EndComp
$Comp
L Device:D D21
U 1 1 5C983376
P 14150 4100
F 0 "D21" V 14196 4021 50  0000 R CNN
F 1 "D" V 14105 4021 50  0000 R CNN
F 2 "accent-footprint:Diode_SOD123" H 14150 4100 50  0001 C CNN
F 3 "~" H 14150 4100 50  0001 C CNN
	1    14150 4100
	0    -1   -1   0   
$EndComp
$Comp
L Device:D D22
U 1 1 5C983383
P 14950 4100
F 0 "D22" V 14996 4021 50  0000 R CNN
F 1 "D" V 14905 4021 50  0000 R CNN
F 2 "accent-footprint:Diode_SOD123" H 14950 4100 50  0001 C CNN
F 3 "~" H 14950 4100 50  0001 C CNN
	1    14950 4100
	0    -1   -1   0   
$EndComp
$Comp
L accent:SW_PUSH SW22
U 1 1 5C983389
P 14650 3950
F 0 "SW22" H 14650 4295 50  0000 C CNN
F 1 "SW_PUSH" H 14650 4204 50  0000 C CNN
F 2 "accent-footprint:CherryMX_With_Socket" H 14650 4113 20  0000 C CNN
F 3 "" H 14650 3950 50  0000 C CNN
	1    14650 3950
	1    0    0    -1  
$EndComp
$Comp
L accent:Hole_mini HM2
U 1 1 5C995EE6
P 2150 9500
F 0 "HM2" H 2408 9553 60  0000 L CNN
F 1 "Hole_mini" H 2408 9447 60  0000 L CNN
F 2 "accent-footprint:Hole_M2_mini" H 2408 9394 60  0001 L CNN
F 3 "" H 2150 9500 60  0000 C CNN
	1    2150 9500
	1    0    0    -1  
$EndComp
$Comp
L accent:Hole_mini HM1
U 1 1 5C995DB8
P 1300 9500
F 0 "HM1" H 1558 9553 60  0000 L CNN
F 1 "Hole_mini" H 1558 9447 60  0000 L CNN
F 2 "accent-footprint:Hole_M2_mini" H 1558 9394 60  0001 L CNN
F 3 "" H 1300 9500 60  0000 C CNN
	1    1300 9500
	1    0    0    -1  
$EndComp
$Comp
L accent:Hole H4
U 1 1 5C99D8E3
P 3850 10150
F 0 "H4" H 4128 10203 60  0000 L CNN
F 1 "Hole" H 4128 10097 60  0000 L CNN
F 2 "accent-footprint:Hole_M2" H 3850 10150 60  0001 C CNN
F 3 "" H 3850 10150 60  0000 C CNN
	1    3850 10150
	1    0    0    -1  
$EndComp
$Comp
L accent:Hole H5
U 1 1 5C99B8DF
P 4650 10150
F 0 "H5" H 4928 10203 60  0000 L CNN
F 1 "Hole" H 4928 10097 60  0000 L CNN
F 2 "accent-footprint:Hole_M2" H 4650 10150 60  0001 C CNN
F 3 "" H 4650 10150 60  0000 C CNN
	1    4650 10150
	1    0    0    -1  
$EndComp
$Comp
L accent:Hole H3
U 1 1 5C99B5AB
P 3000 10150
F 0 "H3" H 3278 10203 60  0000 L CNN
F 1 "Hole" H 3278 10097 60  0000 L CNN
F 2 "accent-footprint:Hole_M2" H 3000 10150 60  0001 C CNN
F 3 "" H 3000 10150 60  0000 C CNN
	1    3000 10150
	1    0    0    -1  
$EndComp
$Comp
L accent:Hole H2
U 1 1 5C99B385
P 2150 10150
F 0 "H2" H 2428 10203 60  0000 L CNN
F 1 "Hole" H 2428 10097 60  0000 L CNN
F 2 "accent-footprint:Hole_M2" H 2150 10150 60  0001 C CNN
F 3 "" H 2150 10150 60  0000 C CNN
	1    2150 10150
	1    0    0    -1  
$EndComp
$Comp
L accent:Hole H1
U 1 1 5C99B276
P 1300 10150
F 0 "H1" H 1578 10203 60  0000 L CNN
F 1 "Hole" H 1578 10097 60  0000 L CNN
F 2 "accent-footprint:Hole_M2" H 1300 10150 60  0001 C CNN
F 3 "" H 1300 10150 60  0000 C CNN
	1    1300 10150
	1    0    0    -1  
$EndComp
$Comp
L accent:SW_RESET SWRT1
U 1 1 5C986361
P 1700 6900
F 0 "SWRT1" H 1700 7155 50  0000 C CNN
F 1 "SW_RESET" H 1700 7064 50  0000 C CNN
F 2 "accent-footprint:TACT_SWITCH_TVBP06" H 1700 6900 50  0001 C CNN
F 3 "" H 1700 6900 50  0000 C CNN
	1    1700 6900
	1    0    0    -1  
$EndComp
$Comp
L accent:GND #PWR02
U 1 1 61E26812
P 1400 7600
F 0 "#PWR02" H 1400 7350 50  0001 C CNN
F 1 "GND" V 1405 7472 50  0000 R CNN
F 2 "" H 1400 7600 50  0000 C CNN
F 3 "" H 1400 7600 50  0000 C CNN
	1    1400 7600
	0    1    1    0   
$EndComp
Text GLabel 3500 5100 2    50   Input ~ 0
UART_TX
Text GLabel 3500 6050 2    50   Input ~ 0
UART_RX
Text GLabel 3500 5750 2    50   Input ~ 0
UART_TX
Text GLabel 3500 5400 2    50   Input ~ 0
UART_RX
Wire Wire Line
	3100 5400 2900 5400
Wire Wire Line
	2900 5400 2900 5600
Wire Wire Line
	2900 5750 3100 5750
Wire Wire Line
	2000 5600 2900 5600
Connection ~ 2900 5600
Wire Wire Line
	2750 5100 3100 5100
Wire Wire Line
	2750 6050 3100 6050
Wire Wire Line
	2000 5950 2750 5950
Connection ~ 2750 5950
Wire Wire Line
	2750 5950 2750 6050
Wire Wire Line
	2750 5100 2750 5950
Text GLabel 6000 8100 2    50   Input ~ 0
SDA
Text GLabel 6000 8400 2    50   Input ~ 0
SCL
Text GLabel 6000 7150 2    50   Input ~ 0
SCL
$Comp
L accent:GND #PWR022
U 1 1 5C9D01B9
P 6000 9000
F 0 "#PWR022" H 6000 8750 50  0001 C CNN
F 1 "GND" V 6005 8872 50  0000 R CNN
F 2 "" H 6000 9000 50  0000 C CNN
F 3 "" H 6000 9000 50  0000 C CNN
	1    6000 9000
	0    -1   -1   0   
$EndComp
$Comp
L accent:GND #PWR019
U 1 1 5C9CFF6B
P 6000 6550
F 0 "#PWR019" H 6000 6300 50  0001 C CNN
F 1 "GND" V 6005 6422 50  0000 R CNN
F 2 "" H 6000 6550 50  0000 C CNN
F 3 "" H 6000 6550 50  0000 C CNN
	1    6000 6550
	0    -1   -1   0   
$EndComp
Connection ~ 5100 7950
Wire Wire Line
	5100 9000 5100 7950
Wire Wire Line
	5600 9000 5100 9000
Connection ~ 5200 7850
Wire Wire Line
	5200 8700 5600 8700
Wire Wire Line
	5200 7850 5200 8700
Connection ~ 5300 7750
Wire Wire Line
	5300 8400 5600 8400
Wire Wire Line
	5300 7750 5300 8400
Connection ~ 5400 7650
Wire Wire Line
	5400 8100 5600 8100
Wire Wire Line
	5400 7650 5400 8100
Wire Wire Line
	5100 7450 5100 7950
Wire Wire Line
	5100 7450 5600 7450
Wire Wire Line
	5200 7150 5200 7850
Wire Wire Line
	5600 7150 5200 7150
Wire Wire Line
	5300 6850 5300 7750
Wire Wire Line
	5600 6850 5300 6850
Wire Wire Line
	5400 6550 5400 7650
Wire Wire Line
	5400 6550 5600 6550
Wire Wire Line
	5000 7650 5400 7650
Wire Wire Line
	5000 7750 5300 7750
Wire Wire Line
	5000 7850 5200 7850
Wire Wire Line
	5000 7950 5100 7950
Text GLabel 6000 7450 2    50   Input ~ 0
SDA
Text GLabel 1900 1900 0    50   Input ~ 0
UART_TX
Text GLabel 1900 2000 0    50   Input ~ 0
UART_RX
Text GLabel 3150 1450 1    50   Input ~ 0
USB_D+
Text GLabel 2950 1450 1    50   Input ~ 0
RESET
Text GLabel 3450 1450 1    50   Input ~ 0
BOOT
NoConn ~ 3900 2100
NoConn ~ 3900 2200
NoConn ~ 3900 2300
NoConn ~ 3900 2400
$Comp
L accent:GND #PWR017
U 1 1 623433A8
P 4300 2000
F 0 "#PWR017" H 4300 1750 50  0001 C CNN
F 1 "GND" H 4305 1827 50  0000 C CNN
F 2 "" H 4300 2000 50  0000 C CNN
F 3 "" H 4300 2000 50  0000 C CNN
	1    4300 2000
	0    -1   -1   0   
$EndComp
Wire Wire Line
	3900 1900 4100 1900
Wire Wire Line
	4100 1900 4100 2000
Wire Wire Line
	3900 2000 4100 2000
Connection ~ 4100 2000
Wire Wire Line
	4100 2000 4300 2000
$Comp
L accent:GND #PWR014
U 1 1 6246C807
P 3350 3850
F 0 "#PWR014" H 3350 3600 50  0001 C CNN
F 1 "GND" H 3355 3677 50  0000 C CNN
F 2 "" H 3350 3850 50  0000 C CNN
F 3 "" H 3350 3850 50  0000 C CNN
	1    3350 3850
	1    0    0    -1  
$EndComp
Wire Wire Line
	3450 3450 3450 3650
Wire Wire Line
	3350 3450 3350 3650
Connection ~ 3350 3650
Wire Wire Line
	3350 3650 3350 3850
$Comp
L accent:GND #PWR04
U 1 1 6248941F
P 1500 2900
F 0 "#PWR04" H 1500 2650 50  0001 C CNN
F 1 "GND" H 1505 2727 50  0000 C CNN
F 2 "" H 1500 2900 50  0000 C CNN
F 3 "" H 1500 2900 50  0000 C CNN
	1    1500 2900
	0    1    1    0   
$EndComp
Wire Wire Line
	1900 3000 1700 3000
Wire Wire Line
	1700 3000 1700 2900
Wire Wire Line
	1900 2900 1700 2900
Connection ~ 1700 2900
Wire Wire Line
	1700 2900 1500 2900
$Comp
L accent:GND #PWR07
U 1 1 624A6E81
P 2350 1050
F 0 "#PWR07" H 2350 800 50  0001 C CNN
F 1 "GND" H 2355 877 50  0000 C CNN
F 2 "" H 2350 1050 50  0000 C CNN
F 3 "" H 2350 1050 50  0000 C CNN
	1    2350 1050
	-1   0    0    1   
$EndComp
Wire Wire Line
	2350 1250 2450 1250
Wire Wire Line
	2350 1250 2350 1050
Connection ~ 2350 1250
NoConn ~ 2750 1450
NoConn ~ 2850 1450
Text GLabel 3150 3450 3    50   Input ~ 0
row0
Text GLabel 2950 3450 3    50   Input ~ 0
row1
Text GLabel 2750 3450 3    50   Input ~ 0
row2
Text GLabel 2550 3450 3    50   Input ~ 0
row3
Text GLabel 1900 2100 0    50   Input ~ 0
col0
Text GLabel 1900 2200 0    50   Input ~ 0
col1
Text GLabel 1900 2300 0    50   Input ~ 0
col2
Text GLabel 1900 2400 0    50   Input ~ 0
col3
Text GLabel 1900 2600 0    50   Input ~ 0
col4
Text GLabel 1900 2800 0    50   Input ~ 0
col5
Wire Wire Line
	3450 3650 3350 3650
Wire Wire Line
	2900 5600 2900 5750
NoConn ~ 3900 3000
NoConn ~ 3900 2900
Text GLabel 2000 7600 2    50   Input ~ 0
BOOT
Text GLabel 3050 1450 1    50   Input ~ 0
SWCLK
Text GLabel 3250 1450 1    50   Input ~ 0
SWDIO
Text GLabel 3350 1450 1    50   Input ~ 0
USB_D-
$Comp
L accent:3V3 #PWR09
U 1 1 62F10532
P 2650 1450
F 0 "#PWR09" H 2650 1300 50  0001 C CNN
F 1 "3V3" H 2667 1623 50  0000 C CNN
F 2 "" H 2650 1450 50  0000 C CNN
F 3 "" H 2650 1450 50  0000 C CNN
	1    2650 1450
	1    0    0    -1  
$EndComp
$Comp
L accent:3V3 #PWR010
U 1 1 62F11C66
P 2900 6500
F 0 "#PWR010" H 2900 6350 50  0001 C CNN
F 1 "3V3" H 2917 6673 50  0000 C CNN
F 2 "" H 2900 6500 50  0000 C CNN
F 3 "" H 2900 6500 50  0000 C CNN
	1    2900 6500
	0    -1   -1   0   
$EndComp
Wire Wire Line
	3700 6500 3700 6550
Wire Wire Line
	3350 6500 3350 6550
Text GLabel 3100 6850 0    50   Input ~ 0
LED_3V3
Text GLabel 4300 6850 2    50   Input ~ 0
LED
Wire Wire Line
	3900 6850 4000 6850
Wire Wire Line
	3350 6850 3500 6850
Connection ~ 3350 6500
Wire Wire Line
	3350 6500 3700 6500
Wire Wire Line
	2900 6500 3350 6500
Wire Wire Line
	3100 6850 3350 6850
Connection ~ 3350 6850
Wire Wire Line
	4000 6850 4300 6850
Connection ~ 4000 6850
Wire Wire Line
	4000 6550 4000 6500
Wire Wire Line
	4000 6500 4300 6500
Text GLabel 2350 3450 3    50   Input ~ 0
SCL
Text GLabel 2450 3450 3    50   Input ~ 0
SDA
$Comp
L accent:SW_RESET SWRT2
U 1 1 61E26818
P 1700 7600
F 0 "SWRT2" H 1700 7855 50  0000 C CNN
F 1 "SW_RESET" H 1700 7764 50  0000 C CNN
F 2 "accent-footprint:TACT_SWITCH_TVBP06" H 1700 7600 50  0001 C CNN
F 3 "" H 1700 7600 50  0000 C CNN
	1    1700 7600
	1    0    0    -1  
$EndComp
$Comp
L accent:MJ-4PP-9 J1
U 1 1 5C993675
P 1550 5750
F 0 "J1" H 1556 6147 60  0000 C CNN
F 1 "MJ-4PP-9" H 1556 6041 60  0000 C CNN
F 2 "accent-footprint:MJ-4PP-9" H 1550 5750 60  0001 C CNN
F 3 "" H 1550 5750 60  0000 C CNN
	1    1550 5750
	1    0    0    -1  
$EndComp
$Comp
L accent:OLED J4
U 1 1 5C9929F9
P 4800 7800
F 0 "J4" H 4719 7425 50  0000 C CNN
F 1 "OLED" H 4719 7516 50  0000 C CNN
F 2 "accent-footprint:OLED" H 4800 7800 50  0001 C CNN
F 3 "" H 4800 7800 50  0000 C CNN
	1    4800 7800
	-1   0    0    1   
$EndComp
$Comp
L accent:GND #PWR016
U 1 1 5C98A68B
P 3350 7850
F 0 "#PWR016" H 3350 7600 50  0001 C CNN
F 1 "GND" H 3355 7677 50  0000 C CNN
F 2 "" H 3350 7850 50  0000 C CNN
F 3 "" H 3350 7850 50  0000 C CNN
	1    3350 7850
	1    0    0    -1  
$EndComp
Text GLabel 3350 7750 2    50   Input ~ 0
LED
$Comp
L accent:GND #PWR011
U 1 1 5CE0D0F2
P 2900 7650
F 0 "#PWR011" H 2900 7400 50  0001 C CNN
F 1 "GND" H 2905 7477 50  0000 C CNN
F 2 "" H 2900 7650 50  0000 C CNN
F 3 "" H 2900 7650 50  0000 C CNN
	1    2900 7650
	-1   0    0    1   
$EndComp
Text GLabel 2950 8650 0    50   Input ~ 0
SWCLK
Text GLabel 2950 8450 0    50   Input ~ 0
SWDIO
$Comp
L accent:GND #PWR013
U 1 1 62E1B239
P 2950 8550
F 0 "#PWR013" H 2950 8300 50  0001 C CNN
F 1 "GND" H 2955 8377 50  0000 C CNN
F 2 "" H 2950 8550 50  0000 C CNN
F 3 "" H 2950 8550 50  0000 C CNN
	1    2950 8550
	0    1    1    0   
$EndComp
$Comp
L accent:Jumper_oled JP1
U 1 1 61E84281
P 3300 5100
F 0 "JP1" V 3489 5100 50  0000 C CNN
F 1 "Jumper_TRRS" V 3405 5100 40  0000 C CNN
F 2 "accent-footprint:Jumper_oled" H 3300 5100 60  0001 C CNN
F 3 "" H 3300 5100 60  0000 C CNN
	1    3300 5100
	0    -1   -1   0   
$EndComp
$Comp
L accent:Jumper_oled JP2
U 1 1 61EF397D
P 3300 5400
F 0 "JP2" V 3489 5400 50  0000 C CNN
F 1 "Jumper_TRRS" V 3405 5400 40  0000 C CNN
F 2 "accent-footprint:Jumper_oled" H 3300 5400 60  0001 C CNN
F 3 "" H 3300 5400 60  0000 C CNN
	1    3300 5400
	0    -1   -1   0   
$EndComp
$Comp
L accent:Jumper_oled JP3
U 1 1 61EAA405
P 3300 5750
F 0 "JP3" V 3489 5750 50  0000 C CNN
F 1 "Jumper_TRRS" V 3405 5750 40  0000 C CNN
F 2 "accent-footprint:Jumper_oled" H 3300 5750 60  0001 C CNN
F 3 "" H 3300 5750 60  0000 C CNN
	1    3300 5750
	0    -1   -1   0   
$EndComp
$Comp
L accent:Jumper_oled JP4
U 1 1 61EAA3FF
P 3300 6050
F 0 "JP4" V 3489 6050 50  0000 C CNN
F 1 "Jumper_TRRS" V 3405 6050 40  0000 C CNN
F 2 "accent-footprint:Jumper_oled" H 3300 6050 60  0001 C CNN
F 3 "" H 3300 6050 60  0000 C CNN
	1    3300 6050
	0    -1   -1   0   
$EndComp
$Comp
L accent:Jumper_oled JP5
U 1 1 5C9A5859
P 5800 6550
F 0 "JP5" V 5989 6550 50  0000 C CNN
F 1 "Jumper_oled" V 5905 6550 40  0000 C CNN
F 2 "accent-footprint:Jumper_oled" H 5800 6550 60  0001 C CNN
F 3 "" H 5800 6550 60  0000 C CNN
	1    5800 6550
	0    -1   -1   0   
$EndComp
$Comp
L accent:Jumper_oled JP6
U 1 1 5C9A73EE
P 5800 6850
F 0 "JP6" V 5989 6850 50  0000 C CNN
F 1 "Jumper_oled" V 5905 6850 40  0000 C CNN
F 2 "accent-footprint:Jumper_oled" H 5800 6850 60  0001 C CNN
F 3 "" H 5800 6850 60  0000 C CNN
	1    5800 6850
	0    -1   -1   0   
$EndComp
$Comp
L accent:Jumper_oled JP7
U 1 1 5C9A8E88
P 5800 7150
F 0 "JP7" V 5989 7150 50  0000 C CNN
F 1 "Jumper_oled" V 5905 7150 40  0000 C CNN
F 2 "accent-footprint:Jumper_oled" H 5800 7150 60  0001 C CNN
F 3 "" H 5800 7150 60  0000 C CNN
	1    5800 7150
	0    -1   -1   0   
$EndComp
$Comp
L accent:Jumper_oled JP8
U 1 1 620C787E
P 5800 7450
F 0 "JP8" V 5989 7450 50  0000 C CNN
F 1 "Jumper_oled" V 5905 7450 40  0000 C CNN
F 2 "accent-footprint:Jumper_oled" H 5800 7450 60  0001 C CNN
F 3 "" H 5800 7450 60  0000 C CNN
	1    5800 7450
	0    -1   -1   0   
$EndComp
$Comp
L accent:Jumper_oled JP9
U 1 1 5C9C5C9E
P 5800 8100
F 0 "JP9" V 5989 8100 50  0000 C CNN
F 1 "Jumper_oled" V 5905 8100 40  0000 C CNN
F 2 "accent-footprint:Jumper_oled" H 5800 8100 60  0001 C CNN
F 3 "" H 5800 8100 60  0000 C CNN
	1    5800 8100
	0    -1   -1   0   
$EndComp
$Comp
L accent:Jumper_oled JP10
U 1 1 5C9C5CA4
P 5800 8400
F 0 "JP10" V 5989 8400 50  0000 C CNN
F 1 "Jumper_oled" V 5905 8400 40  0000 C CNN
F 2 "accent-footprint:Jumper_oled" H 5800 8400 60  0001 C CNN
F 3 "" H 5800 8400 60  0000 C CNN
	1    5800 8400
	0    -1   -1   0   
$EndComp
$Comp
L accent:Jumper_oled JP11
U 1 1 5C9C5CAA
P 5800 8700
F 0 "JP11" V 5989 8700 50  0000 C CNN
F 1 "Jumper_oled" V 5905 8700 40  0000 C CNN
F 2 "accent-footprint:Jumper_oled" H 5800 8700 60  0001 C CNN
F 3 "" H 5800 8700 60  0000 C CNN
	1    5800 8700
	0    -1   -1   0   
$EndComp
$Comp
L accent:Jumper_oled JP12
U 1 1 5C9C5CB0
P 5800 9000
F 0 "JP12" V 5989 9000 50  0000 C CNN
F 1 "Jumper_oled" V 5905 9000 40  0000 C CNN
F 2 "accent-footprint:Jumper_oled" H 5800 9000 60  0001 C CNN
F 3 "" H 5800 9000 60  0000 C CNN
	1    5800 9000
	0    -1   -1   0   
$EndComp
$Comp
L Connector_Generic:Conn_01x03 J3
U 1 1 62BC0AC3
P 3150 8550
F 0 "J3" H 3230 8592 50  0000 L CNN
F 1 "Debug" H 3230 8501 50  0000 L CNN
F 2 "accent-footprint:PicoDebug" H 3150 8550 50  0001 C CNN
F 3 "~" H 3150 8550 50  0001 C CNN
	1    3150 8550
	1    0    0    -1  
$EndComp
$Comp
L Transistor_FET:BSS138 Q1
U 1 1 62E958ED
P 3700 6750
F 0 "Q1" V 3949 6750 50  0000 C CNN
F 1 "BSS138" V 4040 6750 50  0000 C CNN
F 2 "accent-footprint:BSS138" H 3900 6675 50  0001 L CIN
F 3 "https://www.onsemi.com/pub/Collateral/BSS138-D.PDF" H 3700 6750 50  0001 L CNN
	1    3700 6750
	0    1    1    0   
$EndComp
$Comp
L Device:R R1
U 1 1 62F4EC07
P 3350 6700
F 0 "R1" H 3420 6746 50  0000 L CNN
F 1 "10K" H 3420 6655 50  0000 L CNN
F 2 "accent-footprint:R_0603_1608" V 3280 6700 50  0001 C CNN
F 3 "~" H 3350 6700 50  0001 C CNN
	1    3350 6700
	1    0    0    -1  
$EndComp
$Comp
L Device:R R2
U 1 1 62F4FCC1
P 4000 6700
F 0 "R2" H 4070 6746 50  0000 L CNN
F 1 "10K" H 4070 6655 50  0000 L CNN
F 2 "accent-footprint:R_0603_1608" V 3930 6700 50  0001 C CNN
F 3 "~" H 4000 6700 50  0001 C CNN
	1    4000 6700
	1    0    0    -1  
$EndComp
$Comp
L accent:VBUS #PWR018
U 1 1 63E2317C
P 4300 6500
F 0 "#PWR018" H 4300 6350 50  0001 C CNN
F 1 "VBUS" H 4317 6673 50  0000 C CNN
F 2 "" H 4300 6500 50  0000 C CNN
F 3 "" H 4300 6500 50  0000 C CNN
	1    4300 6500
	1    0    0    -1  
$EndComp
$Comp
L accent:VBUS #PWR08
U 1 1 63E6C686
P 2550 1450
F 0 "#PWR08" H 2550 1300 50  0001 C CNN
F 1 "VBUS" H 2567 1623 50  0000 C CNN
F 2 "" H 2550 1450 50  0000 C CNN
F 3 "" H 2550 1450 50  0000 C CNN
	1    2550 1450
	1    0    0    -1  
$EndComp
Wire Wire Line
	2200 5750 2200 5400
$Comp
L accent:VBUS #PWR0102
U 1 1 650F140F
P 2200 5400
F 0 "#PWR0102" H 2200 5250 50  0001 C CNN
F 1 "VBUS" V 2217 5528 50  0000 L CNN
F 2 "" H 2200 5400 50  0000 C CNN
F 3 "" H 2200 5400 50  0000 C CNN
	1    2200 5400
	1    0    0    -1  
$EndComp
$Comp
L accent:SW_PUSH SW2
U 1 1 5C9821C0
P 11450 1550
F 0 "SW2" H 11450 1895 50  0000 C CNN
F 1 "SW_PUSH" H 11450 1804 50  0000 C CNN
F 2 "accent-footprint:CherryMX_With_Socket" H 11450 1713 20  0000 C CNN
F 3 "" H 11450 1550 50  0000 C CNN
	1    11450 1550
	1    0    0    -1  
$EndComp
$Comp
L accent:SW_PUSH SW3
U 1 1 5C98228F
P 12250 1550
F 0 "SW3" H 12250 1895 50  0000 C CNN
F 1 "SW_PUSH" H 12250 1804 50  0000 C CNN
F 2 "accent-footprint:CherryMX_With_Socket" H 12250 1713 20  0000 C CNN
F 3 "" H 12250 1550 50  0000 C CNN
	1    12250 1550
	1    0    0    -1  
$EndComp
$Comp
L accent:SW_PUSH SW4
U 1 1 5C9822D8
P 13050 1550
F 0 "SW4" H 13050 1895 50  0000 C CNN
F 1 "SW_PUSH" H 13050 1804 50  0000 C CNN
F 2 "accent-footprint:CherryMX_With_Socket" H 13050 1713 20  0000 C CNN
F 3 "" H 13050 1550 50  0000 C CNN
	1    13050 1550
	1    0    0    -1  
$EndComp
$Comp
L accent:SW_PUSH SW5
U 1 1 5C9826DE
P 13850 1550
F 0 "SW5" H 13850 1895 50  0000 C CNN
F 1 "SW_PUSH" H 13850 1804 50  0000 C CNN
F 2 "accent-footprint:CherryMX_With_Socket" H 13850 1713 20  0000 C CNN
F 3 "" H 13850 1550 50  0000 C CNN
	1    13850 1550
	1    0    0    -1  
$EndComp
$Comp
L accent:SW_PUSH SW6
U 1 1 5C982849
P 14650 1550
F 0 "SW6" H 14650 1895 50  0000 C CNN
F 1 "SW_PUSH" H 14650 1804 50  0000 C CNN
F 2 "accent-footprint:CherryMX_With_Socket" H 14650 1713 20  0000 C CNN
F 3 "" H 14650 1550 50  0000 C CNN
	1    14650 1550
	1    0    0    -1  
$EndComp
$Comp
L accent:SW_PUSH SW7
U 1 1 5C982B16
P 10650 2350
F 0 "SW7" H 10650 2695 50  0000 C CNN
F 1 "SW_PUSH" H 10650 2604 50  0000 C CNN
F 2 "accent-footprint:CherryMX_With_Socket" H 10650 2513 20  0000 C CNN
F 3 "" H 10650 2350 50  0000 C CNN
	1    10650 2350
	1    0    0    -1  
$EndComp
$Comp
L accent:SW_PUSH SW8
U 1 1 5C982B23
P 11450 2350
F 0 "SW8" H 11450 2695 50  0000 C CNN
F 1 "SW_PUSH" H 11450 2604 50  0000 C CNN
F 2 "accent-footprint:CherryMX_With_Socket" H 11450 2513 20  0000 C CNN
F 3 "" H 11450 2350 50  0000 C CNN
	1    11450 2350
	1    0    0    -1  
$EndComp
$Comp
L accent:SW_PUSH SW9
U 1 1 5C982B30
P 12250 2350
F 0 "SW9" H 12250 2695 50  0000 C CNN
F 1 "SW_PUSH" H 12250 2604 50  0000 C CNN
F 2 "accent-footprint:CherryMX_With_Socket" H 12250 2513 20  0000 C CNN
F 3 "" H 12250 2350 50  0000 C CNN
	1    12250 2350
	1    0    0    -1  
$EndComp
$Comp
L accent:SW_PUSH SW10
U 1 1 5C982B3D
P 13050 2350
F 0 "SW10" H 13050 2695 50  0000 C CNN
F 1 "SW_PUSH" H 13050 2604 50  0000 C CNN
F 2 "accent-footprint:CherryMX_With_Socket" H 13050 2513 20  0000 C CNN
F 3 "" H 13050 2350 50  0000 C CNN
	1    13050 2350
	1    0    0    -1  
$EndComp
$Comp
L accent:SW_PUSH SW11
U 1 1 5C982B4A
P 13850 2350
F 0 "SW11" H 13850 2695 50  0000 C CNN
F 1 "SW_PUSH" H 13850 2604 50  0000 C CNN
F 2 "accent-footprint:CherryMX_With_Socket" H 13850 2513 20  0000 C CNN
F 3 "" H 13850 2350 50  0000 C CNN
	1    13850 2350
	1    0    0    -1  
$EndComp
$Comp
L accent:SW_PUSH SW12
U 1 1 5C982B57
P 14650 2350
F 0 "SW12" H 14650 2695 50  0000 C CNN
F 1 "SW_PUSH" H 14650 2604 50  0000 C CNN
F 2 "accent-footprint:CherryMX_With_Socket" H 14650 2513 20  0000 C CNN
F 3 "" H 14650 2350 50  0000 C CNN
	1    14650 2350
	1    0    0    -1  
$EndComp
$Comp
L accent:SW_PUSH SW13
U 1 1 5C982EBD
P 10650 3150
F 0 "SW13" H 10650 3495 50  0000 C CNN
F 1 "SW_PUSH" H 10650 3404 50  0000 C CNN
F 2 "accent-footprint:CherryMX_With_Socket" H 10650 3313 20  0000 C CNN
F 3 "" H 10650 3150 50  0000 C CNN
	1    10650 3150
	1    0    0    -1  
$EndComp
$Comp
L accent:SW_PUSH SW14
U 1 1 5C982ECA
P 11450 3150
F 0 "SW14" H 11450 3495 50  0000 C CNN
F 1 "SW_PUSH" H 11450 3404 50  0000 C CNN
F 2 "accent-footprint:CherryMX_With_Socket" H 11450 3313 20  0000 C CNN
F 3 "" H 11450 3150 50  0000 C CNN
	1    11450 3150
	1    0    0    -1  
$EndComp
$Comp
L accent:SW_PUSH SW15
U 1 1 5C982ED7
P 12250 3150
F 0 "SW15" H 12250 3495 50  0000 C CNN
F 1 "SW_PUSH" H 12250 3404 50  0000 C CNN
F 2 "accent-footprint:CherryMX_With_Socket" H 12250 3313 20  0000 C CNN
F 3 "" H 12250 3150 50  0000 C CNN
	1    12250 3150
	1    0    0    -1  
$EndComp
$Comp
L accent:SW_PUSH SW16
U 1 1 5C982EE4
P 13050 3150
F 0 "SW16" H 13050 3495 50  0000 C CNN
F 1 "SW_PUSH" H 13050 3404 50  0000 C CNN
F 2 "accent-footprint:CherryMX_With_Socket" H 13050 3313 20  0000 C CNN
F 3 "" H 13050 3150 50  0000 C CNN
	1    13050 3150
	1    0    0    -1  
$EndComp
$Comp
L accent:SW_PUSH SW18
U 1 1 5C982EFE
P 14650 3150
F 0 "SW18" H 14650 3495 50  0000 C CNN
F 1 "SW_PUSH" H 14650 3404 50  0000 C CNN
F 2 "accent-footprint:CherryMX_With_Socket" H 14650 3313 20  0000 C CNN
F 3 "" H 14650 3150 50  0000 C CNN
	1    14650 3150
	1    0    0    -1  
$EndComp
$Comp
L accent:SW_PUSH SW19
U 1 1 5C983362
P 12250 3950
F 0 "SW19" H 12250 4295 50  0000 C CNN
F 1 "SW_PUSH" H 12250 4204 50  0000 C CNN
F 2 "accent-footprint:CherryMX_With_Socket" H 12250 4113 20  0000 C CNN
F 3 "" H 12250 3950 50  0000 C CNN
	1    12250 3950
	1    0    0    -1  
$EndComp
$Comp
L accent:SW_PUSH SW20
U 1 1 5C98336F
P 13050 3950
F 0 "SW20" H 13050 4295 50  0000 C CNN
F 1 "SW_PUSH" H 13050 4204 50  0000 C CNN
F 2 "accent-footprint:CherryMX_With_Socket" H 13050 4113 20  0000 C CNN
F 3 "" H 13050 3950 50  0000 C CNN
	1    13050 3950
	1    0    0    -1  
$EndComp
$Comp
L accent:SW_PUSH SW21
U 1 1 5C98337C
P 13850 3950
F 0 "SW21" H 13850 4295 50  0000 C CNN
F 1 "SW_PUSH" H 13850 4204 50  0000 C CNN
F 2 "accent-footprint:CherryMX_With_Socket" H 13850 4113 20  0000 C CNN
F 3 "" H 13850 3950 50  0000 C CNN
	1    13850 3950
	1    0    0    -1  
$EndComp
Wire Wire Line
	11150 8900 11300 8900
Wire Wire Line
	11850 8900 12000 8900
Wire Wire Line
	12550 8900 12700 8900
Wire Wire Line
	13250 8900 13400 8900
Wire Wire Line
	13950 8900 14100 8900
$Comp
L accent:SK6812MINI-E-Underglow L28
U 1 1 61F76E9F
P 14450 9000
F 0 "L28" H 14450 9262 51  0000 C CNN
F 1 "SK6812MINI-E-Underglow" H 14450 9197 16  0000 C CNN
F 2 "accent-footprint:SK6812MINI-E-Underglow-With_Cuts" H 14450 9000 60  0001 C CNN
F 3 "" H 14450 9000 60  0001 C CNN
	1    14450 9000
	1    0    0    -1  
$EndComp
$Comp
L accent:SK6812MINI-E-Underglow L27
U 1 1 61F76E99
P 13750 9000
F 0 "L27" H 13750 9262 51  0000 C CNN
F 1 "SK6812MINI-E-Underglow" H 13750 9197 16  0000 C CNN
F 2 "accent-footprint:SK6812MINI-E-Underglow-With_Cuts" H 13750 9000 60  0001 C CNN
F 3 "" H 13750 9000 60  0001 C CNN
	1    13750 9000
	1    0    0    -1  
$EndComp
$Comp
L accent:SK6812MINI-E-Underglow L26
U 1 1 61F76E93
P 13050 9000
F 0 "L26" H 13050 9262 51  0000 C CNN
F 1 "SK6812MINI-E-Underglow" H 13050 9197 16  0000 C CNN
F 2 "accent-footprint:SK6812MINI-E-Underglow-With_Cuts" H 13050 9000 60  0001 C CNN
F 3 "" H 13050 9000 60  0001 C CNN
	1    13050 9000
	1    0    0    -1  
$EndComp
Wire Wire Line
	14100 9100 14250 9100
Wire Wire Line
	14100 8900 14100 9100
Wire Wire Line
	13400 9100 13550 9100
Wire Wire Line
	13400 8900 13400 9100
Wire Wire Line
	12700 8900 12700 9100
Wire Wire Line
	12000 9100 12150 9100
Wire Wire Line
	12000 8900 12000 9100
Wire Wire Line
	11300 9100 11450 9100
Wire Wire Line
	11300 8900 11300 9100
$Comp
L accent:SK6812MINI-E-Underglow L23
U 1 1 61F730B4
P 10950 9000
F 0 "L23" H 10950 9262 51  0000 C CNN
F 1 "SK6812MINI-E-Underglow" H 10950 9197 16  0000 C CNN
F 2 "accent-footprint:SK6812MINI-E-Underglow-With_Cuts" H 10950 9000 60  0001 C CNN
F 3 "" H 10950 9000 60  0001 C CNN
	1    10950 9000
	1    0    0    -1  
$EndComp
$Comp
L accent:SK6812MINI-E-Underglow L25
U 1 1 61F75870
P 12350 9000
F 0 "L25" H 12350 9262 51  0000 C CNN
F 1 "SK6812MINI-E-Underglow" H 12350 9197 16  0000 C CNN
F 2 "accent-footprint:SK6812MINI-E-Underglow-With_Cuts" H 12350 9000 60  0001 C CNN
F 3 "" H 12350 9000 60  0001 C CNN
	1    12350 9000
	1    0    0    -1  
$EndComp
$Comp
L accent:SK6812MINI-E-Underglow L24
U 1 1 61F74981
P 11650 9000
F 0 "L24" H 11650 9262 51  0000 C CNN
F 1 "SK6812MINI-E-Underglow" H 11650 9197 16  0000 C CNN
F 2 "accent-footprint:SK6812MINI-E-Underglow-With_Cuts" H 11650 9000 60  0001 C CNN
F 3 "" H 11650 9000 60  0001 C CNN
	1    11650 9000
	1    0    0    -1  
$EndComp
Wire Wire Line
	12700 9100 12850 9100
Text GLabel 15000 5050 2    50   Input ~ 0
LED
$Comp
L accent:SK6812MINI-E L14
U 1 1 6269A56A
P 11650 7000
F 0 "L14" H 11650 7262 51  0000 C CNN
F 1 "SK6812MINI-E" H 11650 7197 16  0000 C CNN
F 2 "accent-footprint:SK6812MINI-E-With_Cuts" H 11650 7000 60  0001 C CNN
F 3 "" H 11650 7000 60  0001 C CNN
	1    11650 7000
	1    0    0    -1  
$EndComp
$Comp
L accent:SK6812MINI-E L16
U 1 1 6269A562
P 13050 7000
F 0 "L16" H 13050 7262 51  0000 C CNN
F 1 "SK6812MINI-E" H 13050 7197 16  0000 C CNN
F 2 "accent-footprint:SK6812MINI-E-With_Cuts" H 13050 7000 60  0001 C CNN
F 3 "" H 13050 7000 60  0001 C CNN
	1    13050 7000
	1    0    0    -1  
$EndComp
$Comp
L accent:SK6812MINI-E L17
U 1 1 6269A55C
P 13750 7000
F 0 "L17" H 13750 7262 51  0000 C CNN
F 1 "SK6812MINI-E" H 13750 7197 16  0000 C CNN
F 2 "accent-footprint:SK6812MINI-E-With_Cuts" H 13750 7000 60  0001 C CNN
F 3 "" H 13750 7000 60  0001 C CNN
	1    13750 7000
	1    0    0    -1  
$EndComp
$Comp
L accent:SK6812MINI-E L18
U 1 1 6269A54D
P 14450 7000
F 0 "L18" H 14450 7262 51  0000 C CNN
F 1 "SK6812MINI-E" H 14450 7197 16  0000 C CNN
F 2 "accent-footprint:SK6812MINI-E-With_Cuts" H 14450 7000 60  0001 C CNN
F 3 "" H 14450 7000 60  0001 C CNN
	1    14450 7000
	1    0    0    -1  
$EndComp
$Comp
L accent:SK6812MINI-E L13
U 1 1 6269A545
P 10950 7000
F 0 "L13" H 10950 7262 51  0000 C CNN
F 1 "SK6812MINI-E" H 10950 7197 16  0000 C CNN
F 2 "accent-footprint:SK6812MINI-E-With_Cuts" H 10950 7000 60  0001 C CNN
F 3 "" H 10950 7000 60  0001 C CNN
	1    10950 7000
	1    0    0    -1  
$EndComp
$Comp
L accent:SK6812MINI-E L2
U 1 1 624DA48C
P 11650 5150
F 0 "L2" H 11650 5412 51  0000 C CNN
F 1 "SK6812MINI-E" H 11650 5347 16  0000 C CNN
F 2 "accent-footprint:SK6812MINI-E-With_Cuts" H 11650 5150 60  0001 C CNN
F 3 "" H 11650 5150 60  0001 C CNN
	1    11650 5150
	1    0    0    -1  
$EndComp
$Comp
L accent:SK6812MINI-E L4
U 1 1 6256B20F
P 13050 5150
F 0 "L4" H 13050 5412 51  0000 C CNN
F 1 "SK6812MINI-E" H 13050 5347 16  0000 C CNN
F 2 "accent-footprint:SK6812MINI-E-With_Cuts" H 13050 5150 60  0001 C CNN
F 3 "" H 13050 5150 60  0001 C CNN
	1    13050 5150
	1    0    0    -1  
$EndComp
$Comp
L accent:SK6812MINI-E L5
U 1 1 6256D947
P 13750 5150
F 0 "L5" H 13750 5412 51  0000 C CNN
F 1 "SK6812MINI-E" H 13750 5347 16  0000 C CNN
F 2 "accent-footprint:SK6812MINI-E-With_Cuts" H 13750 5150 60  0001 C CNN
F 3 "" H 13750 5150 60  0001 C CNN
	1    13750 5150
	1    0    0    -1  
$EndComp
$Comp
L accent:SK6812MINI-E L6
U 1 1 62570234
P 14450 5150
F 0 "L6" H 14450 5412 51  0000 C CNN
F 1 "SK6812MINI-E" H 14450 5347 16  0000 C CNN
F 2 "accent-footprint:SK6812MINI-E-With_Cuts" H 14450 5150 60  0001 C CNN
F 3 "" H 14450 5150 60  0001 C CNN
	1    14450 5150
	1    0    0    -1  
$EndComp
$Comp
L accent:SK6812MINI-E L8
U 1 1 625E9BB5
P 11650 6100
F 0 "L8" H 11650 5838 51  0000 C CNN
F 1 "SK6812MINI-E" H 11650 5903 16  0000 C CNN
F 2 "accent-footprint:SK6812MINI-E-With_Cuts" H 11650 6100 60  0001 C CNN
F 3 "" H 11650 6100 60  0001 C CNN
	1    11650 6100
	-1   0    0    1   
$EndComp
$Comp
L accent:SK6812MINI-E L11
U 1 1 625E9BA8
P 13750 6100
F 0 "L11" H 13750 5838 51  0000 C CNN
F 1 "SK6812MINI-E" H 13750 5903 16  0000 C CNN
F 2 "accent-footprint:SK6812MINI-E-With_Cuts" H 13750 6100 60  0001 C CNN
F 3 "" H 13750 6100 60  0001 C CNN
	1    13750 6100
	-1   0    0    1   
$EndComp
$Comp
L accent:SK6812MINI-E L10
U 1 1 625E9BA2
P 13050 6100
F 0 "L10" H 13050 5838 51  0000 C CNN
F 1 "SK6812MINI-E" H 13050 5903 16  0000 C CNN
F 2 "accent-footprint:SK6812MINI-E-With_Cuts" H 13050 6100 60  0001 C CNN
F 3 "" H 13050 6100 60  0001 C CNN
	1    13050 6100
	-1   0    0    1   
$EndComp
$Comp
L accent:SK6812MINI-E L12
U 1 1 625E9B9C
P 14450 6100
F 0 "L12" H 14450 5838 51  0000 C CNN
F 1 "SK6812MINI-E" H 14450 5903 16  0000 C CNN
F 2 "accent-footprint:SK6812MINI-E-With_Cuts" H 14450 6100 60  0001 C CNN
F 3 "" H 14450 6100 60  0001 C CNN
	1    14450 6100
	-1   0    0    1   
$EndComp
$Comp
L accent:SK6812MINI-E L1
U 1 1 6240BB00
P 10950 5150
F 0 "L1" H 10950 5412 51  0000 C CNN
F 1 "SK6812MINI-E" H 10950 5347 16  0000 C CNN
F 2 "accent-footprint:SK6812MINI-E-With_Cuts" H 10950 5150 60  0001 C CNN
F 3 "" H 10950 5150 60  0001 C CNN
	1    10950 5150
	1    0    0    -1  
$EndComp
$Comp
L accent:SK6812MINI-E L21
U 1 1 62D17C45
P 13750 7950
F 0 "L21" H 13750 7688 51  0000 C CNN
F 1 "SK6812MINI-E" H 13750 7753 16  0000 C CNN
F 2 "accent-footprint:SK6812MINI-E-With_Cuts" H 13750 7950 60  0001 C CNN
F 3 "" H 13750 7950 60  0001 C CNN
	1    13750 7950
	-1   0    0    1   
$EndComp
$Comp
L accent:SK6812MINI-E L22
U 1 1 6274E55B
P 14450 7950
F 0 "L22" H 14450 7688 51  0000 C CNN
F 1 "SK6812MINI-E" H 14450 7753 16  0000 C CNN
F 2 "accent-footprint:SK6812MINI-E-With_Cuts" H 14450 7950 60  0001 C CNN
F 3 "" H 14450 7950 60  0001 C CNN
	1    14450 7950
	-1   0    0    1   
$EndComp
$Comp
L accent:SK6812MINI-E L20
U 1 1 6274E567
P 13050 7950
F 0 "L20" H 13050 7688 51  0000 C CNN
F 1 "SK6812MINI-E" H 13050 7753 16  0000 C CNN
F 2 "accent-footprint:SK6812MINI-E-With_Cuts" H 13050 7950 60  0001 C CNN
F 3 "" H 13050 7950 60  0001 C CNN
	1    13050 7950
	-1   0    0    1   
$EndComp
Wire Wire Line
	13950 8050 14000 8050
Wire Wire Line
	13250 6200 13300 6200
Wire Wire Line
	13250 8050 13300 8050
$Comp
L accent:SK6812MINI-E L19
U 1 1 6274E570
P 12350 7950
F 0 "L19" H 12350 7688 51  0000 C CNN
F 1 "SK6812MINI-E" H 12350 7753 16  0000 C CNN
F 2 "accent-footprint:SK6812MINI-E-With_Cuts" H 12350 7950 60  0001 C CNN
F 3 "" H 12350 7950 60  0001 C CNN
	1    12350 7950
	-1   0    0    1   
$EndComp
$Comp
L accent:SK6812MINI-E L3
U 1 1 62DD97F1
P 12350 5150
F 0 "L3" H 12350 5412 51  0000 C CNN
F 1 "SK6812MINI-E" H 12350 5347 16  0000 C CNN
F 2 "accent-footprint:SK6812MINI-E-With_Cuts" H 12350 5150 60  0001 C CNN
F 3 "" H 12350 5150 60  0001 C CNN
	1    12350 5150
	1    0    0    -1  
$EndComp
$Comp
L accent:SK6812MINI-E L9
U 1 1 625E9BAF
P 12350 6100
F 0 "L9" H 12350 5838 51  0000 C CNN
F 1 "SK6812MINI-E" H 12350 5903 16  0000 C CNN
F 2 "accent-footprint:SK6812MINI-E-With_Cuts" H 12350 6100 60  0001 C CNN
F 3 "" H 12350 6100 60  0001 C CNN
	1    12350 6100
	-1   0    0    1   
$EndComp
$Comp
L accent:SK6812MINI-E L15
U 1 1 6269A570
P 12350 7000
F 0 "L15" H 12350 7262 51  0000 C CNN
F 1 "SK6812MINI-E" H 12350 7197 16  0000 C CNN
F 2 "accent-footprint:SK6812MINI-E-With_Cuts" H 12350 7000 60  0001 C CNN
F 3 "" H 12350 7000 60  0001 C CNN
	1    12350 7000
	1    0    0    -1  
$EndComp
Wire Wire Line
	12550 7850 12700 7850
Wire Wire Line
	12700 7850 12700 8050
Wire Wire Line
	12700 8050 12850 8050
Wire Wire Line
	13250 7850 13400 7850
Wire Wire Line
	13400 7850 13400 8050
Wire Wire Line
	13400 8050 13550 8050
Wire Wire Line
	13950 7850 14100 7850
Wire Wire Line
	14100 7850 14100 8050
Wire Wire Line
	14100 8050 14250 8050
Wire Wire Line
	14650 7100 14650 7400
Wire Wire Line
	14650 7400 14250 7400
Wire Wire Line
	11150 7400 11150 7100
Wire Wire Line
	14250 7850 14250 7400
Connection ~ 14250 7400
Wire Wire Line
	14250 7400 13950 7400
Wire Wire Line
	13950 7100 13950 7400
Connection ~ 13950 7400
Wire Wire Line
	13950 7400 13550 7400
Wire Wire Line
	12550 7100 12550 7400
Connection ~ 12550 7400
Wire Wire Line
	11850 7100 11850 7400
Connection ~ 11850 7400
Wire Wire Line
	11850 7400 12150 7400
Wire Wire Line
	12150 7850 12150 7400
Connection ~ 12150 7400
Wire Wire Line
	12150 7400 12550 7400
Wire Wire Line
	12850 7850 12850 7400
Connection ~ 12850 7400
Wire Wire Line
	12850 7400 12550 7400
Wire Wire Line
	13550 7850 13550 7400
Connection ~ 13550 7400
Wire Wire Line
	11150 7400 11850 7400
Wire Wire Line
	14250 7100 14100 7100
Wire Wire Line
	14100 7100 14100 6900
Wire Wire Line
	14100 6900 13950 6900
Wire Wire Line
	13550 7100 13400 7100
Wire Wire Line
	13400 7100 13400 6900
Wire Wire Line
	13400 6900 13250 6900
Wire Wire Line
	12850 7100 12700 7100
Wire Wire Line
	12700 7100 12700 6900
Wire Wire Line
	12700 6900 12550 6900
Wire Wire Line
	12150 7100 12000 7100
Wire Wire Line
	12000 7100 12000 6900
Wire Wire Line
	12000 6900 11850 6900
Wire Wire Line
	11300 7100 11300 6900
Wire Wire Line
	11300 6900 11150 6900
Wire Wire Line
	11300 7100 11450 7100
Wire Wire Line
	11150 6000 11300 6000
Wire Wire Line
	11300 6000 11300 6200
Wire Wire Line
	11300 6200 11450 6200
Wire Wire Line
	11850 6000 12000 6000
Wire Wire Line
	12000 6000 12000 6200
Wire Wire Line
	12000 6200 12150 6200
Wire Wire Line
	12550 6000 12700 6000
Wire Wire Line
	12700 6000 12700 6200
Wire Wire Line
	12700 6200 12850 6200
Wire Wire Line
	13450 6000 13450 6200
Wire Wire Line
	13450 6200 13550 6200
Wire Wire Line
	13250 6000 13450 6000
Wire Wire Line
	14100 6000 14100 6200
Wire Wire Line
	14100 6200 14250 6200
Wire Wire Line
	13950 6000 14100 6000
Wire Wire Line
	14250 5250 14100 5250
Wire Wire Line
	14100 5250 14100 5050
Wire Wire Line
	14100 5050 13950 5050
Wire Wire Line
	13550 5250 13400 5250
Wire Wire Line
	13400 5250 13400 5050
Wire Wire Line
	13400 5050 13250 5050
Wire Wire Line
	12850 5250 12700 5250
Wire Wire Line
	12700 5250 12700 5050
Wire Wire Line
	12700 5050 12550 5050
Wire Wire Line
	12000 5250 12000 5050
Wire Wire Line
	12000 5050 11850 5050
Wire Wire Line
	11450 5250 11300 5250
Wire Wire Line
	11300 5250 11300 5050
Wire Wire Line
	11300 5050 11150 5050
Wire Wire Line
	12000 5250 12150 5250
$Comp
L accent:SK6812MINI-E L7
U 1 1 625E9BBE
P 10950 6100
F 0 "L7" H 10950 5838 51  0000 C CNN
F 1 "SK6812MINI-E" H 10950 5903 16  0000 C CNN
F 2 "accent-footprint:SK6812MINI-E-With_Cuts" H 10950 6100 60  0001 C CNN
F 3 "" H 10950 6100 60  0001 C CNN
	1    10950 6100
	-1   0    0    1   
$EndComp
Wire Wire Line
	11150 6200 11150 6500
Wire Wire Line
	11150 6500 11450 6500
Wire Wire Line
	10750 6900 10750 6500
Wire Wire Line
	10750 6500 11150 6500
Connection ~ 11150 6500
Wire Wire Line
	11450 6900 11450 6500
Connection ~ 11450 6500
Wire Wire Line
	11450 6500 11850 6500
Wire Wire Line
	12150 6900 12150 6500
Connection ~ 12150 6500
Wire Wire Line
	12150 6500 12550 6500
Wire Wire Line
	12850 6900 12850 6500
Connection ~ 12850 6500
Wire Wire Line
	13550 6900 13550 6500
Wire Wire Line
	12850 6500 13300 6500
Connection ~ 13550 6500
Wire Wire Line
	13550 6500 13950 6500
Wire Wire Line
	14250 6900 14250 6500
Connection ~ 14250 6500
Wire Wire Line
	14250 6500 14650 6500
Wire Wire Line
	13950 6200 13950 6500
Connection ~ 13950 6500
Wire Wire Line
	13950 6500 14250 6500
Wire Wire Line
	13300 6200 13300 6500
Connection ~ 13300 6500
Wire Wire Line
	13300 6500 13550 6500
Wire Wire Line
	12550 6200 12550 6500
Connection ~ 12550 6500
Wire Wire Line
	12550 6500 12850 6500
Wire Wire Line
	11850 6200 11850 6500
Connection ~ 11850 6500
Wire Wire Line
	11850 6500 12150 6500
Wire Wire Line
	14650 6200 14650 6500
Wire Wire Line
	14650 5250 14650 5550
Wire Wire Line
	14650 5550 14250 5550
Wire Wire Line
	13950 5250 13950 5550
Connection ~ 13950 5550
Wire Wire Line
	13950 5550 13550 5550
Wire Wire Line
	13250 5250 13250 5550
Connection ~ 13250 5550
Wire Wire Line
	12550 5250 12550 5550
Connection ~ 12550 5550
Wire Wire Line
	12550 5550 12850 5550
Wire Wire Line
	11850 5250 11850 5550
Connection ~ 11850 5550
Wire Wire Line
	11850 5550 12150 5550
Wire Wire Line
	11150 5250 11150 5550
Connection ~ 11150 5550
Wire Wire Line
	11450 6000 11450 5550
Wire Wire Line
	11150 5550 11450 5550
Connection ~ 11450 5550
Wire Wire Line
	11450 5550 11850 5550
Wire Wire Line
	12150 6000 12150 5550
Connection ~ 12150 5550
Wire Wire Line
	12150 5550 12550 5550
Wire Wire Line
	12850 6000 12850 5550
Connection ~ 12850 5550
Wire Wire Line
	12850 5550 13250 5550
Wire Wire Line
	13550 6000 13550 5550
Connection ~ 13550 5550
Wire Wire Line
	13550 5550 13250 5550
Wire Wire Line
	14250 6000 14250 5550
Connection ~ 14250 5550
Wire Wire Line
	14250 5550 13950 5550
Wire Wire Line
	10750 5250 10600 5250
Wire Wire Line
	10750 5050 10750 4750
Wire Wire Line
	11450 5050 11450 4750
Connection ~ 11450 4750
Wire Wire Line
	12150 5050 12150 4750
Connection ~ 12150 4750
Wire Wire Line
	13550 5050 13550 4750
Connection ~ 13550 4750
Wire Wire Line
	12850 5050 12850 4750
Connection ~ 12850 4750
Wire Wire Line
	14650 8050 14650 8400
Wire Wire Line
	14000 8050 14000 8400
Wire Wire Line
	14000 8400 14250 8400
Wire Wire Line
	10750 6000 10750 5550
Wire Wire Line
	10750 5550 11150 5550
Wire Wire Line
	13250 7100 13250 7400
Wire Wire Line
	12850 7400 13250 7400
Connection ~ 13250 7400
Wire Wire Line
	13250 7400 13550 7400
Wire Wire Line
	14250 5050 14250 4750
$Comp
L accent:VBUS #PWR0103
U 1 1 65195E73
P 10250 4750
F 0 "#PWR0103" H 10250 4600 50  0001 C CNN
F 1 "VBUS" V 10267 4878 50  0000 L CNN
F 2 "" H 10250 4750 50  0000 C CNN
F 3 "" H 10250 4750 50  0000 C CNN
	1    10250 4750
	0    -1   -1   0   
$EndComp
Wire Wire Line
	10750 4750 11450 4750
Wire Wire Line
	11450 4750 12150 4750
Wire Wire Line
	12150 4750 12850 4750
Wire Wire Line
	12850 4750 13550 4750
Wire Wire Line
	13550 4750 14250 4750
Wire Wire Line
	10750 4750 10250 4750
Connection ~ 14000 8400
Wire Wire Line
	12550 8400 12850 8400
Wire Wire Line
	12550 8050 12550 8400
Wire Wire Line
	13300 8400 13550 8400
Connection ~ 13300 8400
Wire Wire Line
	13300 8050 13300 8400
Connection ~ 10750 4750
Wire Wire Line
	14650 5050 15000 5050
Wire Wire Line
	10600 5250 10600 6200
Wire Wire Line
	10600 6200 10750 6200
Wire Wire Line
	14650 6000 14800 6000
Wire Wire Line
	14800 6000 14800 6900
Wire Wire Line
	14800 6900 14650 6900
Wire Wire Line
	10750 8050 12150 8050
Wire Wire Line
	10750 7100 10750 8050
Wire Wire Line
	14650 7850 14800 7850
Wire Wire Line
	14800 7850 14800 8900
Wire Wire Line
	14800 8900 14650 8900
NoConn ~ 10750 9100
$Comp
L accent:VBUS #PWR0101
U 1 1 65688BEE
P 10250 6500
F 0 "#PWR0101" H 10250 6350 50  0001 C CNN
F 1 "VBUS" V 10267 6628 50  0000 L CNN
F 2 "" H 10250 6500 50  0000 C CNN
F 3 "" H 10250 6500 50  0000 C CNN
	1    10250 6500
	0    -1   -1   0   
$EndComp
Wire Wire Line
	10750 6500 10250 6500
$Comp
L accent:VBUS #PWR0104
U 1 1 656A1A41
P 10150 8400
F 0 "#PWR0104" H 10150 8250 50  0001 C CNN
F 1 "VBUS" V 10167 8528 50  0000 L CNN
F 2 "" H 10150 8400 50  0000 C CNN
F 3 "" H 10150 8400 50  0000 C CNN
	1    10150 8400
	0    -1   -1   0   
$EndComp
Connection ~ 12550 8400
$Comp
L accent:GND #PWR0105
U 1 1 656D2F10
P 15000 9500
F 0 "#PWR0105" H 15000 9250 50  0001 C CNN
F 1 "GND" H 15005 9327 50  0000 C CNN
F 2 "" H 15000 9500 50  0000 C CNN
F 3 "" H 15000 9500 50  0000 C CNN
	1    15000 9500
	0    -1   -1   0   
$EndComp
Wire Wire Line
	14650 9100 14650 9500
Wire Wire Line
	11150 9500 11150 9100
Wire Wire Line
	11850 9100 11850 9500
Connection ~ 11850 9500
Wire Wire Line
	11850 9500 11150 9500
Wire Wire Line
	12550 9100 12550 9500
Connection ~ 12550 9500
Wire Wire Line
	12550 9500 11850 9500
Wire Wire Line
	13250 9100 13250 9500
Connection ~ 13250 9500
Wire Wire Line
	13250 9500 12550 9500
Wire Wire Line
	13950 9100 13950 9500
Wire Wire Line
	13250 9500 13950 9500
Connection ~ 13950 9500
Wire Wire Line
	13950 9500 14650 9500
Connection ~ 14650 9500
Wire Wire Line
	14650 9500 15000 9500
$Comp
L accent:GND #PWR0107
U 1 1 657D06CB
P 15000 7400
F 0 "#PWR0107" H 15000 7150 50  0001 C CNN
F 1 "GND" H 15005 7227 50  0000 C CNN
F 2 "" H 15000 7400 50  0000 C CNN
F 3 "" H 15000 7400 50  0000 C CNN
	1    15000 7400
	0    -1   -1   0   
$EndComp
Wire Wire Line
	14650 7400 15000 7400
$Comp
L accent:GND #PWR0108
U 1 1 657EA426
P 15000 5550
F 0 "#PWR0108" H 15000 5300 50  0001 C CNN
F 1 "GND" H 15005 5377 50  0000 C CNN
F 2 "" H 15000 5550 50  0000 C CNN
F 3 "" H 15000 5550 50  0000 C CNN
	1    15000 5550
	0    -1   -1   0   
$EndComp
Wire Wire Line
	14650 5550 15000 5550
Connection ~ 14250 8400
Wire Wire Line
	14250 8400 14650 8400
Connection ~ 13550 8400
Wire Wire Line
	13550 8400 14000 8400
Connection ~ 12850 8400
Wire Wire Line
	12850 8400 13300 8400
Connection ~ 12150 8400
Wire Wire Line
	12150 8400 12550 8400
Connection ~ 11450 8400
Wire Wire Line
	11450 8400 12150 8400
Wire Wire Line
	10150 8400 10750 8400
Connection ~ 10750 8400
Wire Wire Line
	10750 8400 11450 8400
Wire Wire Line
	14250 8400 14250 8900
Wire Wire Line
	13550 8400 13550 8900
Wire Wire Line
	12850 8400 12850 8900
Wire Wire Line
	12150 8400 12150 8900
Wire Wire Line
	10750 8400 10750 8900
Wire Wire Line
	11450 8400 11450 8900
Wire Wire Line
	2450 1450 2450 1250
Wire Wire Line
	2350 1450 2350 1250
Text GLabel 3900 2500 2    50   Input ~ 0
LED_3V3
NoConn ~ 3900 2600
NoConn ~ 3900 2700
NoConn ~ 3900 2800
NoConn ~ 2650 3450
NoConn ~ 2850 3450
NoConn ~ 3050 3450
NoConn ~ 3250 3450
$Comp
L accent:PGA2040 U1
U 1 1 61E04B79
P 2900 2450
F 0 "U1" H 2756 2496 50  0000 L CNN
F 1 "PGA2040" H 2756 2405 50  0000 L CNN
F 2 "accent-footprint:PGA2040" H 2900 2450 50  0001 C CNN
F 3 "" H 2250 2700 50  0001 C CNN
	1    2900 2450
	1    0    0    -1  
$EndComp
NoConn ~ 1900 2500
NoConn ~ 1900 2700
$Comp
L accent:LED J2
U 1 1 5C98A57F
P 3150 7750
F 0 "J2" H 3230 8067 50  0000 C CNN
F 1 "LED" H 3230 7976 50  0000 C CNN
F 2 "accent-footprint:LED" H 3150 7750 50  0001 C CNN
F 3 "" H 3150 7750 50  0001 C CNN
	1    3150 7750
	1    0    0    -1  
$EndComp
$Comp
L accent:VBUS #PWR0113
U 1 1 625C82CA
P 3350 7650
F 0 "#PWR0113" H 3350 7500 50  0001 C CNN
F 1 "VBUS" H 3367 7823 50  0000 C CNN
F 2 "" H 3350 7650 50  0000 C CNN
F 3 "" H 3350 7650 50  0000 C CNN
	1    3350 7650
	1    0    0    -1  
$EndComp
$Comp
L accent:VBUS #PWR0114
U 1 1 625C92F2
P 2900 7850
F 0 "#PWR0114" H 2900 7700 50  0001 C CNN
F 1 "VBUS" H 2918 8023 50  0000 C CNN
F 2 "" H 2900 7850 50  0000 C CNN
F 3 "" H 2900 7850 50  0000 C CNN
	1    2900 7850
	-1   0    0    1   
$EndComp
$Comp
L accent:VBUS #PWR0115
U 1 1 6261CA4E
P 6000 6850
F 0 "#PWR0115" H 6000 6700 50  0001 C CNN
F 1 "VBUS" V 6017 6978 50  0000 L CNN
F 2 "" H 6000 6850 50  0000 C CNN
F 3 "" H 6000 6850 50  0000 C CNN
	1    6000 6850
	0    1    1    0   
$EndComp
$Comp
L accent:VBUS #PWR0116
U 1 1 6261DA9A
P 6000 8700
F 0 "#PWR0116" H 6000 8550 50  0001 C CNN
F 1 "VBUS" V 6017 8828 50  0000 L CNN
F 2 "" H 6000 8700 50  0000 C CNN
F 3 "" H 6000 8700 50  0000 C CNN
	1    6000 8700
	0    1    1    0   
$EndComp
$Comp
L Connector_Generic:Conn_01x05 J6
U 1 1 62400F5F
P 8250 7850
F 0 "J6" H 8330 7842 50  0000 L CNN
F 1 "Conn_01x05" H 8330 7751 50  0000 L CNN
F 2 "accent-footprint:USB_Micro_Mount" H 8250 7850 50  0001 C CNN
F 3 "~" H 8250 7850 50  0001 C CNN
	1    8250 7850
	1    0    0    -1  
$EndComp
Wire Wire Line
	6850 8250 6950 8250
$Comp
L Connector:USB_B_Micro J5
U 1 1 63899ED0
P 6950 7850
F 0 "J5" H 7007 8317 50  0000 C CNN
F 1 "USB_B_Micro" H 7007 8226 50  0000 C CNN
F 2 "accent-footprint:USB_Micro-B" H 7100 7800 50  0001 C CNN
F 3 "~" H 7100 7800 50  0001 C CNN
	1    6950 7850
	1    0    0    -1  
$EndComp
Text GLabel 8050 7750 0    50   Input ~ 0
USB_D-
Text GLabel 7250 7950 2    50   Input ~ 0
USB_D-
Text GLabel 8050 7950 0    50   Input ~ 0
ID
Text GLabel 7250 8050 2    50   Input ~ 0
ID
Text GLabel 8050 7850 0    50   Input ~ 0
USB_D+
Text GLabel 7250 7850 2    50   Input ~ 0
USB_D+
Text GLabel 7250 7650 2    50   Output ~ 0
VBUS
Text GLabel 8050 7650 0    50   Input ~ 0
VBUS
Text GLabel 8050 8050 0    50   Input ~ 0
GND
Text GLabel 7250 8250 2    50   Output ~ 0
GND
Wire Wire Line
	6950 8250 7250 8250
Connection ~ 6950 8250
$EndSCHEMATC
