EESchema Schematic File Version 4
EELAYER 30 0
EELAYER END
$Descr A3 16535 11693
encoding utf-8
Sheet 1 1
Title ""
Date ""
Rev ""
Comp ""
Comment1 ""
Comment2 ""
Comment3 ""
Comment4 ""
$EndDescr
Text GLabel 7150 1800 0    50   Input ~ 0
row0
Text GLabel 7150 2600 0    50   Input ~ 0
row1
Text GLabel 7150 3400 0    50   Input ~ 0
row2
Text GLabel 7150 4200 0    50   Input ~ 0
row3
Text GLabel 1600 2400 0    50   Input ~ 0
row0
Text GLabel 1600 2500 0    50   Input ~ 0
row1
Text GLabel 1600 2600 0    50   Input ~ 0
row2
Text GLabel 1600 2700 0    50   Input ~ 0
row3
Text GLabel 2900 2200 2    50   Input ~ 0
col0
Text GLabel 2900 2400 2    50   Input ~ 0
col2
Text GLabel 2900 2300 2    50   Input ~ 0
col1
Text GLabel 2900 2500 2    50   Input ~ 0
col3
Text GLabel 2900 2600 2    50   Input ~ 0
col4
Text GLabel 2900 2700 2    50   Input ~ 0
col5
NoConn ~ 1600 2300
NoConn ~ 1600 2200
$Comp
L accent:VCC #PWR0101
U 1 1 5C999BD4
P 2050 3400
F 0 "#PWR0101" H 2050 3250 50  0001 C CNN
F 1 "VCC" H 2067 3573 50  0000 C CNN
F 2 "" H 2050 3400 50  0000 C CNN
F 3 "" H 2050 3400 50  0000 C CNN
	1    2050 3400
	1    0    0    -1  
$EndComp
$Comp
L accent:GND #PWR0102
U 1 1 5C999CA0
P 2050 4100
F 0 "#PWR0102" H 2050 3850 50  0001 C CNN
F 1 "GND" H 2055 3927 50  0000 C CNN
F 2 "" H 2050 4100 50  0000 C CNN
F 3 "" H 2050 4100 50  0000 C CNN
	1    2050 4100
	1    0    0    -1  
$EndComp
Wire Wire Line
	2050 3750 2050 3400
Wire Wire Line
	1850 3850 2050 3850
Wire Wire Line
	2050 3850 2050 4100
Wire Wire Line
	1850 3750 2050 3750
Wire Wire Line
	1850 3600 2350 3600
Wire Wire Line
	1850 3950 2350 3950
Wire Wire Line
	2500 3950 2350 3950
Connection ~ 2350 3950
Text GLabel 2900 3950 2    50   Input ~ 0
DATA
Wire Wire Line
	1100 6100 1200 6100
Wire Wire Line
	1100 6000 1300 6000
Wire Wire Line
	1100 5900 1400 5900
Wire Wire Line
	1100 5800 1500 5800
Wire Wire Line
	1500 4700 1700 4700
Wire Wire Line
	1500 4700 1500 5800
Wire Wire Line
	1700 5000 1400 5000
Wire Wire Line
	1400 5000 1400 5900
Wire Wire Line
	1700 5300 1300 5300
Wire Wire Line
	1300 5300 1300 6000
Wire Wire Line
	1200 5600 1700 5600
Wire Wire Line
	1200 5600 1200 6100
Wire Wire Line
	1500 5800 1500 6250
Wire Wire Line
	1500 6250 1700 6250
Connection ~ 1500 5800
Wire Wire Line
	1400 5900 1400 6550
Wire Wire Line
	1400 6550 1700 6550
Connection ~ 1400 5900
Wire Wire Line
	1300 6000 1300 6850
Wire Wire Line
	1300 6850 1700 6850
Connection ~ 1300 6000
Wire Wire Line
	1700 7150 1200 7150
Wire Wire Line
	1200 7150 1200 6100
Connection ~ 1200 6100
$Comp
L accent:GND #PWR0103
U 1 1 5C9CFF6B
P 2100 4700
F 0 "#PWR0103" H 2100 4450 50  0001 C CNN
F 1 "GND" V 2105 4572 50  0000 R CNN
F 2 "" H 2100 4700 50  0000 C CNN
F 3 "" H 2100 4700 50  0000 C CNN
	1    2100 4700
	0    -1   -1   0   
$EndComp
$Comp
L accent:GND #PWR0104
U 1 1 5C9D01B9
P 2100 7150
F 0 "#PWR0104" H 2100 6900 50  0001 C CNN
F 1 "GND" V 2105 7022 50  0000 R CNN
F 2 "" H 2100 7150 50  0000 C CNN
F 3 "" H 2100 7150 50  0000 C CNN
	1    2100 7150
	0    -1   -1   0   
$EndComp
$Comp
L accent:VCC #PWR0105
U 1 1 5C9D0379
P 2100 5000
F 0 "#PWR0105" H 2100 4850 50  0001 C CNN
F 1 "VCC" V 2117 5128 50  0000 L CNN
F 2 "" H 2100 5000 50  0000 C CNN
F 3 "" H 2100 5000 50  0000 C CNN
	1    2100 5000
	0    1    1    0   
$EndComp
$Comp
L accent:VCC #PWR0106
U 1 1 5C9D062B
P 2100 6850
F 0 "#PWR0106" H 2100 6700 50  0001 C CNN
F 1 "VCC" V 2117 6978 50  0000 L CNN
F 2 "" H 2100 6850 50  0000 C CNN
F 3 "" H 2100 6850 50  0000 C CNN
	1    2100 6850
	0    1    1    0   
$EndComp
Text GLabel 2100 5300 2    50   Input ~ 0
SCL
Text GLabel 2100 6550 2    50   Input ~ 0
SCL
Text GLabel 2100 5600 2    50   Input ~ 0
SDA
Text GLabel 2100 6250 2    50   Input ~ 0
SDA
Text GLabel 3900 4850 2    50   Input ~ 0
RESET
$Comp
L accent:GND #PWR0107
U 1 1 5C986694
P 3300 4850
F 0 "#PWR0107" H 3300 4600 50  0001 C CNN
F 1 "GND" V 3305 4722 50  0000 R CNN
F 2 "" H 3300 4850 50  0000 C CNN
F 3 "" H 3300 4850 50  0000 C CNN
	1    3300 4850
	0    1    1    0   
$EndComp
$Comp
L accent:GND #PWR0108
U 1 1 5C98A68B
P 3400 5950
F 0 "#PWR0108" H 3400 5700 50  0001 C CNN
F 1 "GND" H 3405 5777 50  0000 C CNN
F 2 "" H 3400 5950 50  0000 C CNN
F 3 "" H 3400 5950 50  0000 C CNN
	1    3400 5950
	1    0    0    -1  
$EndComp
$Comp
L accent:VCC #PWR0109
U 1 1 5C98A781
P 3400 5750
F 0 "#PWR0109" H 3400 5600 50  0001 C CNN
F 1 "VCC" H 3417 5923 50  0000 C CNN
F 2 "" H 3400 5750 50  0000 C CNN
F 3 "" H 3400 5750 50  0000 C CNN
	1    3400 5750
	1    0    0    -1  
$EndComp
Text GLabel 3400 5850 2    50   Input ~ 0
LED
$Comp
L accent:VCC #PWR0110
U 1 1 5C98CF78
P 3250 6600
F 0 "#PWR0110" H 3250 6450 50  0001 C CNN
F 1 "VCC" H 3267 6773 50  0000 C CNN
F 2 "" H 3250 6600 50  0000 C CNN
F 3 "" H 3250 6600 50  0000 C CNN
	1    3250 6600
	1    0    0    -1  
$EndComp
Text GLabel 3250 6900 3    50   Input ~ 0
SDA
$Comp
L accent:VCC #PWR0111
U 1 1 5C98F086
P 3650 6600
F 0 "#PWR0111" H 3650 6450 50  0001 C CNN
F 1 "VCC" H 3667 6773 50  0000 C CNN
F 2 "" H 3650 6600 50  0000 C CNN
F 3 "" H 3650 6600 50  0000 C CNN
	1    3650 6600
	1    0    0    -1  
$EndComp
Text GLabel 3650 6900 3    50   Input ~ 0
SCL
Text GLabel 1600 2100 0    50   Input ~ 0
SCL
Text GLabel 1600 2000 0    50   Input ~ 0
SDA
Text GLabel 1600 1700 0    50   Input ~ 0
DATA
Text GLabel 1600 1600 0    50   Input ~ 0
LED
Text GLabel 2900 1800 2    50   Input ~ 0
RESET
NoConn ~ 2900 2000
NoConn ~ 2900 1600
Wire Wire Line
	1600 1800 1600 1900
$Comp
L accent:GND #PWR0112
U 1 1 5C9ABC8B
P 1350 1900
F 0 "#PWR0112" H 1350 1650 50  0001 C CNN
F 1 "GND" V 1355 1772 50  0000 R CNN
F 2 "" H 1350 1900 50  0000 C CNN
F 3 "" H 1350 1900 50  0000 C CNN
	1    1350 1900
	0    1    1    0   
$EndComp
$Comp
L accent:GND #PWR0113
U 1 1 5C9ABD95
P 3200 1700
F 0 "#PWR0113" H 3200 1450 50  0001 C CNN
F 1 "GND" V 3205 1572 50  0000 R CNN
F 2 "" H 3200 1700 50  0000 C CNN
F 3 "" H 3200 1700 50  0000 C CNN
	1    3200 1700
	0    -1   -1   0   
$EndComp
$Comp
L accent:VCC #PWR0114
U 1 1 5C9ABEA6
P 3200 1900
F 0 "#PWR0114" H 3200 1750 50  0001 C CNN
F 1 "VCC" V 3217 2028 50  0000 L CNN
F 2 "" H 3200 1900 50  0000 C CNN
F 3 "" H 3200 1900 50  0000 C CNN
	1    3200 1900
	0    1    1    0   
$EndComp
Wire Wire Line
	3200 1900 2900 1900
Wire Wire Line
	3200 1700 2900 1700
Wire Wire Line
	1600 1900 1350 1900
Connection ~ 1600 1900
$Comp
L accent:PowerFlag #Junk0101
U 1 1 5C9B9886
P 1400 8250
F 0 "#Junk0101" H 1400 8250 50  0001 C CNN
F 1 "PowerFlag" H 1468 8294 50  0000 L CNN
F 2 "" H 1400 8250 50  0001 C CNN
F 3 "" H 1400 8250 50  0001 C CNN
	1    1400 8250
	1    0    0    -1  
$EndComp
$Comp
L accent:PowerFlag #Junk0102
U 1 1 5C9B9990
P 2100 8250
F 0 "#Junk0102" H 2100 8250 50  0001 C CNN
F 1 "PowerFlag" H 2168 8294 50  0000 L CNN
F 2 "" H 2100 8250 50  0001 C CNN
F 3 "" H 2100 8250 50  0001 C CNN
	1    2100 8250
	1    0    0    -1  
$EndComp
$Comp
L accent:GND #PWR0115
U 1 1 5C9B9B82
P 1400 8250
F 0 "#PWR0115" H 1400 8000 50  0001 C CNN
F 1 "GND" H 1405 8077 50  0000 C CNN
F 2 "" H 1400 8250 50  0000 C CNN
F 3 "" H 1400 8250 50  0000 C CNN
	1    1400 8250
	1    0    0    -1  
$EndComp
$Comp
L accent:VCC #PWR0116
U 1 1 5C9BBD66
P 2100 8250
F 0 "#PWR0116" H 2100 8100 50  0001 C CNN
F 1 "VCC" H 2118 8423 50  0000 C CNN
F 2 "" H 2100 8250 50  0000 C CNN
F 3 "" H 2100 8250 50  0000 C CNN
	1    2100 8250
	-1   0    0    1   
$EndComp
$Comp
L accent:GND #PWR0117
U 1 1 5CE0D0F2
P 2950 5750
F 0 "#PWR0117" H 2950 5500 50  0001 C CNN
F 1 "GND" H 2955 5577 50  0000 C CNN
F 2 "" H 2950 5750 50  0000 C CNN
F 3 "" H 2950 5750 50  0000 C CNN
	1    2950 5750
	-1   0    0    1   
$EndComp
$Comp
L accent:VCC #PWR0118
U 1 1 5CE133C1
P 2950 5950
F 0 "#PWR0118" H 2950 5800 50  0001 C CNN
F 1 "VCC" H 2967 6123 50  0000 C CNN
F 2 "" H 2950 5950 50  0000 C CNN
F 3 "" H 2950 5950 50  0000 C CNN
	1    2950 5950
	-1   0    0    1   
$EndComp
NoConn ~ 2900 2100
Wire Wire Line
	9950 4200 10750 4200
Wire Wire Line
	10750 4200 11550 4200
Wire Wire Line
	11550 4200 12350 4200
Connection ~ 7750 2300
Wire Wire Line
	7750 1500 7750 2300
Wire Wire Line
	11750 1100 11750 1500
Connection ~ 8350 3400
Wire Wire Line
	7150 3400 8350 3400
Connection ~ 8350 2600
Wire Wire Line
	7150 2600 8350 2600
Connection ~ 8350 1800
Wire Wire Line
	7150 1800 8350 1800
Wire Wire Line
	11750 2300 11750 3100
Connection ~ 11750 2300
Wire Wire Line
	11750 1500 11750 2300
Wire Wire Line
	10950 2300 10950 3100
Connection ~ 10950 2300
Wire Wire Line
	10950 1500 10950 2300
Wire Wire Line
	11750 3100 11750 3900
Connection ~ 10150 3100
Wire Wire Line
	10150 2300 10150 3100
Connection ~ 10150 2300
Wire Wire Line
	10150 1500 10150 2300
Wire Wire Line
	10950 3100 10950 3900
Connection ~ 9350 3100
Wire Wire Line
	9350 2300 9350 3100
Connection ~ 9350 2300
Wire Wire Line
	9350 1500 9350 2300
Wire Wire Line
	10150 3100 10150 3900
Wire Wire Line
	8550 2300 8550 3100
Connection ~ 11550 4200
Wire Wire Line
	11550 3400 12350 3400
Connection ~ 11550 3400
Wire Wire Line
	10750 3400 11550 3400
Connection ~ 10750 3400
Wire Wire Line
	9950 3400 10750 3400
Connection ~ 9950 3400
Wire Wire Line
	9150 3400 9950 3400
Connection ~ 9150 3400
Wire Wire Line
	8350 3400 9150 3400
Wire Wire Line
	11550 2600 12350 2600
Connection ~ 11550 2600
Wire Wire Line
	10750 2600 11550 2600
Connection ~ 10750 2600
Wire Wire Line
	9950 2600 10750 2600
Connection ~ 9950 2600
Wire Wire Line
	9150 2600 9950 2600
Connection ~ 9150 2600
Wire Wire Line
	8350 2600 9150 2600
Wire Wire Line
	7750 1500 7750 1100
Text GLabel 7750 1100 1    50   Input ~ 0
col0
Wire Wire Line
	11550 1800 12350 1800
Wire Wire Line
	10750 1800 11550 1800
Connection ~ 11550 1800
Connection ~ 10750 1800
Text GLabel 8550 1100 1    50   Input ~ 0
col1
Wire Wire Line
	9950 1800 10750 1800
Connection ~ 9950 1800
Wire Wire Line
	9150 1800 9950 1800
Connection ~ 9150 1800
Wire Wire Line
	9350 1500 9350 1100
Text GLabel 9350 1100 1    50   Input ~ 0
col2
Wire Wire Line
	10150 1500 10150 1100
Text GLabel 10150 1100 1    50   Input ~ 0
col3
Wire Wire Line
	10950 1500 10950 1100
Text GLabel 10950 1100 1    50   Input ~ 0
col4
Wire Wire Line
	8350 1800 9150 1800
Text GLabel 11750 1100 1    50   Input ~ 0
col5
Wire Wire Line
	7750 2300 7750 3100
Wire Wire Line
	9350 3100 9350 3900
Connection ~ 7750 1500
Connection ~ 9350 1500
Wire Wire Line
	8550 1100 8550 1500
Connection ~ 8550 1500
Connection ~ 10150 1500
Connection ~ 10950 1500
Connection ~ 11750 1500
Connection ~ 10950 3100
Connection ~ 11750 3100
Connection ~ 9950 4200
Connection ~ 10750 4200
Wire Wire Line
	7150 4200 9950 4200
Wire Wire Line
	8550 1500 8550 2300
Connection ~ 8550 2300
Wire Wire Line
	8350 5000 8500 5000
Wire Wire Line
	8500 5000 8500 5200
Wire Wire Line
	8500 5200 8650 5200
$Comp
L accent:GND #PWR0119
U 1 1 61FF3A9F
P 12150 5500
F 0 "#PWR0119" H 12150 5250 50  0001 C CNN
F 1 "GND" H 12155 5327 50  0000 C CNN
F 2 "" H 12150 5500 50  0000 C CNN
F 3 "" H 12150 5500 50  0000 C CNN
	1    12150 5500
	0    -1   -1   0   
$EndComp
Wire Wire Line
	8500 5950 8500 6150
Wire Wire Line
	9200 5950 9200 6150
Wire Wire Line
	9900 5950 9900 6150
Wire Wire Line
	10600 5950 10600 6150
Wire Wire Line
	11300 5950 11300 6150
Wire Wire Line
	11300 5200 11450 5200
Wire Wire Line
	11300 5000 11300 5200
Wire Wire Line
	11150 5000 11300 5000
Wire Wire Line
	10600 5200 10750 5200
Wire Wire Line
	10600 5000 10600 5200
Wire Wire Line
	10450 5000 10600 5000
Wire Wire Line
	9900 5200 10050 5200
Wire Wire Line
	9900 5000 9900 5200
Wire Wire Line
	9750 5000 9900 5000
Wire Wire Line
	9200 5200 9350 5200
Wire Wire Line
	9200 5000 9200 5200
Wire Wire Line
	9050 5000 9200 5000
Wire Wire Line
	8350 5950 8500 5950
Wire Wire Line
	8500 6150 8650 6150
Wire Wire Line
	9050 5950 9200 5950
Wire Wire Line
	9350 6150 9200 6150
Wire Wire Line
	9750 5950 9900 5950
Wire Wire Line
	10450 5950 10600 5950
Wire Wire Line
	11150 5950 11300 5950
Wire Wire Line
	11450 6150 11300 6150
Wire Wire Line
	10600 6150 10750 6150
Wire Wire Line
	8500 6850 8500 7050
Wire Wire Line
	8500 7050 8650 7050
Wire Wire Line
	11300 7050 11450 7050
Wire Wire Line
	11300 6850 11300 7050
Wire Wire Line
	10600 7050 10750 7050
Wire Wire Line
	10600 6850 10600 7050
Wire Wire Line
	9900 7050 10050 7050
Wire Wire Line
	9900 6850 9900 7050
Wire Wire Line
	9200 7050 9350 7050
Wire Wire Line
	9200 6850 9200 7050
Wire Wire Line
	8350 6850 8500 6850
Wire Wire Line
	9050 6850 9200 6850
Wire Wire Line
	9750 6850 9900 6850
Wire Wire Line
	10450 6850 10600 6850
Wire Wire Line
	11150 6850 11300 6850
Wire Wire Line
	9900 6150 10050 6150
$Comp
L accent:VCC #PWR0122
U 1 1 6277A635
P 7650 6500
F 0 "#PWR0122" H 7650 6350 50  0001 C CNN
F 1 "VCC" H 7667 6673 50  0000 C CNN
F 2 "" H 7650 6500 50  0000 C CNN
F 3 "" H 7650 6500 50  0000 C CNN
	1    7650 6500
	0    -1   -1   0   
$EndComp
Wire Wire Line
	11850 6850 11950 6850
$Comp
L accent:GND #PWR0123
U 1 1 6285E8D3
P 12050 7400
F 0 "#PWR0123" H 12050 7150 50  0001 C CNN
F 1 "GND" H 12055 7227 50  0000 C CNN
F 2 "" H 12050 7400 50  0000 C CNN
F 3 "" H 12050 7400 50  0000 C CNN
	1    12050 7400
	0    -1   -1   0   
$EndComp
$Comp
L accent:VCC #PWR0120
U 1 1 6255EE06
P 7600 4650
F 0 "#PWR0120" H 7600 4500 50  0001 C CNN
F 1 "VCC" H 7617 4823 50  0000 C CNN
F 2 "" H 7600 4650 50  0000 C CNN
F 3 "" H 7600 4650 50  0000 C CNN
	1    7600 4650
	0    -1   -1   0   
$EndComp
Text GLabel 12100 5000 2    50   Input ~ 0
LED
$Comp
L accent:SK6812MINI-E L15
U 1 1 6269A570
P 9550 6950
F 0 "L15" H 9550 7212 51  0000 C CNN
F 1 "SK6812MINI-E" H 9550 7147 16  0000 C CNN
F 2 "accent-footprint:SK6812MINI-E-With_Cuts" H 9550 6950 60  0001 C CNN
F 3 "" H 9550 6950 60  0001 C CNN
	1    9550 6950
	1    0    0    -1  
$EndComp
$Comp
L accent:SK6812MINI-E L14
U 1 1 6269A56A
P 8850 6950
F 0 "L14" H 8850 7212 51  0000 C CNN
F 1 "SK6812MINI-E" H 8850 7147 16  0000 C CNN
F 2 "accent-footprint:SK6812MINI-E-With_Cuts" H 8850 6950 60  0001 C CNN
F 3 "" H 8850 6950 60  0001 C CNN
	1    8850 6950
	1    0    0    -1  
$EndComp
$Comp
L accent:SK6812MINI-E L16
U 1 1 6269A562
P 10250 6950
F 0 "L16" H 10250 7212 51  0000 C CNN
F 1 "SK6812MINI-E" H 10250 7147 16  0000 C CNN
F 2 "accent-footprint:SK6812MINI-E-With_Cuts" H 10250 6950 60  0001 C CNN
F 3 "" H 10250 6950 60  0001 C CNN
	1    10250 6950
	1    0    0    -1  
$EndComp
$Comp
L accent:SK6812MINI-E L17
U 1 1 6269A55C
P 10950 6950
F 0 "L17" H 10950 7212 51  0000 C CNN
F 1 "SK6812MINI-E" H 10950 7147 16  0000 C CNN
F 2 "accent-footprint:SK6812MINI-E-With_Cuts" H 10950 6950 60  0001 C CNN
F 3 "" H 10950 6950 60  0001 C CNN
	1    10950 6950
	1    0    0    -1  
$EndComp
$Comp
L accent:SK6812MINI-E L18
U 1 1 6269A54D
P 11650 6950
F 0 "L18" H 11650 7212 51  0000 C CNN
F 1 "SK6812MINI-E" H 11650 7147 16  0000 C CNN
F 2 "accent-footprint:SK6812MINI-E-With_Cuts" H 11650 6950 60  0001 C CNN
F 3 "" H 11650 6950 60  0001 C CNN
	1    11650 6950
	1    0    0    -1  
$EndComp
$Comp
L accent:SK6812MINI-E L13
U 1 1 6269A545
P 8150 6950
F 0 "L13" H 8150 7212 51  0000 C CNN
F 1 "SK6812MINI-E" H 8150 7147 16  0000 C CNN
F 2 "accent-footprint:SK6812MINI-E-With_Cuts" H 8150 6950 60  0001 C CNN
F 3 "" H 8150 6950 60  0001 C CNN
	1    8150 6950
	1    0    0    -1  
$EndComp
$Comp
L accent:SK6812MINI-E L2
U 1 1 624DA48C
P 8850 5100
F 0 "L2" H 8850 5362 51  0000 C CNN
F 1 "SK6812MINI-E" H 8850 5297 16  0000 C CNN
F 2 "accent-footprint:SK6812MINI-E-With_Cuts" H 8850 5100 60  0001 C CNN
F 3 "" H 8850 5100 60  0001 C CNN
	1    8850 5100
	1    0    0    -1  
$EndComp
$Comp
L accent:SK6812MINI-E L4
U 1 1 6256B20F
P 10250 5100
F 0 "L4" H 10250 5362 51  0000 C CNN
F 1 "SK6812MINI-E" H 10250 5297 16  0000 C CNN
F 2 "accent-footprint:SK6812MINI-E-With_Cuts" H 10250 5100 60  0001 C CNN
F 3 "" H 10250 5100 60  0001 C CNN
	1    10250 5100
	1    0    0    -1  
$EndComp
$Comp
L accent:SK6812MINI-E L5
U 1 1 6256D947
P 10950 5100
F 0 "L5" H 10950 5362 51  0000 C CNN
F 1 "SK6812MINI-E" H 10950 5297 16  0000 C CNN
F 2 "accent-footprint:SK6812MINI-E-With_Cuts" H 10950 5100 60  0001 C CNN
F 3 "" H 10950 5100 60  0001 C CNN
	1    10950 5100
	1    0    0    -1  
$EndComp
$Comp
L accent:SK6812MINI-E L6
U 1 1 62570234
P 11650 5100
F 0 "L6" H 11650 5362 51  0000 C CNN
F 1 "SK6812MINI-E" H 11650 5297 16  0000 C CNN
F 2 "accent-footprint:SK6812MINI-E-With_Cuts" H 11650 5100 60  0001 C CNN
F 3 "" H 11650 5100 60  0001 C CNN
	1    11650 5100
	1    0    0    -1  
$EndComp
$Comp
L accent:SK6812MINI-E L7
U 1 1 625E9BBE
P 8150 6050
F 0 "L7" H 8150 5788 51  0000 C CNN
F 1 "SK6812MINI-E" H 8150 5853 16  0000 C CNN
F 2 "accent-footprint:SK6812MINI-E-With_Cuts" H 8150 6050 60  0001 C CNN
F 3 "" H 8150 6050 60  0001 C CNN
	1    8150 6050
	-1   0    0    1   
$EndComp
$Comp
L accent:SK6812MINI-E L8
U 1 1 625E9BB5
P 8850 6050
F 0 "L8" H 8850 5788 51  0000 C CNN
F 1 "SK6812MINI-E" H 8850 5853 16  0000 C CNN
F 2 "accent-footprint:SK6812MINI-E-With_Cuts" H 8850 6050 60  0001 C CNN
F 3 "" H 8850 6050 60  0001 C CNN
	1    8850 6050
	-1   0    0    1   
$EndComp
$Comp
L accent:SK6812MINI-E L9
U 1 1 625E9BAF
P 9550 6050
F 0 "L9" H 9550 5788 51  0000 C CNN
F 1 "SK6812MINI-E" H 9550 5853 16  0000 C CNN
F 2 "accent-footprint:SK6812MINI-E-With_Cuts" H 9550 6050 60  0001 C CNN
F 3 "" H 9550 6050 60  0001 C CNN
	1    9550 6050
	-1   0    0    1   
$EndComp
$Comp
L accent:SK6812MINI-E L11
U 1 1 625E9BA8
P 10950 6050
F 0 "L11" H 10950 5788 51  0000 C CNN
F 1 "SK6812MINI-E" H 10950 5853 16  0000 C CNN
F 2 "accent-footprint:SK6812MINI-E-With_Cuts" H 10950 6050 60  0001 C CNN
F 3 "" H 10950 6050 60  0001 C CNN
	1    10950 6050
	-1   0    0    1   
$EndComp
$Comp
L accent:SK6812MINI-E L10
U 1 1 625E9BA2
P 10250 6050
F 0 "L10" H 10250 5788 51  0000 C CNN
F 1 "SK6812MINI-E" H 10250 5853 16  0000 C CNN
F 2 "accent-footprint:SK6812MINI-E-With_Cuts" H 10250 6050 60  0001 C CNN
F 3 "" H 10250 6050 60  0001 C CNN
	1    10250 6050
	-1   0    0    1   
$EndComp
$Comp
L accent:SK6812MINI-E L12
U 1 1 625E9B9C
P 11650 6050
F 0 "L12" H 11650 5788 51  0000 C CNN
F 1 "SK6812MINI-E" H 11650 5853 16  0000 C CNN
F 2 "accent-footprint:SK6812MINI-E-With_Cuts" H 11650 6050 60  0001 C CNN
F 3 "" H 11650 6050 60  0001 C CNN
	1    11650 6050
	-1   0    0    1   
$EndComp
$Comp
L accent:SK6812MINI-E L1
U 1 1 6240BB00
P 8150 5100
F 0 "L1" H 8150 5362 51  0000 C CNN
F 1 "SK6812MINI-E" H 8150 5297 16  0000 C CNN
F 2 "accent-footprint:SK6812MINI-E-With_Cuts" H 8150 5100 60  0001 C CNN
F 3 "" H 8150 5100 60  0001 C CNN
	1    8150 5100
	1    0    0    -1  
$EndComp
$Comp
L accent:SW_PUSH SW13
U 1 1 5C982EBD
P 8050 3100
F 0 "SW13" H 8050 3445 50  0000 C CNN
F 1 "SW_PUSH" H 8050 3354 50  0000 C CNN
F 2 "accent-footprint:CherryMX_With_Socket" H 8050 3263 20  0000 C CNN
F 3 "" H 8050 3100 50  0000 C CNN
	1    8050 3100
	1    0    0    -1  
$EndComp
$Comp
L Device:D D1
U 1 1 5C960268
P 8350 1650
F 0 "D1" V 8396 1571 50  0000 R CNN
F 1 "D" V 8305 1571 50  0000 R CNN
F 2 "accent-footprint:Diode_SOD123" H 8350 1650 50  0001 C CNN
F 3 "~" H 8350 1650 50  0001 C CNN
	1    8350 1650
	0    -1   -1   0   
$EndComp
$Comp
L accent:SW_PUSH SW1
U 1 1 5C985F82
P 8050 1500
F 0 "SW1" H 8050 1845 50  0000 C CNN
F 1 "SW_PUSH" H 8050 1754 50  0000 C CNN
F 2 "accent-footprint:CherryMX_With_Socket" H 8050 1663 20  0000 C CNN
F 3 "" H 8050 1500 50  0000 C CNN
	1    8050 1500
	1    0    0    -1  
$EndComp
$Comp
L Device:D D2
U 1 1 5C9821B9
P 9150 1650
F 0 "D2" V 9196 1571 50  0000 R CNN
F 1 "D" V 9105 1571 50  0000 R CNN
F 2 "accent-footprint:Diode_SOD123" H 9150 1650 50  0001 C CNN
F 3 "~" H 9150 1650 50  0001 C CNN
	1    9150 1650
	0    -1   -1   0   
$EndComp
$Comp
L accent:SW_PUSH SW2
U 1 1 5C9821C0
P 8850 1500
F 0 "SW2" H 8850 1845 50  0000 C CNN
F 1 "SW_PUSH" H 8850 1754 50  0000 C CNN
F 2 "accent-footprint:CherryMX_With_Socket" H 8850 1663 20  0000 C CNN
F 3 "" H 8850 1500 50  0000 C CNN
	1    8850 1500
	1    0    0    -1  
$EndComp
$Comp
L Device:D D3
U 1 1 5C982287
P 9950 1650
F 0 "D3" V 9996 1571 50  0000 R CNN
F 1 "D" V 9905 1571 50  0000 R CNN
F 2 "accent-footprint:Diode_SOD123" H 9950 1650 50  0001 C CNN
F 3 "~" H 9950 1650 50  0001 C CNN
	1    9950 1650
	0    -1   -1   0   
$EndComp
$Comp
L accent:SW_PUSH SW3
U 1 1 5C98228F
P 9650 1500
F 0 "SW3" H 9650 1845 50  0000 C CNN
F 1 "SW_PUSH" H 9650 1754 50  0000 C CNN
F 2 "accent-footprint:CherryMX_With_Socket" H 9650 1663 20  0000 C CNN
F 3 "" H 9650 1500 50  0000 C CNN
	1    9650 1500
	1    0    0    -1  
$EndComp
$Comp
L Device:D D4
U 1 1 5C9822D0
P 10750 1650
F 0 "D4" V 10796 1571 50  0000 R CNN
F 1 "D" V 10705 1571 50  0000 R CNN
F 2 "accent-footprint:Diode_SOD123" H 10750 1650 50  0001 C CNN
F 3 "~" H 10750 1650 50  0001 C CNN
	1    10750 1650
	0    -1   -1   0   
$EndComp
$Comp
L accent:SW_PUSH SW4
U 1 1 5C9822D8
P 10450 1500
F 0 "SW4" H 10450 1845 50  0000 C CNN
F 1 "SW_PUSH" H 10450 1754 50  0000 C CNN
F 2 "accent-footprint:CherryMX_With_Socket" H 10450 1663 20  0000 C CNN
F 3 "" H 10450 1500 50  0000 C CNN
	1    10450 1500
	1    0    0    -1  
$EndComp
$Comp
L Device:D D5
U 1 1 5C9826D7
P 11550 1650
F 0 "D5" V 11596 1571 50  0000 R CNN
F 1 "D" V 11505 1571 50  0000 R CNN
F 2 "accent-footprint:Diode_SOD123" H 11550 1650 50  0001 C CNN
F 3 "~" H 11550 1650 50  0001 C CNN
	1    11550 1650
	0    -1   -1   0   
$EndComp
$Comp
L accent:SW_PUSH SW5
U 1 1 5C9826DE
P 11250 1500
F 0 "SW5" H 11250 1845 50  0000 C CNN
F 1 "SW_PUSH" H 11250 1754 50  0000 C CNN
F 2 "accent-footprint:CherryMX_With_Socket" H 11250 1663 20  0000 C CNN
F 3 "" H 11250 1500 50  0000 C CNN
	1    11250 1500
	1    0    0    -1  
$EndComp
$Comp
L Device:D D6
U 1 1 5C982842
P 12350 1650
F 0 "D6" V 12396 1571 50  0000 R CNN
F 1 "D" V 12305 1571 50  0000 R CNN
F 2 "accent-footprint:Diode_SOD123" H 12350 1650 50  0001 C CNN
F 3 "~" H 12350 1650 50  0001 C CNN
	1    12350 1650
	0    -1   -1   0   
$EndComp
$Comp
L accent:SW_PUSH SW6
U 1 1 5C982849
P 12050 1500
F 0 "SW6" H 12050 1845 50  0000 C CNN
F 1 "SW_PUSH" H 12050 1754 50  0000 C CNN
F 2 "accent-footprint:CherryMX_With_Socket" H 12050 1663 20  0000 C CNN
F 3 "" H 12050 1500 50  0000 C CNN
	1    12050 1500
	1    0    0    -1  
$EndComp
$Comp
L Device:D D7
U 1 1 5C982B10
P 8350 2450
F 0 "D7" V 8396 2371 50  0000 R CNN
F 1 "D" V 8305 2371 50  0000 R CNN
F 2 "accent-footprint:Diode_SOD123" H 8350 2450 50  0001 C CNN
F 3 "~" H 8350 2450 50  0001 C CNN
	1    8350 2450
	0    -1   -1   0   
$EndComp
$Comp
L accent:SW_PUSH SW7
U 1 1 5C982B16
P 8050 2300
F 0 "SW7" H 8050 2645 50  0000 C CNN
F 1 "SW_PUSH" H 8050 2554 50  0000 C CNN
F 2 "accent-footprint:CherryMX_With_Socket" H 8050 2463 20  0000 C CNN
F 3 "" H 8050 2300 50  0000 C CNN
	1    8050 2300
	1    0    0    -1  
$EndComp
$Comp
L Device:D D8
U 1 1 5C982B1D
P 9150 2450
F 0 "D8" V 9196 2371 50  0000 R CNN
F 1 "D" V 9105 2371 50  0000 R CNN
F 2 "accent-footprint:Diode_SOD123" H 9150 2450 50  0001 C CNN
F 3 "~" H 9150 2450 50  0001 C CNN
	1    9150 2450
	0    -1   -1   0   
$EndComp
$Comp
L accent:SW_PUSH SW8
U 1 1 5C982B23
P 8850 2300
F 0 "SW8" H 8850 2645 50  0000 C CNN
F 1 "SW_PUSH" H 8850 2554 50  0000 C CNN
F 2 "accent-footprint:CherryMX_With_Socket" H 8850 2463 20  0000 C CNN
F 3 "" H 8850 2300 50  0000 C CNN
	1    8850 2300
	1    0    0    -1  
$EndComp
$Comp
L Device:D D9
U 1 1 5C982B2A
P 9950 2450
F 0 "D9" V 9996 2371 50  0000 R CNN
F 1 "D" V 9905 2371 50  0000 R CNN
F 2 "accent-footprint:Diode_SOD123" H 9950 2450 50  0001 C CNN
F 3 "~" H 9950 2450 50  0001 C CNN
	1    9950 2450
	0    -1   -1   0   
$EndComp
$Comp
L accent:SW_PUSH SW9
U 1 1 5C982B30
P 9650 2300
F 0 "SW9" H 9650 2645 50  0000 C CNN
F 1 "SW_PUSH" H 9650 2554 50  0000 C CNN
F 2 "accent-footprint:CherryMX_With_Socket" H 9650 2463 20  0000 C CNN
F 3 "" H 9650 2300 50  0000 C CNN
	1    9650 2300
	1    0    0    -1  
$EndComp
$Comp
L Device:D D10
U 1 1 5C982B37
P 10750 2450
F 0 "D10" V 10796 2371 50  0000 R CNN
F 1 "D" V 10705 2371 50  0000 R CNN
F 2 "accent-footprint:Diode_SOD123" H 10750 2450 50  0001 C CNN
F 3 "~" H 10750 2450 50  0001 C CNN
	1    10750 2450
	0    -1   -1   0   
$EndComp
$Comp
L accent:SW_PUSH SW10
U 1 1 5C982B3D
P 10450 2300
F 0 "SW10" H 10450 2645 50  0000 C CNN
F 1 "SW_PUSH" H 10450 2554 50  0000 C CNN
F 2 "accent-footprint:CherryMX_With_Socket" H 10450 2463 20  0000 C CNN
F 3 "" H 10450 2300 50  0000 C CNN
	1    10450 2300
	1    0    0    -1  
$EndComp
$Comp
L Device:D D11
U 1 1 5C982B44
P 11550 2450
F 0 "D11" V 11596 2371 50  0000 R CNN
F 1 "D" V 11505 2371 50  0000 R CNN
F 2 "accent-footprint:Diode_SOD123" H 11550 2450 50  0001 C CNN
F 3 "~" H 11550 2450 50  0001 C CNN
	1    11550 2450
	0    -1   -1   0   
$EndComp
$Comp
L accent:SW_PUSH SW11
U 1 1 5C982B4A
P 11250 2300
F 0 "SW11" H 11250 2645 50  0000 C CNN
F 1 "SW_PUSH" H 11250 2554 50  0000 C CNN
F 2 "accent-footprint:CherryMX_With_Socket" H 11250 2463 20  0000 C CNN
F 3 "" H 11250 2300 50  0000 C CNN
	1    11250 2300
	1    0    0    -1  
$EndComp
$Comp
L Device:D D12
U 1 1 5C982B51
P 12350 2450
F 0 "D12" V 12396 2371 50  0000 R CNN
F 1 "D" V 12305 2371 50  0000 R CNN
F 2 "accent-footprint:Diode_SOD123" H 12350 2450 50  0001 C CNN
F 3 "~" H 12350 2450 50  0001 C CNN
	1    12350 2450
	0    -1   -1   0   
$EndComp
$Comp
L accent:SW_PUSH SW12
U 1 1 5C982B57
P 12050 2300
F 0 "SW12" H 12050 2645 50  0000 C CNN
F 1 "SW_PUSH" H 12050 2554 50  0000 C CNN
F 2 "accent-footprint:CherryMX_With_Socket" H 12050 2463 20  0000 C CNN
F 3 "" H 12050 2300 50  0000 C CNN
	1    12050 2300
	1    0    0    -1  
$EndComp
$Comp
L Device:D D13
U 1 1 5C982EB7
P 8350 3250
F 0 "D13" V 8396 3171 50  0000 R CNN
F 1 "D" V 8305 3171 50  0000 R CNN
F 2 "accent-footprint:Diode_SOD123" H 8350 3250 50  0001 C CNN
F 3 "~" H 8350 3250 50  0001 C CNN
	1    8350 3250
	0    -1   -1   0   
$EndComp
$Comp
L Device:D D14
U 1 1 5C982EC4
P 9150 3250
F 0 "D14" V 9196 3171 50  0000 R CNN
F 1 "D" V 9105 3171 50  0000 R CNN
F 2 "accent-footprint:Diode_SOD123" H 9150 3250 50  0001 C CNN
F 3 "~" H 9150 3250 50  0001 C CNN
	1    9150 3250
	0    -1   -1   0   
$EndComp
$Comp
L accent:SW_PUSH SW14
U 1 1 5C982ECA
P 8850 3100
F 0 "SW14" H 8850 3445 50  0000 C CNN
F 1 "SW_PUSH" H 8850 3354 50  0000 C CNN
F 2 "accent-footprint:CherryMX_With_Socket" H 8850 3263 20  0000 C CNN
F 3 "" H 8850 3100 50  0000 C CNN
	1    8850 3100
	1    0    0    -1  
$EndComp
$Comp
L Device:D D15
U 1 1 5C982ED1
P 9950 3250
F 0 "D15" V 9996 3171 50  0000 R CNN
F 1 "D" V 9905 3171 50  0000 R CNN
F 2 "accent-footprint:Diode_SOD123" H 9950 3250 50  0001 C CNN
F 3 "~" H 9950 3250 50  0001 C CNN
	1    9950 3250
	0    -1   -1   0   
$EndComp
$Comp
L accent:SW_PUSH SW15
U 1 1 5C982ED7
P 9650 3100
F 0 "SW15" H 9650 3445 50  0000 C CNN
F 1 "SW_PUSH" H 9650 3354 50  0000 C CNN
F 2 "accent-footprint:CherryMX_With_Socket" H 9650 3263 20  0000 C CNN
F 3 "" H 9650 3100 50  0000 C CNN
	1    9650 3100
	1    0    0    -1  
$EndComp
$Comp
L Device:D D16
U 1 1 5C982EDE
P 10750 3250
F 0 "D16" V 10796 3171 50  0000 R CNN
F 1 "D" V 10705 3171 50  0000 R CNN
F 2 "accent-footprint:Diode_SOD123" H 10750 3250 50  0001 C CNN
F 3 "~" H 10750 3250 50  0001 C CNN
	1    10750 3250
	0    -1   -1   0   
$EndComp
$Comp
L accent:SW_PUSH SW16
U 1 1 5C982EE4
P 10450 3100
F 0 "SW16" H 10450 3445 50  0000 C CNN
F 1 "SW_PUSH" H 10450 3354 50  0000 C CNN
F 2 "accent-footprint:CherryMX_With_Socket" H 10450 3263 20  0000 C CNN
F 3 "" H 10450 3100 50  0000 C CNN
	1    10450 3100
	1    0    0    -1  
$EndComp
$Comp
L Device:D D17
U 1 1 5C982EEB
P 11550 3250
F 0 "D17" V 11596 3171 50  0000 R CNN
F 1 "D" V 11505 3171 50  0000 R CNN
F 2 "accent-footprint:Diode_SOD123" H 11550 3250 50  0001 C CNN
F 3 "~" H 11550 3250 50  0001 C CNN
	1    11550 3250
	0    -1   -1   0   
$EndComp
$Comp
L accent:SW_PUSH SW17
U 1 1 5C982EF1
P 11250 3100
F 0 "SW17" H 11250 3445 50  0000 C CNN
F 1 "SW_PUSH" H 11250 3354 50  0000 C CNN
F 2 "accent-footprint:CherryMX_With_Socket" H 11250 3263 20  0000 C CNN
F 3 "" H 11250 3100 50  0000 C CNN
	1    11250 3100
	1    0    0    -1  
$EndComp
$Comp
L Device:D D18
U 1 1 5C982EF8
P 12350 3250
F 0 "D18" V 12396 3171 50  0000 R CNN
F 1 "D" V 12305 3171 50  0000 R CNN
F 2 "accent-footprint:Diode_SOD123" H 12350 3250 50  0001 C CNN
F 3 "~" H 12350 3250 50  0001 C CNN
	1    12350 3250
	0    -1   -1   0   
$EndComp
$Comp
L accent:SW_PUSH SW18
U 1 1 5C982EFE
P 12050 3100
F 0 "SW18" H 12050 3445 50  0000 C CNN
F 1 "SW_PUSH" H 12050 3354 50  0000 C CNN
F 2 "accent-footprint:CherryMX_With_Socket" H 12050 3263 20  0000 C CNN
F 3 "" H 12050 3100 50  0000 C CNN
	1    12050 3100
	1    0    0    -1  
$EndComp
$Comp
L Device:D D19
U 1 1 5C98335C
P 9950 4050
F 0 "D19" V 9996 3971 50  0000 R CNN
F 1 "D" V 9905 3971 50  0000 R CNN
F 2 "accent-footprint:Diode_SOD123" H 9950 4050 50  0001 C CNN
F 3 "~" H 9950 4050 50  0001 C CNN
	1    9950 4050
	0    -1   -1   0   
$EndComp
$Comp
L accent:SW_PUSH SW19
U 1 1 5C983362
P 9650 3900
F 0 "SW19" H 9650 4245 50  0000 C CNN
F 1 "SW_PUSH" H 9650 4154 50  0000 C CNN
F 2 "accent-footprint:CherryMX_With_Socket" H 9650 4063 20  0000 C CNN
F 3 "" H 9650 3900 50  0000 C CNN
	1    9650 3900
	1    0    0    -1  
$EndComp
$Comp
L Device:D D20
U 1 1 5C983369
P 10750 4050
F 0 "D20" V 10796 3971 50  0000 R CNN
F 1 "D" V 10705 3971 50  0000 R CNN
F 2 "accent-footprint:Diode_SOD123" H 10750 4050 50  0001 C CNN
F 3 "~" H 10750 4050 50  0001 C CNN
	1    10750 4050
	0    -1   -1   0   
$EndComp
$Comp
L accent:SW_PUSH SW20
U 1 1 5C98336F
P 10450 3900
F 0 "SW20" H 10450 4245 50  0000 C CNN
F 1 "SW_PUSH" H 10450 4154 50  0000 C CNN
F 2 "accent-footprint:CherryMX_With_Socket" H 10450 4063 20  0000 C CNN
F 3 "" H 10450 3900 50  0000 C CNN
	1    10450 3900
	1    0    0    -1  
$EndComp
$Comp
L Device:D D21
U 1 1 5C983376
P 11550 4050
F 0 "D21" V 11596 3971 50  0000 R CNN
F 1 "D" V 11505 3971 50  0000 R CNN
F 2 "accent-footprint:Diode_SOD123" H 11550 4050 50  0001 C CNN
F 3 "~" H 11550 4050 50  0001 C CNN
	1    11550 4050
	0    -1   -1   0   
$EndComp
$Comp
L accent:SW_PUSH SW21
U 1 1 5C98337C
P 11250 3900
F 0 "SW21" H 11250 4245 50  0000 C CNN
F 1 "SW_PUSH" H 11250 4154 50  0000 C CNN
F 2 "accent-footprint:CherryMX_With_Socket" H 11250 4063 20  0000 C CNN
F 3 "" H 11250 3900 50  0000 C CNN
	1    11250 3900
	1    0    0    -1  
$EndComp
$Comp
L Device:D D22
U 1 1 5C983383
P 12350 4050
F 0 "D22" V 12396 3971 50  0000 R CNN
F 1 "D" V 12305 3971 50  0000 R CNN
F 2 "accent-footprint:Diode_SOD123" H 12350 4050 50  0001 C CNN
F 3 "~" H 12350 4050 50  0001 C CNN
	1    12350 4050
	0    -1   -1   0   
$EndComp
$Comp
L accent:SW_PUSH SW22
U 1 1 5C983389
P 12050 3900
F 0 "SW22" H 12050 4245 50  0000 C CNN
F 1 "SW_PUSH" H 12050 4154 50  0000 C CNN
F 2 "accent-footprint:CherryMX_With_Socket" H 12050 4063 20  0000 C CNN
F 3 "" H 12050 3900 50  0000 C CNN
	1    12050 3900
	1    0    0    -1  
$EndComp
$Comp
L accent:Hole_mini HM2
U 1 1 5C995EE6
P 2150 9500
F 0 "HM2" H 2408 9553 60  0000 L CNN
F 1 "Hole_mini" H 2408 9447 60  0000 L CNN
F 2 "accent-footprint:Hole_M2_mini" H 2408 9394 60  0001 L CNN
F 3 "" H 2150 9500 60  0000 C CNN
	1    2150 9500
	1    0    0    -1  
$EndComp
$Comp
L accent:Hole_mini HM1
U 1 1 5C995DB8
P 1300 9500
F 0 "HM1" H 1558 9553 60  0000 L CNN
F 1 "Hole_mini" H 1558 9447 60  0000 L CNN
F 2 "accent-footprint:Hole_M2_mini" H 1558 9394 60  0001 L CNN
F 3 "" H 1300 9500 60  0000 C CNN
	1    1300 9500
	1    0    0    -1  
$EndComp
$Comp
L accent:Hole H4
U 1 1 5C99D8E3
P 3850 10150
F 0 "H4" H 4128 10203 60  0000 L CNN
F 1 "Hole" H 4128 10097 60  0000 L CNN
F 2 "accent-footprint:Hole_M2" H 3850 10150 60  0001 C CNN
F 3 "" H 3850 10150 60  0000 C CNN
	1    3850 10150
	1    0    0    -1  
$EndComp
$Comp
L accent:Hole H5
U 1 1 5C99B8DF
P 4650 10150
F 0 "H5" H 4928 10203 60  0000 L CNN
F 1 "Hole" H 4928 10097 60  0000 L CNN
F 2 "accent-footprint:Hole_M2" H 4650 10150 60  0001 C CNN
F 3 "" H 4650 10150 60  0000 C CNN
	1    4650 10150
	1    0    0    -1  
$EndComp
$Comp
L accent:Hole H3
U 1 1 5C99B5AB
P 3000 10150
F 0 "H3" H 3278 10203 60  0000 L CNN
F 1 "Hole" H 3278 10097 60  0000 L CNN
F 2 "accent-footprint:Hole_M2" H 3000 10150 60  0001 C CNN
F 3 "" H 3000 10150 60  0000 C CNN
	1    3000 10150
	1    0    0    -1  
$EndComp
$Comp
L accent:Hole H2
U 1 1 5C99B385
P 2150 10150
F 0 "H2" H 2428 10203 60  0000 L CNN
F 1 "Hole" H 2428 10097 60  0000 L CNN
F 2 "accent-footprint:Hole_M2" H 2150 10150 60  0001 C CNN
F 3 "" H 2150 10150 60  0000 C CNN
	1    2150 10150
	1    0    0    -1  
$EndComp
$Comp
L accent:Hole H1
U 1 1 5C99B276
P 1300 10150
F 0 "H1" H 1578 10203 60  0000 L CNN
F 1 "Hole" H 1578 10097 60  0000 L CNN
F 2 "accent-footprint:Hole_M2" H 1300 10150 60  0001 C CNN
F 3 "" H 1300 10150 60  0000 C CNN
	1    1300 10150
	1    0    0    -1  
$EndComp
$Comp
L accent:RESISTOR R2
U 1 1 5C98F080
P 3650 6750
F 0 "R2" H 3720 6796 50  0000 L CNN
F 1 "R" H 3720 6705 50  0000 L CNN
F 2 "accent-footprint:RESISTOR" V 3580 6750 50  0001 C CNN
F 3 "" H 3650 6750 50  0001 C CNN
	1    3650 6750
	1    0    0    -1  
$EndComp
$Comp
L accent:RESISTOR R1
U 1 1 5C98CA8C
P 3250 6750
F 0 "R1" H 3320 6796 50  0000 L CNN
F 1 "R" H 3320 6705 50  0000 L CNN
F 2 "accent-footprint:RESISTOR" V 3180 6750 50  0001 C CNN
F 3 "" H 3250 6750 50  0001 C CNN
	1    3250 6750
	1    0    0    -1  
$EndComp
$Comp
L accent:LED J3
U 1 1 5C98A57F
P 3200 5850
F 0 "J3" H 3280 6167 50  0000 C CNN
F 1 "LED" H 3280 6076 50  0000 C CNN
F 2 "accent-footprint:LED" H 3200 5850 50  0001 C CNN
F 3 "" H 3200 5850 50  0001 C CNN
	1    3200 5850
	1    0    0    -1  
$EndComp
$Comp
L accent:SW_RESET SWRT1
U 1 1 5C986361
P 3600 4850
F 0 "SWRT1" H 3600 5105 50  0000 C CNN
F 1 "SW_RESET" H 3600 5014 50  0000 C CNN
F 2 "accent-footprint:TACT_SWITCH_TVBP06" H 3600 4850 50  0001 C CNN
F 3 "" H 3600 4850 50  0000 C CNN
	1    3600 4850
	1    0    0    -1  
$EndComp
$Comp
L accent:Jumper_oled JP8
U 1 1 5C9C5CB0
P 1900 7150
F 0 "JP8" V 2089 7150 50  0000 C CNN
F 1 "Jumper_oled" V 2005 7150 40  0000 C CNN
F 2 "accent-footprint:Jumper_oled" H 1900 7150 60  0001 C CNN
F 3 "" H 1900 7150 60  0000 C CNN
	1    1900 7150
	0    -1   -1   0   
$EndComp
$Comp
L accent:Jumper_oled JP7
U 1 1 5C9C5CAA
P 1900 6850
F 0 "JP7" V 2089 6850 50  0000 C CNN
F 1 "Jumper_oled" V 2005 6850 40  0000 C CNN
F 2 "accent-footprint:Jumper_oled" H 1900 6850 60  0001 C CNN
F 3 "" H 1900 6850 60  0000 C CNN
	1    1900 6850
	0    -1   -1   0   
$EndComp
$Comp
L accent:Jumper_oled JP6
U 1 1 5C9C5CA4
P 1900 6550
F 0 "JP6" V 2089 6550 50  0000 C CNN
F 1 "Jumper_oled" V 2005 6550 40  0000 C CNN
F 2 "accent-footprint:Jumper_oled" H 1900 6550 60  0001 C CNN
F 3 "" H 1900 6550 60  0000 C CNN
	1    1900 6550
	0    -1   -1   0   
$EndComp
$Comp
L accent:Jumper_oled JP5
U 1 1 5C9C5C9E
P 1900 6250
F 0 "JP5" V 2089 6250 50  0000 C CNN
F 1 "Jumper_oled" V 2005 6250 40  0000 C CNN
F 2 "accent-footprint:Jumper_oled" H 1900 6250 60  0001 C CNN
F 3 "" H 1900 6250 60  0000 C CNN
	1    1900 6250
	0    -1   -1   0   
$EndComp
$Comp
L accent:Jumper_oled JP4
U 1 1 5C9AA8B2
P 1900 5600
F 0 "JP4" V 2089 5600 50  0000 C CNN
F 1 "Jumper_oled" V 2005 5600 40  0001 C CNN
F 2 "accent-footprint:Jumper_oled" H 1900 5600 60  0001 C CNN
F 3 "" H 1900 5600 60  0000 C CNN
	1    1900 5600
	0    -1   -1   0   
$EndComp
$Comp
L accent:Jumper_oled JP3
U 1 1 5C9A8E88
P 1900 5300
F 0 "JP3" V 2089 5300 50  0000 C CNN
F 1 "Jumper_oled" V 2005 5300 40  0000 C CNN
F 2 "accent-footprint:Jumper_oled" H 1900 5300 60  0001 C CNN
F 3 "" H 1900 5300 60  0000 C CNN
	1    1900 5300
	0    -1   -1   0   
$EndComp
$Comp
L accent:Jumper_oled JP2
U 1 1 5C9A73EE
P 1900 5000
F 0 "JP2" V 2089 5000 50  0000 C CNN
F 1 "Jumper_oled" V 2005 5000 40  0000 C CNN
F 2 "accent-footprint:Jumper_oled" H 1900 5000 60  0001 C CNN
F 3 "" H 1900 5000 60  0000 C CNN
	1    1900 5000
	0    -1   -1   0   
$EndComp
$Comp
L accent:Jumper_oled JP1
U 1 1 5C9A5859
P 1900 4700
F 0 "JP1" V 2089 4700 50  0000 C CNN
F 1 "Jumper_oled" V 2005 4700 40  0000 C CNN
F 2 "accent-footprint:Jumper_oled" H 1900 4700 60  0001 C CNN
F 3 "" H 1900 4700 60  0000 C CNN
	1    1900 4700
	0    -1   -1   0   
$EndComp
$Comp
L accent:OLED J2
U 1 1 5C9929F9
P 900 5950
F 0 "J2" H 819 5575 50  0000 C CNN
F 1 "OLED" H 819 5666 50  0000 C CNN
F 2 "accent-footprint:OLED" H 900 5950 50  0001 C CNN
F 3 "" H 900 5950 50  0000 C CNN
	1    900  5950
	-1   0    0    1   
$EndComp
$Comp
L accent:Jumper_jack JPJ1
U 1 1 5C98F8A4
P 2700 3950
F 0 "JPJ1" V 2889 3950 50  0000 C CNN
F 1 "Jumper_jack" V 2805 3950 40  0000 C CNN
F 2 "accent-footprint:jumper_jack" H 2700 3950 60  0001 C CNN
F 3 "" H 2700 3950 60  0000 C CNN
	1    2700 3950
	0    -1   -1   0   
$EndComp
$Comp
L accent:MJ-4PP-9 J1
U 1 1 5C993675
P 1400 3750
F 0 "J1" H 1406 4147 60  0000 C CNN
F 1 "MJ-4PP-9" H 1406 4041 60  0000 C CNN
F 2 "accent-footprint:MJ-4PP-9" H 1400 3750 60  0001 C CNN
F 3 "" H 1400 3750 60  0000 C CNN
	1    1400 3750
	1    0    0    -1  
$EndComp
$Comp
L accent:i2c_pin P1
U 1 1 5C984C63
P 2350 3400
F 0 "P1" V 2316 3312 50  0000 R CNN
F 1 "i2c_pin" V 2225 3312 50  0000 R CNN
F 2 "accent-footprint:1pin_conn" H 2350 3400 50  0001 C CNN
F 3 "" H 2350 3400 50  0001 C CNN
	1    2350 3400
	0    -1   -1   0   
$EndComp
$Comp
L accent:i2c_pin P2
U 1 1 5C984B83
P 2350 4150
F 0 "P2" V 2223 4230 50  0000 L CNN
F 1 "i2c_pin" V 2314 4230 50  0000 L CNN
F 2 "accent-footprint:1pin_conn" H 2350 4150 50  0001 C CNN
F 3 "" H 2350 4150 50  0001 C CNN
	1    2350 4150
	0    1    1    0   
$EndComp
$Comp
L accent:ProMicro U1
U 1 1 5C96007C
P 2250 2150
F 0 "U1" H 2250 2965 50  0000 C CNN
F 1 "ProMicro" H 2250 2874 50  0000 C CNN
F 2 "accent-footprint:ProMicro" H 2200 2250 50  0001 C CNN
F 3 "" H 2200 2250 50  0001 C CNN
	1    2250 2150
	1    0    0    -1  
$EndComp
Wire Wire Line
	11850 5000 12100 5000
Wire Wire Line
	7600 4650 7950 4650
Wire Wire Line
	11450 4650 11450 5000
Wire Wire Line
	10750 5000 10750 4650
Connection ~ 10750 4650
Wire Wire Line
	10750 4650 11450 4650
Wire Wire Line
	10050 5000 10050 4650
Connection ~ 10050 4650
Wire Wire Line
	10050 4650 10750 4650
Wire Wire Line
	9350 5000 9350 4650
Connection ~ 9350 4650
Wire Wire Line
	9350 4650 10050 4650
Wire Wire Line
	8650 5000 8650 4650
Connection ~ 8650 4650
Wire Wire Line
	8650 4650 9350 4650
Wire Wire Line
	7950 5000 7950 4650
Connection ~ 7950 4650
Wire Wire Line
	7950 4650 8650 4650
Wire Wire Line
	11850 5200 11850 5500
Wire Wire Line
	11850 5500 12150 5500
Connection ~ 11850 5500
Wire Wire Line
	8350 5200 8350 5500
Wire Wire Line
	9050 5200 9050 5500
Connection ~ 9050 5500
Wire Wire Line
	9750 5200 9750 5500
Wire Wire Line
	9050 5500 9350 5500
Connection ~ 9750 5500
Wire Wire Line
	10450 5200 10450 5500
Connection ~ 10450 5500
Wire Wire Line
	11150 5200 11150 5500
Connection ~ 11150 5500
Wire Wire Line
	11150 5500 11450 5500
$Comp
L accent:SK6812MINI-E L3
U 1 1 62DD97F1
P 9550 5100
F 0 "L3" H 9550 5362 51  0000 C CNN
F 1 "SK6812MINI-E" H 9550 5297 16  0000 C CNN
F 2 "accent-footprint:SK6812MINI-E-With_Cuts" H 9550 5100 60  0001 C CNN
F 3 "" H 9550 5100 60  0001 C CNN
	1    9550 5100
	1    0    0    -1  
$EndComp
Wire Wire Line
	10050 5950 10050 5500
Wire Wire Line
	9750 5500 10050 5500
Connection ~ 10050 5500
Wire Wire Line
	10050 5500 10450 5500
Wire Wire Line
	10750 5950 10750 5500
Wire Wire Line
	10450 5500 10750 5500
Connection ~ 10750 5500
Wire Wire Line
	10750 5500 11150 5500
Wire Wire Line
	11450 5950 11450 5500
Connection ~ 11450 5500
Wire Wire Line
	11450 5500 11850 5500
Wire Wire Line
	9350 5950 9350 5500
Connection ~ 9350 5500
Wire Wire Line
	9350 5500 9750 5500
Wire Wire Line
	8650 5950 8650 5500
Connection ~ 8650 5500
Wire Wire Line
	8650 5500 9050 5500
Wire Wire Line
	7950 5950 7950 5500
Wire Wire Line
	7950 5500 8350 5500
Connection ~ 8350 5500
Wire Wire Line
	8350 5500 8650 5500
Wire Wire Line
	7950 5200 7800 5200
Wire Wire Line
	7800 5200 7800 6150
Wire Wire Line
	7800 6150 7950 6150
Wire Wire Line
	11850 5950 11950 5950
Wire Wire Line
	11950 5950 11950 6850
Wire Wire Line
	11850 6150 11850 6500
Wire Wire Line
	8350 6150 8350 6500
Connection ~ 8350 6500
Wire Wire Line
	8350 6500 7950 6500
Wire Wire Line
	9050 6150 9050 6500
Connection ~ 9050 6500
Wire Wire Line
	9750 6150 9750 6500
Wire Wire Line
	9050 6500 9350 6500
Connection ~ 9750 6500
Wire Wire Line
	9350 6850 9350 6500
Connection ~ 9350 6500
Wire Wire Line
	9350 6500 9750 6500
Wire Wire Line
	8650 6850 8650 6500
Wire Wire Line
	8350 6500 8650 6500
Connection ~ 8650 6500
Wire Wire Line
	8650 6500 9050 6500
Wire Wire Line
	7950 6850 7950 6500
Connection ~ 7950 6500
Wire Wire Line
	7950 6500 7650 6500
Wire Wire Line
	10050 6850 10050 6500
Wire Wire Line
	9750 6500 10050 6500
Connection ~ 10050 6500
Wire Wire Line
	10050 6500 10450 6500
Wire Wire Line
	10750 6850 10750 6500
Connection ~ 10750 6500
Wire Wire Line
	10750 6500 11150 6500
Wire Wire Line
	10450 6150 10450 6500
Connection ~ 10450 6500
Wire Wire Line
	10450 6500 10750 6500
Wire Wire Line
	11150 6150 11150 6500
Connection ~ 11150 6500
Wire Wire Line
	11150 6500 11450 6500
Wire Wire Line
	11450 6850 11450 6500
Connection ~ 11450 6500
Wire Wire Line
	11450 6500 11850 6500
Wire Wire Line
	7950 7050 7950 8000
Wire Wire Line
	7950 8000 9350 8000
Wire Wire Line
	8350 7050 8350 7400
Wire Wire Line
	8350 7400 9050 7400
Wire Wire Line
	9350 7800 9350 7400
Connection ~ 9350 7400
Wire Wire Line
	9350 7400 9750 7400
Wire Wire Line
	9050 7050 9050 7400
Connection ~ 9050 7400
Wire Wire Line
	9050 7400 9350 7400
Wire Wire Line
	9750 7050 9750 7400
Connection ~ 9750 7400
Wire Wire Line
	10450 7050 10450 7400
Connection ~ 10450 7400
Wire Wire Line
	11150 7050 11150 7400
Connection ~ 11150 7400
Wire Wire Line
	11850 7050 11850 7400
Connection ~ 11850 7400
Wire Wire Line
	11850 7400 12050 7400
$Comp
L accent:VCC #PWR0124
U 1 1 62F29D9E
P 7650 8250
F 0 "#PWR0124" H 7650 8100 50  0001 C CNN
F 1 "VCC" H 7667 8423 50  0000 C CNN
F 2 "" H 7650 8250 50  0000 C CNN
F 3 "" H 7650 8250 50  0000 C CNN
	1    7650 8250
	0    -1   -1   0   
$EndComp
Connection ~ 11150 8250
Connection ~ 10450 8250
Connection ~ 9750 8250
Wire Wire Line
	7650 8250 7950 8250
Connection ~ 11450 7400
Wire Wire Line
	11450 7400 11850 7400
Wire Wire Line
	11150 7400 11450 7400
Connection ~ 10750 7400
Wire Wire Line
	10750 7400 11150 7400
Wire Wire Line
	10450 7400 10750 7400
Connection ~ 10050 7400
Wire Wire Line
	10050 7400 10450 7400
Wire Wire Line
	9750 7400 10050 7400
Wire Wire Line
	9750 8000 9750 8250
Wire Wire Line
	10450 8000 10450 8250
Wire Wire Line
	11150 8000 11150 8250
Wire Wire Line
	11850 8000 11850 8250
Wire Wire Line
	11450 7800 11450 7400
Wire Wire Line
	10750 7800 10750 7400
Wire Wire Line
	10050 7800 10050 7400
$Comp
L accent:SK6812MINI-E L21
U 1 1 62D17C45
P 10950 7900
F 0 "L21" H 10950 7638 51  0000 C CNN
F 1 "SK6812MINI-E" H 10950 7703 16  0000 C CNN
F 2 "accent-footprint:SK6812MINI-E-With_Cuts" H 10950 7900 60  0001 C CNN
F 3 "" H 10950 7900 60  0001 C CNN
	1    10950 7900
	-1   0    0    1   
$EndComp
$Comp
L accent:SK6812MINI-E L22
U 1 1 6274E55B
P 11650 7900
F 0 "L22" H 11650 7638 51  0000 C CNN
F 1 "SK6812MINI-E" H 11650 7703 16  0000 C CNN
F 2 "accent-footprint:SK6812MINI-E-With_Cuts" H 11650 7900 60  0001 C CNN
F 3 "" H 11650 7900 60  0001 C CNN
	1    11650 7900
	-1   0    0    1   
$EndComp
$Comp
L accent:SK6812MINI-E L20
U 1 1 6274E567
P 10250 7900
F 0 "L20" H 10250 7638 51  0000 C CNN
F 1 "SK6812MINI-E" H 10250 7703 16  0000 C CNN
F 2 "accent-footprint:SK6812MINI-E-With_Cuts" H 10250 7900 60  0001 C CNN
F 3 "" H 10250 7900 60  0001 C CNN
	1    10250 7900
	-1   0    0    1   
$EndComp
$Comp
L accent:SK6812MINI-E L19
U 1 1 6274E570
P 9550 7900
F 0 "L19" H 9550 7638 51  0000 C CNN
F 1 "SK6812MINI-E" H 9550 7703 16  0000 C CNN
F 2 "accent-footprint:SK6812MINI-E-With_Cuts" H 9550 7900 60  0001 C CNN
F 3 "" H 9550 7900 60  0001 C CNN
	1    9550 7900
	-1   0    0    1   
$EndComp
Wire Wire Line
	9900 8000 10050 8000
Wire Wire Line
	10600 8000 10750 8000
Wire Wire Line
	11450 8000 11300 8000
Wire Wire Line
	11150 7800 11300 7800
Wire Wire Line
	10450 7800 10600 7800
Wire Wire Line
	9750 7800 9900 7800
Wire Wire Line
	11300 7800 11300 8000
Wire Wire Line
	10600 7800 10600 8000
Wire Wire Line
	9900 7800 9900 8000
Wire Wire Line
	11850 7800 11950 7800
Wire Wire Line
	7950 8850 7950 8250
Connection ~ 7950 8250
NoConn ~ 7950 9050
$Comp
L accent:GND #PWR0121
U 1 1 61EF8005
P 12050 9400
F 0 "#PWR0121" H 12050 9150 50  0001 C CNN
F 1 "GND" H 12055 9227 50  0000 C CNN
F 2 "" H 12050 9400 50  0000 C CNN
F 3 "" H 12050 9400 50  0000 C CNN
	1    12050 9400
	0    -1   -1   0   
$EndComp
Wire Wire Line
	9750 9400 10450 9400
Wire Wire Line
	10450 9400 11150 9400
Wire Wire Line
	11150 9400 11850 9400
Wire Wire Line
	11850 9400 12050 9400
Connection ~ 11850 9400
Connection ~ 11150 9400
Connection ~ 10450 9400
Connection ~ 9750 9400
Connection ~ 9050 9400
Wire Wire Line
	9050 9400 9750 9400
Wire Wire Line
	8350 9400 9050 9400
Wire Wire Line
	7950 8250 8650 8250
Connection ~ 8650 8250
Wire Wire Line
	8650 8250 9350 8250
Wire Wire Line
	9350 8250 9750 8250
Connection ~ 9350 8250
Connection ~ 10050 8250
Connection ~ 10750 8250
Wire Wire Line
	10750 8250 11150 8250
Wire Wire Line
	10450 8250 10750 8250
Connection ~ 11450 8250
Wire Wire Line
	10050 8250 10450 8250
Wire Wire Line
	9750 8250 10050 8250
Wire Wire Line
	11450 8250 11850 8250
Wire Wire Line
	11150 8250 11450 8250
Wire Wire Line
	11850 9050 11850 9400
Wire Wire Line
	11150 9050 11150 9400
Wire Wire Line
	10450 9050 10450 9400
Wire Wire Line
	9750 9050 9750 9400
Wire Wire Line
	9050 9050 9050 9400
Wire Wire Line
	8350 9050 8350 9400
Wire Wire Line
	8650 8850 8650 8250
Wire Wire Line
	9350 8850 9350 8250
Wire Wire Line
	10050 8850 10050 8250
Wire Wire Line
	10750 8850 10750 8250
Wire Wire Line
	11450 8850 11450 8250
Wire Wire Line
	11950 8850 11850 8850
Wire Wire Line
	11950 7800 11950 8850
Wire Wire Line
	11150 8850 11300 8850
Wire Wire Line
	10450 8850 10600 8850
Wire Wire Line
	9750 8850 9900 8850
Wire Wire Line
	9050 8850 9200 8850
Wire Wire Line
	8350 8850 8500 8850
Wire Wire Line
	9200 9050 9350 9050
Wire Wire Line
	9900 9050 10050 9050
Wire Wire Line
	10600 9050 10750 9050
Wire Wire Line
	11300 9050 11450 9050
Wire Wire Line
	8500 9050 8650 9050
$Comp
L accent:SK6812MINI-E-Underglow L23
U 1 1 61F730B4
P 8150 8950
F 0 "L23" H 8150 9212 51  0000 C CNN
F 1 "SK6812MINI-E-Underglow" H 8150 9147 16  0000 C CNN
F 2 "accent-footprint:SK6812MINI-E-Underglow-With_Cuts" H 8150 8950 60  0001 C CNN
F 3 "" H 8150 8950 60  0001 C CNN
	1    8150 8950
	1    0    0    -1  
$EndComp
$Comp
L accent:SK6812MINI-E-Underglow L24
U 1 1 61F74981
P 8850 8950
F 0 "L24" H 8850 9212 51  0000 C CNN
F 1 "SK6812MINI-E-Underglow" H 8850 9147 16  0000 C CNN
F 2 "accent-footprint:SK6812MINI-E-Underglow-With_Cuts" H 8850 8950 60  0001 C CNN
F 3 "" H 8850 8950 60  0001 C CNN
	1    8850 8950
	1    0    0    -1  
$EndComp
$Comp
L accent:SK6812MINI-E-Underglow L25
U 1 1 61F75870
P 9550 8950
F 0 "L25" H 9550 9212 51  0000 C CNN
F 1 "SK6812MINI-E-Underglow" H 9550 9147 16  0000 C CNN
F 2 "accent-footprint:SK6812MINI-E-Underglow-With_Cuts" H 9550 8950 60  0001 C CNN
F 3 "" H 9550 8950 60  0001 C CNN
	1    9550 8950
	1    0    0    -1  
$EndComp
$Comp
L accent:SK6812MINI-E-Underglow L26
U 1 1 61F76E93
P 10250 8950
F 0 "L26" H 10250 9212 51  0000 C CNN
F 1 "SK6812MINI-E-Underglow" H 10250 9147 16  0000 C CNN
F 2 "accent-footprint:SK6812MINI-E-Underglow-With_Cuts" H 10250 8950 60  0001 C CNN
F 3 "" H 10250 8950 60  0001 C CNN
	1    10250 8950
	1    0    0    -1  
$EndComp
$Comp
L accent:SK6812MINI-E-Underglow L27
U 1 1 61F76E99
P 10950 8950
F 0 "L27" H 10950 9212 51  0000 C CNN
F 1 "SK6812MINI-E-Underglow" H 10950 9147 16  0000 C CNN
F 2 "accent-footprint:SK6812MINI-E-Underglow-With_Cuts" H 10950 8950 60  0001 C CNN
F 3 "" H 10950 8950 60  0001 C CNN
	1    10950 8950
	1    0    0    -1  
$EndComp
$Comp
L accent:SK6812MINI-E-Underglow L28
U 1 1 61F76E9F
P 11650 8950
F 0 "L28" H 11650 9212 51  0000 C CNN
F 1 "SK6812MINI-E-Underglow" H 11650 9147 16  0000 C CNN
F 2 "accent-footprint:SK6812MINI-E-Underglow-With_Cuts" H 11650 8950 60  0001 C CNN
F 3 "" H 11650 8950 60  0001 C CNN
	1    11650 8950
	1    0    0    -1  
$EndComp
Wire Wire Line
	11300 8850 11300 9050
Wire Wire Line
	10600 8850 10600 9050
Wire Wire Line
	9900 8850 9900 9050
Wire Wire Line
	9200 8850 9200 9050
Wire Wire Line
	8500 8850 8500 9050
$EndSCHEMATC
