<?xml version="1.0" standalone="no"?>
 <!DOCTYPE svg PUBLIC "-//W3C//DTD SVG 1.1//EN" 
 "http://www.w3.org/Graphics/SVG/1.1/DTD/svg11.dtd"> 
<svg
  xmlns:svg="http://www.w3.org/2000/svg"
  xmlns="http://www.w3.org/2000/svg"
  xmlns:xlink="http://www.w3.org/1999/xlink"
  version="1.1"
  width="16.332200cm" height="9.994900cm" viewBox="0 0 64300 39350">
<title>SVG Picture created as accent-Dwgs_User.svg date 2022/01/11 10:40:12 </title>
  <desc>Picture generated by PCBNEW </desc>
<g style="fill:#000000; fill-opacity:1;stroke:#000000; stroke-opacity:1;
stroke-linecap:round; stroke-linejoin:round;"
 transform="translate(0 0) scale(1 1)">
</g>
<g style="fill:#000000; fill-opacity:0.0; 
stroke:#000000; stroke-width:-0.000393701; stroke-opacity:1; 
stroke-linecap:round; stroke-linejoin:round;">
</g>
<g style="fill:#C2C2C2; fill-opacity:0.0; 
stroke:#C2C2C2; stroke-width:-0.000393701; stroke-opacity:1; 
stroke-linecap:round; stroke-linejoin:round;">
</g>
<g style="fill:#C2C2C2; fill-opacity:0.0; 
stroke:#C2C2C2; stroke-width:59.0551; stroke-opacity:1; 
stroke-linecap:round; stroke-linejoin:round;">
<g transform="rotate(-90 62571.3 19679.5)">
<text x="62571.3" y="19876.4"
textLength="3471.13" font-size="524.934" lengthAdjust="spacingAndGlyphs"
text-anchor="middle" opacity="0">99.822 mm</text>
</g>
<path d="M62749 21273
L62749 21198
L62730 21160
L62711 21141
L62655 21104
L62580 21085
L62430 21085
L62393 21104
L62374 21123
L62355 21160
L62355 21235
L62374 21273
L62393 21291
L62430 21310
L62524 21310
L62561 21291
L62580 21273
L62599 21235
L62599 21160
L62580 21123
L62561 21104
L62524 21085
" />
<path d="M62749 20898
L62749 20823
L62730 20785
L62711 20766
L62655 20729
L62580 20710
L62430 20710
L62393 20729
L62374 20748
L62355 20785
L62355 20860
L62374 20898
L62393 20916
L62430 20935
L62524 20935
L62561 20916
L62580 20898
L62599 20860
L62599 20785
L62580 20748
L62561 20729
L62524 20710
" />
<path d="M62711 20541
L62730 20523
L62749 20541
L62730 20560
L62711 20541
L62749 20541
" />
<path d="M62524 20298
L62505 20335
L62486 20354
L62449 20373
L62430 20373
L62393 20354
L62374 20335
L62355 20298
L62355 20223
L62374 20185
L62393 20166
L62430 20148
L62449 20148
L62486 20166
L62505 20185
L62524 20223
L62524 20298
L62543 20335
L62561 20354
L62599 20373
L62674 20373
L62711 20354
L62730 20335
L62749 20298
L62749 20223
L62730 20185
L62711 20166
L62674 20148
L62599 20148
L62561 20166
L62543 20185
L62524 20223
" />
<path d="M62393 19998
L62374 19979
L62355 19941
L62355 19848
L62374 19810
L62393 19792
L62430 19773
L62468 19773
L62524 19792
L62749 20016
L62749 19773
" />
<path d="M62393 19623
L62374 19604
L62355 19567
L62355 19473
L62374 19435
L62393 19417
L62430 19398
L62468 19398
L62524 19417
L62749 19642
L62749 19398
" />
<path d="M62749 18929
L62486 18929
" />
<path d="M62524 18929
L62505 18910
L62486 18873
L62486 18817
L62505 18779
L62543 18760
L62749 18760
" />
<path d="M62543 18760
L62505 18742
L62486 18704
L62486 18648
L62505 18610
L62543 18592
L62749 18592
" />
<path d="M62749 18404
L62486 18404
" />
<path d="M62524 18404
L62505 18385
L62486 18348
L62486 18292
L62505 18254
L62543 18235
L62749 18235
" />
<path d="M62543 18235
L62505 18217
L62486 18179
L62486 18123
L62505 18085
L62543 18067
L62749 18067
" />
<path d="M62059 39329
L62059 29
" />
<path d="M51559 39329
L62290 39329
" />
<path d="M51559 29
L62290 29
" />
<path d="M62059 29
L62290 473
" />
<path d="M62059 29
L61828 473
" />
<path d="M62059 39329
L62290 38886
" />
<path d="M62059 39329
L61828 38886
" />
</g>
<g style="fill:#C2C2C2; fill-opacity:0.0; 
stroke:#C2C2C2; stroke-width:47.2441; stroke-opacity:1; 
stroke-linecap:round; stroke-linejoin:round;">
<path d="M40874 26130
L40874 25028
" />
<path d="M42159 26130
L42159 25028
" />
<path d="M42159 25028
L40899 25028
" />
<path d="M42159 26130
L40899 26130
" />
<path d="M42159 26130
L40899 26130
" />
<path d="M40874 25028
L40874 26130
" />
<path d="M42159 25028
L40899 25028
" />
<path d="M42159 25028
L42159 26130
" />
<path d="M42184 10028
L42184 11130
" />
<path d="M40899 10028
L40899 11130
" />
<path d="M40899 11130
L42159 11130
" />
<path d="M40899 10028
L42159 10028
" />
<path d="M40899 10028
L42159 10028
" />
<path d="M42184 11130
L42184 10028
" />
<path d="M40899 11130
L42159 11130
" />
<path d="M40899 11130
L40899 10028
" />
<path d="M25904 23130
L25904 22028
" />
<path d="M27189 23130
L27189 22028
" />
<path d="M27189 22028
L25929 22028
" />
<path d="M27189 23130
L25929 23130
" />
<path d="M27189 23130
L25929 23130
" />
<path d="M25904 22028
L25904 23130
" />
<path d="M27189 22028
L25929 22028
" />
<path d="M27189 22028
L27189 23130
" />
<path d="M10904 18380
L10904 17278
" />
<path d="M12189 18380
L12189 17278
" />
<path d="M12189 17278
L10929 17278
" />
<path d="M12189 18380
L10929 18380
" />
<path d="M12189 18380
L10929 18380
" />
<path d="M10904 17278
L10904 18380
" />
<path d="M12189 17278
L10929 17278
" />
<path d="M12189 17278
L12189 18380
" />
<path d="M12214 9778
L12214 10880
" />
<path d="M10929 9778
L10929 10880
" />
<path d="M10929 10880
L12189 10880
" />
<path d="M10929 9778
L12189 9778
" />
<path d="M10929 9778
L12189 9778
" />
<path d="M12214 10880
L12214 9778
" />
<path d="M10929 10880
L12189 10880
" />
<path d="M10929 10880
L10929 9778
" />
<path d="M27214 6778
L27214 7880
" />
<path d="M25929 6778
L25929 7880
" />
<path d="M25929 7880
L27189 7880
" />
<path d="M25929 6778
L27189 6778
" />
<path d="M25929 6778
L27189 6778
" />
<path d="M27214 7880
L27214 6778
" />
<path d="M25929 7880
L27189 7880
" />
<path d="M25929 7880
L25929 6778
" />
<path d="M50296 34054
L51361 34339
" />
<path d="M49964 35295
L51028 35580
" />
<path d="M51028 35580
L51354 34363
" />
<path d="M49964 35295
L50290 34078
" />
<path d="M49964 35295
L50290 34078
" />
<path d="M51361 34339
L50296 34054
" />
<path d="M51028 35580
L51354 34363
" />
<path d="M51028 35580
L49964 35295
" />
<path d="M42214 30528
L42214 31630
" />
<path d="M40929 30528
L40929 31630
" />
<path d="M40929 31630
L42189 31630
" />
<path d="M40929 30528
L42189 30528
" />
<path d="M40929 30528
L42189 30528
" />
<path d="M42214 31630
L42214 30528
" />
<path d="M40929 31630
L42189 31630
" />
<path d="M40929 31630
L40929 30528
" />
<path d="M34714 29528
L34714 30630
" />
<path d="M33429 29528
L33429 30630
" />
<path d="M33429 30630
L34689 30630
" />
<path d="M33429 29528
L34689 29528
" />
<path d="M33429 29528
L34689 29528
" />
<path d="M34714 30630
L34714 29528
" />
<path d="M33429 30630
L34689 30630
" />
<path d="M33429 30630
L33429 29528
" />
<path d="M27214 30528
L27214 31630
" />
<path d="M25929 30528
L25929 31630
" />
<path d="M25929 31630
L27189 31630
" />
<path d="M25929 30528
L27189 30528
" />
<path d="M25929 30528
L27189 30528
" />
<path d="M27214 31630
L27214 30528
" />
<path d="M25929 31630
L27189 31630
" />
<path d="M25929 31630
L25929 30528
" />
<path d="M40874 24130
L40874 23028
" />
<path d="M42159 24130
L42159 23028
" />
<path d="M42159 23028
L40899 23028
" />
<path d="M42159 24130
L40899 24130
" />
<path d="M42159 24130
L40899 24130
" />
<path d="M40874 23028
L40874 24130
" />
<path d="M42159 23028
L40899 23028
" />
<path d="M42159 23028
L42159 24130
" />
<path d="M33404 23130
L33404 22028
" />
<path d="M34689 23130
L34689 22028
" />
<path d="M34689 22028
L33429 22028
" />
<path d="M34689 23130
L33429 23130
" />
<path d="M34689 23130
L33429 23130
" />
<path d="M33404 22028
L33404 23130
" />
<path d="M34689 22028
L33429 22028
" />
<path d="M34689 22028
L34689 23130
" />
<path d="M25904 21130
L25904 20028
" />
<path d="M27189 21130
L27189 20028
" />
<path d="M27189 20028
L25929 20028
" />
<path d="M27189 21130
L25929 21130
" />
<path d="M27189 21130
L25929 21130
" />
<path d="M25904 20028
L25904 21130
" />
<path d="M27189 20028
L25929 20028
" />
<path d="M27189 20028
L27189 21130
" />
<path d="M18404 22130
L18404 21028
" />
<path d="M19689 22130
L19689 21028
" />
<path d="M19689 21028
L18429 21028
" />
<path d="M19689 22130
L18429 22130
" />
<path d="M19689 22130
L18429 22130
" />
<path d="M18404 21028
L18404 22130
" />
<path d="M19689 21028
L18429 21028
" />
<path d="M19689 21028
L19689 22130
" />
<path d="M10904 24130
L10904 23028
" />
<path d="M12189 24130
L12189 23028
" />
<path d="M12189 23028
L10929 23028
" />
<path d="M12189 24130
L10929 24130
" />
<path d="M12189 24130
L10929 24130
" />
<path d="M10904 23028
L10904 24130
" />
<path d="M12189 23028
L10929 23028
" />
<path d="M12189 23028
L12189 24130
" />
<path d="M3374 24630
L3374 23528
" />
<path d="M4659 24630
L4659 23528
" />
<path d="M4659 23528
L3399 23528
" />
<path d="M4659 24630
L3399 24630
" />
<path d="M4659 24630
L3399 24630
" />
<path d="M3374 23528
L3374 24630
" />
<path d="M4659 23528
L3399 23528
" />
<path d="M4659 23528
L4659 24630
" />
<path d="M42184 15528
L42184 16630
" />
<path d="M40899 15528
L40899 16630
" />
<path d="M40899 16630
L42159 16630
" />
<path d="M40899 15528
L42159 15528
" />
<path d="M40899 15528
L42159 15528
" />
<path d="M42184 16630
L42184 15528
" />
<path d="M40899 16630
L42159 16630
" />
<path d="M40899 16630
L40899 15528
" />
<path d="M34714 14528
L34714 15630
" />
<path d="M33429 14528
L33429 15630
" />
<path d="M33429 15630
L34689 15630
" />
<path d="M33429 14528
L34689 14528
" />
<path d="M33429 14528
L34689 14528
" />
<path d="M34714 15630
L34714 14528
" />
<path d="M33429 15630
L34689 15630
" />
<path d="M33429 15630
L33429 14528
" />
<path d="M27214 12528
L27214 13630
" />
<path d="M25929 12528
L25929 13630
" />
<path d="M25929 13630
L27189 13630
" />
<path d="M25929 12528
L27189 12528
" />
<path d="M25929 12528
L27189 12528
" />
<path d="M27214 13630
L27214 12528
" />
<path d="M25929 13630
L27189 13630
" />
<path d="M25929 13630
L25929 12528
" />
<path d="M19714 13528
L19714 14630
" />
<path d="M18429 13528
L18429 14630
" />
<path d="M18429 14630
L19689 14630
" />
<path d="M18429 13528
L19689 13528
" />
<path d="M18429 13528
L19689 13528
" />
<path d="M19714 14630
L19714 13528
" />
<path d="M18429 14630
L19689 14630
" />
<path d="M18429 14630
L18429 13528
" />
<path d="M12214 15528
L12214 16630
" />
<path d="M10929 15528
L10929 16630
" />
<path d="M10929 16630
L12189 16630
" />
<path d="M10929 15528
L12189 15528
" />
<path d="M10929 15528
L12189 15528
" />
<path d="M12214 16630
L12214 15528
" />
<path d="M10929 16630
L12189 16630
" />
<path d="M10929 16630
L10929 15528
" />
<path d="M4684 16028
L4684 17130
" />
<path d="M3399 16028
L3399 17130
" />
<path d="M3399 17130
L4659 17130
" />
<path d="M3399 16028
L4659 16028
" />
<path d="M3399 16028
L4659 16028
" />
<path d="M4684 17130
L4684 16028
" />
<path d="M3399 17130
L4659 17130
" />
<path d="M3399 17130
L3399 16028
" />
<path d="M40874 9130
L40874 8028
" />
<path d="M42159 9130
L42159 8028
" />
<path d="M42159 8028
L40899 8028
" />
<path d="M42159 9130
L40899 9130
" />
<path d="M42159 9130
L40899 9130
" />
<path d="M40874 8028
L40874 9130
" />
<path d="M42159 8028
L40899 8028
" />
<path d="M42159 8028
L42159 9130
" />
<path d="M33404 8130
L33404 7028
" />
<path d="M34689 8130
L34689 7028
" />
<path d="M34689 7028
L33429 7028
" />
<path d="M34689 8130
L33429 8130
" />
<path d="M34689 8130
L33429 8130
" />
<path d="M33404 7028
L33404 8130
" />
<path d="M34689 7028
L33429 7028
" />
<path d="M34689 7028
L34689 8130
" />
<path d="M25904 6130
L25904 5028
" />
<path d="M27189 6130
L27189 5028
" />
<path d="M27189 5028
L25929 5028
" />
<path d="M27189 6130
L25929 6130
" />
<path d="M27189 6130
L25929 6130
" />
<path d="M25904 5028
L25904 6130
" />
<path d="M27189 5028
L25929 5028
" />
<path d="M27189 5028
L27189 6130
" />
<path d="M18404 7130
L18404 6028
" />
<path d="M19689 7130
L19689 6028
" />
<path d="M19689 6028
L18429 6028
" />
<path d="M19689 7130
L18429 7130
" />
<path d="M19689 7130
L18429 7130
" />
<path d="M18404 6028
L18404 7130
" />
<path d="M19689 6028
L18429 6028
" />
<path d="M19689 6028
L19689 7130
" />
<path d="M10904 9130
L10904 8028
" />
<path d="M12189 9130
L12189 8028
" />
<path d="M12189 8028
L10929 8028
" />
<path d="M12189 9130
L10929 9130
" />
<path d="M12189 9130
L10929 9130
" />
<path d="M10904 8028
L10904 9130
" />
<path d="M12189 8028
L10929 8028
" />
<path d="M12189 8028
L12189 9130
" />
<path d="M3374 9630
L3374 8528
" />
<path d="M4659 9630
L4659 8528
" />
<path d="M4659 8528
L3399 8528
" />
<path d="M4659 9630
L3399 9630
" />
<path d="M4659 9630
L3399 9630
" />
<path d="M3374 8528
L3374 9630
" />
<path d="M4659 8528
L3399 8528
" />
<path d="M4659 8528
L4659 9630
" />
<circle cx="37529.5" cy="9579.53" r="846.457" /> 
<circle cx="7779.53" cy="10829.5" r="846.457" /> 
<circle cx="46779.5" cy="25579.5" r="433.071" /> 
<circle cx="46779.5" cy="29579.5" r="846.457" /> 
<circle cx="29409.4" cy="24829.5" r="846.457" /> 
<circle cx="7779.53" cy="18329.5" r="846.457" /> 
<circle cx="53529.5" cy="27829.5" r="433.071" /> 
<g >
</g>
<g >
</g>
<g >
</g>
<g >
</g>
<g >
</g>
<g >
</g>
<g >
</g>
<g >
</g>
<g >
</g>
<g >
</g>
<g >
</g>
<g >
</g>
<g >
</g>
<g >
</g>
<g >
</g>
<g >
</g>
<g >
</g>
<g >
</g>
<g >
</g>
<g >
</g>
<g >
</g>
<g >
</g>
<g >
</g>
<g >
</g>
<g >
</g>
<g >
</g>
<g >
</g>
<g >
</g>
<g >
</g>
<g >
</g>
<g >
</g>
<g >
</g>
<g >
</g>
<g >
</g>
<g >
</g>
<g >
</g>
<g >
</g>
<g >
</g>
<g >
</g>
<g >
</g>
<g >
</g>
<g >
</g>
<g >
</g>
<g >
</g>
<g >
</g>
<g >
</g>
<g >
</g>
<g >
</g>
<g >
</g>
<g >
</g>
<g >
</g>
<g >
</g>
<g >
</g>
<g >
</g>
<g >
</g>
<g >
</g>
<g >
</g>
<g >
</g>
<g >
</g>
<g >
</g>
<g >
</g>
<g >
</g>
<g >
</g>
<g >
</g>
<g >
</g>
<g >
</g>
<g >
</g>
<g >
</g>
<g >
</g>
<g >
</g>
<g >
</g>
<g >
</g>
<g >
</g>
<g >
</g>
<g >
</g>
<g >
</g>
<g >
</g>
<g >
</g>
<g >
</g>
<g >
</g>
<g >
</g>
<g >
</g>
<g >
</g>
<g >
</g>
<g >
</g>
<g >
</g>
<g >
</g>
<g >
</g>
<g >
</g>
<g >
</g>
<g >
</g>
<g >
</g>
<g >
</g>
<g >
</g>
<g >
</g>
<g >
</g>
<g >
</g>
<g >
</g>
<g >
</g>
</g>
<g style="fill:#000000; fill-opacity:0.0; 
stroke:#000000; stroke-width:47.2441; stroke-opacity:1; 
stroke-linecap:round; stroke-linejoin:round;">
</g>
<g style="fill:#C2C200; fill-opacity:0.0; 
stroke:#C2C200; stroke-width:47.2441; stroke-opacity:1; 
stroke-linecap:round; stroke-linejoin:round;">
</g>
<g style="fill:#C2C200; fill-opacity:0.0; 
stroke:#C2C200; stroke-width:59.0551; stroke-opacity:1; 
stroke-linecap:round; stroke-linejoin:round;">
<path d="M38059 2529
L38059 3029
" />
<path d="M22259 27229
L21659 26579
" />
<path d="M22259 27229
L22259 32829
" />
<path d="M7529 26579
L21659 26579
" />
<path d="M53779 31829
L54529 31079
" />
<path d="M44279 37329
L44029 36829
" />
<path d="M51529 39329
L44279 37329
" />
<path d="M54529 31079
L54529 3729
" />
<path d="M29 4029
L429 3529
" />
<path d="M29 26079
L29 4029
" />
<path d="M529 26579
L29 26079
" />
<path d="M7529 26579
L529 26579
" />
<path d="M22859 33329
L22259 32829
" />
<path d="M43459 33329
L22859 33329
" />
<path d="M44529 34829
L43459 33329
" />
<path d="M44029 36829
L44529 34829
" />
<path d="M52029 38829
L51529 39329
" />
<path d="M53779 31829
L52029 38829
" />
<path d="M46029 3729
L54529 3729
" />
<path d="M45059 3029
L46029 3729
" />
<path d="M38059 3029
L45059 3029
" />
<path d="M37559 2029
L38059 2529
" />
<path d="M30529 2029
L37559 2029
" />
<path d="M30529 529
L30529 2029
" />
<path d="M30059 29
L30529 529
" />
<path d="M22859 29
L30059 29
" />
<path d="M22529 529
L22859 29
" />
<path d="M22529 1029
L22529 529
" />
<path d="M15459 1029
L22529 1029
" />
<path d="M15159 1329
L15459 1029
" />
<path d="M15159 3029
L15159 1329
" />
<path d="M7959 3029
L15159 3029
" />
<path d="M7559 3529
L7959 3029
" />
<path d="M429 3529
L7559 3529
" />
</g>
<g style="fill:#C2C200; fill-opacity:0.0; 
stroke:#C2C200; stroke-width:47.2441; stroke-opacity:1; 
stroke-linecap:round; stroke-linejoin:round;">
<path d="M40820 26189
L42238 26189
" />
<path d="M40820 24969
L40820 26189
" />
<path d="M42238 24969
L40820 24969
" />
<path d="M42238 26189
L42238 24969
" />
<path d="M42238 9969
L40820 9969
" />
<path d="M42238 11189
L42238 9969
" />
<path d="M40820 11189
L42238 11189
" />
<path d="M40820 9969
L40820 11189
" />
<path d="M25850 23189
L27268 23189
" />
<path d="M25850 21969
L25850 23189
" />
<path d="M27268 21969
L25850 21969
" />
<path d="M27268 23189
L27268 21969
" />
<path d="M10850 18439
L12268 18439
" />
<path d="M10850 17219
L10850 18439
" />
<path d="M12268 17219
L10850 17219
" />
<path d="M12268 18439
L12268 17219
" />
<path d="M12268 9719
L10850 9719
" />
<path d="M12268 10939
L12268 9719
" />
<path d="M10850 10939
L12268 10939
" />
<path d="M10850 9719
L10850 10939
" />
<path d="M27268 6719
L25850 6719
" />
<path d="M27268 7939
L27268 6719
" />
<path d="M25850 7939
L27268 7939
" />
<path d="M25850 6719
L25850 7939
" />
<path d="M50253 33987
L49886 35356
" />
<path d="M51432 34302
L50253 33987
" />
<path d="M51065 35671
L51432 34302
" />
<path d="M49886 35356
L51065 35671
" />
<path d="M42268 30469
L40850 30469
" />
<path d="M42268 31689
L42268 30469
" />
<path d="M40850 31689
L42268 31689
" />
<path d="M40850 30469
L40850 31689
" />
<path d="M34768 29469
L33350 29469
" />
<path d="M34768 30689
L34768 29469
" />
<path d="M33350 30689
L34768 30689
" />
<path d="M33350 29469
L33350 30689
" />
<path d="M27268 30469
L25850 30469
" />
<path d="M27268 31689
L27268 30469
" />
<path d="M25850 31689
L27268 31689
" />
<path d="M25850 30469
L25850 31689
" />
<path d="M40820 24189
L42238 24189
" />
<path d="M40820 22969
L40820 24189
" />
<path d="M42238 22969
L40820 22969
" />
<path d="M42238 24189
L42238 22969
" />
<path d="M33350 23189
L34768 23189
" />
<path d="M33350 21969
L33350 23189
" />
<path d="M34768 21969
L33350 21969
" />
<path d="M34768 23189
L34768 21969
" />
<path d="M25850 21189
L27268 21189
" />
<path d="M25850 19969
L25850 21189
" />
<path d="M27268 19969
L25850 19969
" />
<path d="M27268 21189
L27268 19969
" />
<path d="M18350 22189
L19768 22189
" />
<path d="M18350 20969
L18350 22189
" />
<path d="M19768 20969
L18350 20969
" />
<path d="M19768 22189
L19768 20969
" />
<path d="M10850 24189
L12268 24189
" />
<path d="M10850 22969
L10850 24189
" />
<path d="M12268 22969
L10850 22969
" />
<path d="M12268 24189
L12268 22969
" />
<path d="M3320 24689
L4738 24689
" />
<path d="M3320 23469
L3320 24689
" />
<path d="M4738 23469
L3320 23469
" />
<path d="M4738 24689
L4738 23469
" />
<path d="M42238 15469
L40820 15469
" />
<path d="M42238 16689
L42238 15469
" />
<path d="M40820 16689
L42238 16689
" />
<path d="M40820 15469
L40820 16689
" />
<path d="M34768 14469
L33350 14469
" />
<path d="M34768 15689
L34768 14469
" />
<path d="M33350 15689
L34768 15689
" />
<path d="M33350 14469
L33350 15689
" />
<path d="M27268 12469
L25850 12469
" />
<path d="M27268 13689
L27268 12469
" />
<path d="M25850 13689
L27268 13689
" />
<path d="M25850 12469
L25850 13689
" />
<path d="M19768 13469
L18350 13469
" />
<path d="M19768 14689
L19768 13469
" />
<path d="M18350 14689
L19768 14689
" />
<path d="M18350 13469
L18350 14689
" />
<path d="M12268 15469
L10850 15469
" />
<path d="M12268 16689
L12268 15469
" />
<path d="M10850 16689
L12268 16689
" />
<path d="M10850 15469
L10850 16689
" />
<path d="M4738 15969
L3320 15969
" />
<path d="M4738 17189
L4738 15969
" />
<path d="M3320 17189
L4738 17189
" />
<path d="M3320 15969
L3320 17189
" />
<path d="M40820 9189
L42238 9189
" />
<path d="M40820 7969
L40820 9189
" />
<path d="M42238 7969
L40820 7969
" />
<path d="M42238 9189
L42238 7969
" />
<path d="M33350 8189
L34768 8189
" />
<path d="M33350 6969
L33350 8189
" />
<path d="M34768 6969
L33350 6969
" />
<path d="M34768 8189
L34768 6969
" />
<path d="M25850 6189
L27268 6189
" />
<path d="M25850 4969
L25850 6189
" />
<path d="M27268 4969
L25850 4969
" />
<path d="M27268 6189
L27268 4969
" />
<path d="M18350 7189
L19768 7189
" />
<path d="M18350 5969
L18350 7189
" />
<path d="M19768 5969
L18350 5969
" />
<path d="M19768 7189
L19768 5969
" />
<path d="M10850 9189
L12268 9189
" />
<path d="M10850 7969
L10850 9189
" />
<path d="M12268 7969
L10850 7969
" />
<path d="M12268 9189
L12268 7969
" />
<path d="M3320 9689
L4738 9689
" />
<path d="M3320 8469
L3320 9689
" />
<path d="M4738 8469
L3320 8469
" />
<path d="M4738 9689
L4738 8469
" />
<g >
</g>
<g >
</g>
<g >
</g>
<g >
</g>
<g >
</g>
<g >
</g>
<g >
</g>
<g >
</g>
<g >
</g>
<g >
</g>
<g >
</g>
<g >
</g>
<g >
</g>
<g >
</g>
<g >
</g>
<g >
</g>
<g >
</g>
<g >
</g>
<g >
</g>
<g >
</g>
<g >
</g>
<g >
</g>
<g >
</g>
<g >
</g>
<g >
</g>
<g >
</g>
<g >
</g>
<g >
</g>
<g >
</g>
<g >
</g>
<g >
</g>
<g >
</g>
<g >
</g>
<g >
</g>
<g >
</g>
<g >
</g>
<g >
</g>
<g >
</g>
<g >
</g>
<g >
</g>
<g >
</g>
<g >
</g>
<g >
</g>
<g >
</g>
<g >
</g>
<g >
</g>
<g >
</g>
<g >
</g>
<g >
</g>
<g >
</g>
<g >
</g>
<g >
</g>
<g >
</g>
<g >
</g>
<g >
</g>
<g >
</g>
<g >
</g>
<g >
</g>
<g >
</g>
<g >
</g>
<g >
</g>
<g >
</g>
<g >
</g>
<g >
</g>
<g >
</g>
<g >
</g>
<g >
</g>
<g >
</g>
<g >
</g>
<g >
</g>
<g >
</g>
<g >
</g>
<g >
</g>
<g >
</g>
<g >
</g>
<g >
</g>
<g >
</g>
<g >
</g>
<g >
</g>
<g >
</g>
<g >
</g>
<g >
</g>
<g >
</g>
<g >
</g>
<g >
</g>
<g >
</g>
<g >
</g>
<g >
</g>
<g >
</g>
<g >
</g>
<g >
</g>
<g >
</g>
<g >
</g>
<g >
</g>
<g >
</g>
<g >
</g>
<g >
</g>
<g >
</g>
<g >
</g>
</g> 
</svg>
